xof 0302txt 0064
template Header {
 <3D82AB43-62DA-11cf-AB39-0020AF71E433>
 WORD major;
 WORD minor;
 DWORD flags;
}

template Vector {
 <3D82AB5E-62DA-11cf-AB39-0020AF71E433>
 FLOAT x;
 FLOAT y;
 FLOAT z;
}

template Coords2d {
 <F6F23F44-7686-11cf-8F52-0040333594A3>
 FLOAT u;
 FLOAT v;
}

template Matrix4x4 {
 <F6F23F45-7686-11cf-8F52-0040333594A3>
 array FLOAT matrix[16];
}

template ColorRGBA {
 <35FF44E0-6C7C-11cf-8F52-0040333594A3>
 FLOAT red;
 FLOAT green;
 FLOAT blue;
 FLOAT alpha;
}

template ColorRGB {
 <D3E16E81-7835-11cf-8F52-0040333594A3>
 FLOAT red;
 FLOAT green;
 FLOAT blue;
}

template IndexedColor {
 <1630B820-7842-11cf-8F52-0040333594A3>
 DWORD index;
 ColorRGBA indexColor;
}

template Boolean {
 <4885AE61-78E8-11cf-8F52-0040333594A3>
 WORD truefalse;
}

template Boolean2d {
 <4885AE63-78E8-11cf-8F52-0040333594A3>
 Boolean u;
 Boolean v;
}

template MaterialWrap {
 <4885AE60-78E8-11cf-8F52-0040333594A3>
 Boolean u;
 Boolean v;
}

template TextureFilename {
 <A42790E1-7810-11cf-8F52-0040333594A3>
 STRING filename;
}

template Material {
 <3D82AB4D-62DA-11cf-AB39-0020AF71E433>
 ColorRGBA faceColor;
 FLOAT power;
 ColorRGB specularColor;
 ColorRGB emissiveColor;
 [...]
}

template MeshFace {
 <3D82AB5F-62DA-11cf-AB39-0020AF71E433>
 DWORD nFaceVertexIndices;
 array DWORD faceVertexIndices[nFaceVertexIndices];
}

template MeshFaceWraps {
 <4885AE62-78E8-11cf-8F52-0040333594A3>
 DWORD nFaceWrapValues;
 Boolean2d faceWrapValues;
}

template MeshTextureCoords {
 <F6F23F40-7686-11cf-8F52-0040333594A3>
 DWORD nTextureCoords;
 array Coords2d textureCoords[nTextureCoords];
}

template MeshMaterialList {
 <F6F23F42-7686-11cf-8F52-0040333594A3>
 DWORD nMaterials;
 DWORD nFaceIndexes;
 array DWORD faceIndexes[nFaceIndexes];
 [Material]
}

template MeshNormals {
 <F6F23F43-7686-11cf-8F52-0040333594A3>
 DWORD nNormals;
 array Vector normals[nNormals];
 DWORD nFaceNormals;
 array MeshFace faceNormals[nFaceNormals];
}

template MeshVertexColors {
 <1630B821-7842-11cf-8F52-0040333594A3>
 DWORD nVertexColors;
 array IndexedColor vertexColors[nVertexColors];
}

template Mesh {
 <3D82AB44-62DA-11cf-AB39-0020AF71E433>
 DWORD nVertices;
 array Vector vertices[nVertices];
 DWORD nFaces;
 array MeshFace faces[nFaces];
 [...]
}

Header{
1;
0;
1;
}

Mesh {
 104;
 -1.27720;51.44492;91.86736;,
 13.21380;45.45020;89.40352;,
 12.99586;45.23224;76.39268;,
 -1.25462;51.18284;76.21970;,
 -12.82974;45.23224;76.39268;,
 -13.04768;45.45020;89.40352;,
 -10.29110;42.69364;98.33382;,
 -0.99164;48.12970;104.18195;,
 10.45724;42.69364;98.33382;,
 10.24912;42.48550;65.59912;,
 -0.97008;47.87942;63.23870;,
 -10.08300;42.48550;65.59912;,
 -6.24552;38.64804;111.89903;,
 -0.46206;41.98164;111.89903;,
 6.41166;38.64804;111.89903;,
 7.17050;39.40688;59.36992;,
 -0.65114;40.84324;55.74704;,
 -7.00436;39.40688;59.36992;,
 0.44036;32.67674;122.11054;,
 -6.24552;38.64804;111.89903;,
 4.98310;37.21950;56.15864;,
 -0.42454;38.21256;51.88492;,
 -4.81698;37.21950;56.15864;,
 -0.42454;26.42636;51.88492;,
 4.98310;27.41944;56.15864;,
 7.17050;25.23204;59.36992;,
 -0.65114;23.79568;55.74704;,
 -7.00436;25.23204;59.36992;,
 -4.81698;27.41944;56.15864;,
 10.24912;22.15340;65.59912;,
 -0.97008;18.38760;63.23870;,
 -10.08300;22.15340;65.59912;,
 12.99586;19.40666;76.39268;,
 -1.25462;15.08420;76.21970;,
 -12.82974;19.40666;76.39268;,
 13.21380;19.18872;89.40352;,
 -1.27720;14.82210;91.86736;,
 -13.04768;19.18872;89.40352;,
 10.45724;21.94530;98.33382;,
 -0.99164;18.13732;103.78552;,
 -10.29110;21.94530;98.33382;,
 6.41166;25.99086;111.89903;,
 -0.46206;24.28536;111.89903;,
 -6.24552;25.99086;111.89903;,
 -0.46206;24.28536;111.89903;,
 0.44036;32.67674;122.11054;,
 -6.24552;25.99086;111.89903;,
 6.41166;25.99086;111.89903;,
 15.18600;32.33244;63.23870;,
 10.24912;42.48550;65.59912;,
 12.99586;45.23224;76.39268;,
 18.48940;32.33594;76.21970;,
 12.99586;19.40666;76.39268;,
 10.24912;22.15340;65.59912;,
 7.17050;25.23204;59.36992;,
 8.60686;32.32850;55.74704;,
 7.17050;39.40688;59.36992;,
 13.21380;45.45020;89.40352;,
 18.75152;32.33622;91.86736;,
 13.21380;19.18872;89.40352;,
 4.98310;27.41944;56.15864;,
 7.28502;32.32572;51.88492;,
 4.98310;37.21950;56.15864;,
 10.45724;42.69364;98.33382;,
 15.43628;32.33270;104.14456;,
 10.45724;21.94530;98.33382;,
 7.28502;32.32572;51.88492;,
 4.98310;27.41944;56.15864;,
 -0.42454;26.42636;51.88492;,
 -0.42454;32.32572;51.88492;,
 -0.42454;38.21256;51.88492;,
 4.98310;37.21950;56.15864;,
 6.41166;38.64804;111.89903;,
 9.28824;32.32616;111.89903;,
 6.41166;25.99086;111.89903;,
 -4.81698;27.41944;56.15864;,
 -5.81004;32.32572;51.88492;,
 -4.81698;37.21950;56.15864;,
 0.44036;32.67674;122.11054;,
 6.41166;38.64804;111.89903;,
 -5.81004;32.32572;51.88492;,
 -4.81698;27.41944;56.15864;,
 -7.00436;25.23204;59.36992;,
 -8.44074;32.32850;55.74704;,
 -7.00436;39.40688;59.36992;,
 -4.81698;37.21950;56.15864;,
 -10.08300;22.15340;65.59912;,
 -13.71344;32.33244;63.23870;,
 -10.08300;42.48550;65.59912;,
 -12.82974;19.40666;76.39268;,
 -17.01684;32.33594;76.12230;,
 -12.82974;45.23224;76.39268;,
 -13.04768;19.18872;89.40352;,
 -17.27894;32.33622;91.77000;,
 -13.04768;45.45020;89.40352;,
 -10.29110;21.94530;98.33382;,
 -13.96372;32.33270;104.00792;,
 -10.29110;42.69364;98.33382;,
 -6.24552;25.99086;111.89903;,
 -7.81566;32.32616;111.89903;,
 -6.24552;38.64804;111.89903;,
 -7.81566;32.32616;111.89903;,
 0.44036;32.67674;122.11054;,
 -6.24552;25.99086;111.89903;;
 
 60;
 4;0,1,2,3;,
 4;0,3,4,5;,
 4;0,5,6,7;,
 4;0,7,8,1;,
 4;3,2,9,10;,
 4;3,10,11,4;,
 4;7,6,12,13;,
 4;7,13,14,8;,
 4;10,9,15,16;,
 4;10,16,17,11;,
 3;13,18,14;,
 3;13,19,18;,
 4;16,15,20,21;,
 4;16,21,22,17;,
 4;23,24,25,26;,
 4;23,26,27,28;,
 4;26,25,29,30;,
 4;26,30,31,27;,
 4;30,29,32,33;,
 4;30,33,34,31;,
 4;33,32,35,36;,
 4;33,36,37,34;,
 4;36,35,38,39;,
 4;36,39,40,37;,
 4;39,38,41,42;,
 4;39,42,43,40;,
 3;44,45,46;,
 3;44,47,45;,
 4;48,49,50,51;,
 4;48,51,52,53;,
 4;48,53,54,55;,
 4;48,55,56,49;,
 4;51,50,57,58;,
 4;51,58,59,52;,
 4;55,54,60,61;,
 4;55,61,62,56;,
 4;58,57,63,64;,
 4;58,64,65,59;,
 4;66,67,68,69;,
 4;66,69,70,71;,
 4;64,63,72,73;,
 4;64,73,74,65;,
 4;69,68,75,76;,
 4;69,76,77,70;,
 3;73,78,74;,
 3;73,79,78;,
 4;80,81,82,83;,
 4;80,83,84,85;,
 4;83,82,86,87;,
 4;83,87,88,84;,
 4;87,86,89,90;,
 4;87,90,91,88;,
 4;90,89,92,93;,
 4;90,93,94,91;,
 4;93,92,95,96;,
 4;93,96,97,94;,
 4;96,95,98,99;,
 4;96,99,100,97;,
 3;101,102,19;,
 3;101,103,102;;
 
 MeshMaterialList {
  5;
  60;
  0,
  0,
  0,
  0,
  0,
  0,
  2,
  2,
  0,
  0,
  2,
  2,
  0,
  0,
  0,
  0,
  0,
  0,
  0,
  0,
  0,
  0,
  0,
  0,
  2,
  2,
  2,
  2,
  0,
  0,
  0,
  0,
  0,
  0,
  0,
  0,
  0,
  0,
  0,
  0,
  2,
  2,
  0,
  0,
  2,
  2,
  0,
  0,
  0,
  0,
  0,
  0,
  0,
  0,
  0,
  0,
  2,
  2,
  2,
  2;;
  Material {
   0.702400;0.380000;0.181600;1.000000;;
   5.000000;
   0.000000;0.000000;0.000000;;
   0.000000;0.000000;0.000000;;
  }
  Material {
   0.367200;0.160000;0.000000;1.000000;;
   5.000000;
   0.000000;0.000000;0.000000;;
   0.000000;0.000000;0.000000;;
  }
  Material {
   0.800000;0.800000;0.800000;1.000000;;
   5.000000;
   0.000000;0.000000;0.000000;;
   0.000000;0.000000;0.000000;;
  }
  Material {
   0.800000;0.680800;0.796800;1.000000;;
   5.000000;
   0.000000;0.000000;0.000000;;
   0.000000;0.000000;0.000000;;
  }
  Material {
   0.179200;0.106400;0.106400;1.000000;;
   5.000000;
   0.000000;0.000000;0.000000;;
   0.000000;0.000000;0.000000;;
  }
 }
 MeshNormals {
  65;
  -0.537035;0.497077;-0.681548;,
  -0.537389;-0.496514;-0.681680;,
  0.513616;0.541328;-0.665704;,
  0.514048;-0.540782;-0.665814;,
  0.259790;0.650312;0.713865;,
  0.570910;0.592578;-0.568255;,
  -0.612806;0.536031;-0.580637;,
  0.560029;-0.612334;-0.558045;,
  -0.601721;-0.557143;-0.572296;,
  -0.690056;0.576496;-0.437579;,
  -0.656006;-0.618806;-0.432129;,
  0.627523;0.637583;-0.446882;,
  0.594497;-0.673770;-0.438871;,
  0.695865;0.701642;-0.153200;,
  -0.754351;0.637638;-0.156117;,
  0.657954;-0.736630;-0.156439;,
  -0.714017;-0.681605;-0.159982;,
  0.694616;0.703163;0.151888;,
  -0.755200;0.637037;0.154456;,
  0.657282;-0.737310;0.156060;,
  -0.715861;-0.679805;0.159398;,
  -0.706033;0.573190;0.415897;,
  -0.657286;-0.621009;0.426992;,
  0.642395;0.649457;0.406860;,
  0.594682;-0.687592;0.416619;,
  -0.643378;0.493421;0.585321;,
  -0.578608;-0.549418;0.602788;,
  0.584768;0.579005;0.568155;,
  0.519967;-0.621923;0.585531;,
  -0.043643;0.985584;0.163461;,
  -0.040749;0.986118;-0.160970;,
  -0.535582;0.742178;0.402895;,
  -0.042976;0.868033;-0.494644;,
  -0.029848;0.783691;0.620433;,
  -0.048676;0.734883;-0.676445;,
  0.154469;0.518217;-0.841184;,
  0.154479;-0.517790;-0.841445;,
  0.144740;-0.777237;-0.612333;,
  -0.037783;-0.894092;-0.446286;,
  -0.032838;-0.987612;-0.153442;,
  -0.036225;-0.986751;0.158148;,
  -0.036485;-0.899251;0.435909;,
  -0.023527;-0.811197;0.584300;,
  0.876705;0.000512;-0.481029;,
  0.987357;0.000475;-0.158513;,
  0.784931;0.000612;-0.619582;,
  0.986915;0.000512;0.161240;,
  0.516054;-0.203636;-0.831998;,
  0.891907;0.000510;0.452219;,
  -0.029263;0.000360;-0.999572;,
  0.795251;0.001617;0.606278;,
  -0.583611;0.000504;-0.812033;,
  -0.770159;-0.187131;-0.609784;,
  -0.897088;0.000456;-0.441852;,
  -0.988217;0.000393;-0.153060;,
  -0.987845;0.000434;0.155444;,
  -0.900033;0.000440;0.435822;,
  -0.812586;0.000689;0.582841;,
  0.461013;0.796435;0.391355;,
  -0.562879;0.580222;-0.588650;,
  -0.562880;-0.580220;-0.588651;,
  0.251559;-0.677473;0.691194;,
  0.678834;0.544417;-0.492741;,
  -0.626106;0.513281;-0.586971;,
  -0.777650;0.000972;0.628697;;
  60;
  4;29,17,13,30;,
  4;29,30,14,18;,
  4;29,18,21,31;,
  4;29,58,23,17;,
  4;30,13,11,32;,
  4;30,32,9,14;,
  4;31,21,25,33;,
  4;58,33,27,23;,
  4;32,11,5,34;,
  4;32,34,6,9;,
  3;33,4,27;,
  3;33,25,4;,
  4;34,5,2,35;,
  4;34,59,0,6;,
  4;36,3,7,37;,
  4;60,60,8,1;,
  4;37,7,12,38;,
  4;37,38,10,8;,
  4;38,12,15,39;,
  4;38,39,16,10;,
  4;39,15,19,40;,
  4;39,40,20,16;,
  4;40,19,24,41;,
  4;40,41,22,20;,
  4;41,24,28,42;,
  4;41,42,26,22;,
  3;42,61,26;,
  3;42,28,61;,
  4;43,11,13,44;,
  4;43,44,15,12;,
  4;43,12,7,45;,
  4;43,45,5,11;,
  4;44,13,17,46;,
  4;44,46,19,15;,
  4;45,7,3,47;,
  4;45,62,2,5;,
  4;46,17,23,48;,
  4;46,48,24,19;,
  4;47,3,36,49;,
  4;47,49,35,2;,
  4;48,23,27,50;,
  4;48,50,28,24;,
  4;49,36,1,51;,
  4;49,51,0,35;,
  3;50,61,28;,
  3;50,27,4;,
  4;51,1,8,52;,
  4;51,63,6,0;,
  4;52,8,10,53;,
  4;52,53,9,6;,
  4;53,10,16,54;,
  4;53,54,14,9;,
  4;54,16,20,55;,
  4;54,55,18,14;,
  4;55,20,22,56;,
  4;55,56,21,18;,
  4;56,22,26,57;,
  4;56,57,25,21;,
  3;57,64,25;,
  3;57,26,64;;
 }
 MeshTextureCoords {
  104;
  0.456930;0.000880;,
  1.000000;0.000880;,
  1.000000;0.008920;,
  0.456930;0.008920;,
  0.000000;0.008920;,
  0.000000;0.000880;,
  0.000000;0.000110;,
  0.456930;0.000110;,
  1.000000;0.000110;,
  1.000000;0.110180;,
  0.456930;0.110180;,
  0.000000;0.110180;,
  0.000000;0.000010;,
  0.456930;0.000010;,
  1.000000;0.000010;,
  1.000000;0.549640;,
  0.456930;0.549640;,
  0.000000;0.549640;,
  0.500000;0.000000;,
  0.000000;0.000000;,
  1.000000;1.000000;,
  0.456930;1.000000;,
  0.000000;1.000000;,
  0.456930;0.000000;,
  1.000000;0.000000;,
  1.000000;0.450360;,
  0.456930;0.450360;,
  0.000000;0.450360;,
  0.000000;0.000000;,
  1.000000;0.889820;,
  0.456930;0.889820;,
  0.000000;0.889820;,
  1.000000;0.991080;,
  0.456930;0.991080;,
  0.000000;0.991080;,
  1.000000;0.999120;,
  0.456930;0.999120;,
  0.000000;0.999120;,
  1.000000;0.999890;,
  0.456930;0.999890;,
  0.000000;0.999890;,
  1.000000;0.999990;,
  0.456930;0.999990;,
  0.000000;0.999990;,
  0.228470;1.000000;,
  1.000000;1.000000;,
  0.000000;1.000000;,
  0.500000;1.000000;,
  0.889820;0.499470;,
  0.889820;0.000000;,
  0.991080;0.000000;,
  0.991080;0.499470;,
  0.991080;1.000000;,
  0.889820;1.000000;,
  0.450360;1.000000;,
  0.450360;0.499470;,
  0.450360;0.000000;,
  0.999120;0.000000;,
  0.999120;0.499470;,
  0.999120;1.000000;,
  0.000000;1.000000;,
  0.000000;0.499470;,
  0.000000;0.000000;,
  0.999890;0.000000;,
  0.999890;0.499470;,
  0.999890;1.000000;,
  1.000000;0.499470;,
  1.000000;1.000000;,
  0.456930;1.000000;,
  0.456930;0.499470;,
  0.456930;0.000000;,
  1.000000;0.000000;,
  0.999990;0.000000;,
  0.999990;0.499470;,
  0.999990;1.000000;,
  0.000000;1.000000;,
  0.000000;0.499470;,
  0.000000;0.000000;,
  1.000000;0.500000;,
  1.000000;0.000000;,
  1.000000;0.499470;,
  1.000000;1.000000;,
  0.549640;1.000000;,
  0.549640;0.499470;,
  0.549640;0.000000;,
  1.000000;0.000000;,
  0.110180;1.000000;,
  0.110180;0.499470;,
  0.110180;0.000000;,
  0.008920;1.000000;,
  0.008920;0.499470;,
  0.008920;0.000000;,
  0.000880;1.000000;,
  0.000880;0.499470;,
  0.000880;0.000000;,
  0.000110;1.000000;,
  0.000110;0.499470;,
  0.000110;0.000000;,
  0.000010;1.000000;,
  0.000010;0.499470;,
  0.000010;0.000000;,
  0.000000;0.249730;,
  0.000000;1.000000;,
  0.000000;0.500000;;
 }
}
