{
  "ENEMY0": {
    "MAX": {
      "X": 50.0,
      "Y": 50.0,
      "Z": 50.0
    },
    "MIN": {
      "X": -50.0,
      "Y": -50.0,
      "Z": -50.0
    },
    "PASS": "data\\system\\enemy\\snake.txt",
    "POS": {
      "X": -485.24395751953125,
      "Y": 751.4199829101563,
      "Z": 5603.8291015625
    },
    "ROT": {
      "X": 0.0,
      "Y": 0.0,
      "Z": 0.0
    },
    "TYPE": 0
  },
  "ENEMY1": {
    "MAX": {
      "X": 50.0,
      "Y": 50.0,
      "Z": 50.0
    },
    "MIN": {
      "X": -50.0,
      "Y": -50.0,
      "Z": -50.0
    },
    "PASS": "data\\system\\enemy\\snake.txt",
    "POS": {
      "X": -485.24395751953125,
      "Y": 751.4199829101563,
      "Z": 5973.05419921875
    },
    "ROT": {
      "X": -0.0,
      "Y": -0.0,
      "Z": -0.0
    },
    "TYPE": 0
  },
  "ENEMY10": {
    "MAX": {
      "X": 50.0,
      "Y": 50.0,
      "Z": 50.0
    },
    "MIN": {
      "X": -50.0,
      "Y": -50.0,
      "Z": -50.0
    },
    "PASS": "data\\system\\enemy\\snake.txt",
    "POS": {
      "X": 177.503173828125,
      "Y": -0.0010000000474974513,
      "Z": 2935.93896484375
    },
    "ROT": {
      "X": -0.0,
      "Y": -0.0,
      "Z": -0.0
    },
    "TYPE": 0
  },
  "ENEMY11": {
    "MAX": {
      "X": 50.0,
      "Y": 50.0,
      "Z": 50.0
    },
    "MIN": {
      "X": -50.0,
      "Y": -50.0,
      "Z": -50.0
    },
    "PASS": "data\\system\\enemy\\snake.txt",
    "POS": {
      "X": 177.503173828125,
      "Y": -0.0010000000474974513,
      "Z": 2179.93896484375
    },
    "ROT": {
      "X": -0.0,
      "Y": -0.0,
      "Z": -0.0
    },
    "TYPE": 0
  },
  "ENEMY12": {
    "MAX": {
      "X": 50.0,
      "Y": 50.0,
      "Z": 50.0
    },
    "MIN": {
      "X": -50.0,
      "Y": -50.0,
      "Z": -50.0
    },
    "PASS": "data\\system\\enemy\\snake.txt",
    "POS": {
      "X": 175.62513732910156,
      "Y": -0.0010000000474974513,
      "Z": 1798.93798828125
    },
    "ROT": {
      "X": -0.0,
      "Y": -0.0,
      "Z": -0.0
    },
    "TYPE": 0
  },
  "ENEMY13": {
    "MAX": {
      "X": 50.0,
      "Y": 50.0,
      "Z": 50.0
    },
    "MIN": {
      "X": -50.0,
      "Y": -50.0,
      "Z": -50.0
    },
    "PASS": "data\\system\\enemy\\snake.txt",
    "POS": {
      "X": -604.166259765625,
      "Y": -0.0010000000474974513,
      "Z": 7730.16064453125
    },
    "ROT": {
      "X": -0.0,
      "Y": -0.0,
      "Z": -0.0
    },
    "TYPE": 0
  },
  "ENEMY14": {
    "MAX": {
      "X": 50.0,
      "Y": 50.0,
      "Z": 50.0
    },
    "MIN": {
      "X": -50.0,
      "Y": -50.0,
      "Z": -50.0
    },
    "PASS": "data\\system\\enemy\\snake.txt",
    "POS": {
      "X": -604.0902709960938,
      "Y": -0.0010000000474974513,
      "Z": 9066.66015625
    },
    "ROT": {
      "X": -0.0,
      "Y": -0.0,
      "Z": -0.0
    },
    "TYPE": 0
  },
  "ENEMY15": {
    "MAX": {
      "X": 50.0,
      "Y": 50.0,
      "Z": 50.0
    },
    "MIN": {
      "X": -50.0,
      "Y": -50.0,
      "Z": -50.0
    },
    "PASS": "data\\system\\enemy\\snake.txt",
    "POS": {
      "X": -604.0902709960938,
      "Y": -0.0010000000474974513,
      "Z": 9606.66015625
    },
    "ROT": {
      "X": -0.0,
      "Y": -0.0,
      "Z": -0.0
    },
    "TYPE": 0
  },
  "ENEMY16": {
    "MAX": {
      "X": 50.0,
      "Y": 50.0,
      "Z": 50.0
    },
    "MIN": {
      "X": -50.0,
      "Y": -50.0,
      "Z": -50.0
    },
    "PASS": "data\\system\\enemy\\snake.txt",
    "POS": {
      "X": -604.0902709960938,
      "Y": -0.0010000000474974513,
      "Z": 10092.66015625
    },
    "ROT": {
      "X": -0.0,
      "Y": -0.0,
      "Z": -0.0
    },
    "TYPE": 0
  },
  "ENEMY17": {
    "MAX": {
      "X": 50.0,
      "Y": 50.0,
      "Z": 50.0
    },
    "MIN": {
      "X": -50.0,
      "Y": -50.0,
      "Z": -50.0
    },
    "PASS": "data\\system\\enemy\\snake.txt",
    "POS": {
      "X": 140.19032287597656,
      "Y": 751.4199829101563,
      "Z": 3310.3408203125
    },
    "ROT": {
      "X": -0.0,
      "Y": -0.0,
      "Z": -0.0
    },
    "TYPE": 0
  },
  "ENEMY18": {
    "MAX": {
      "X": 50.0,
      "Y": 50.0,
      "Z": 50.0
    },
    "MIN": {
      "X": -50.0,
      "Y": -50.0,
      "Z": -50.0
    },
    "PASS": "data\\system\\enemy\\snake.txt",
    "POS": {
      "X": 140.19032287597656,
      "Y": 751.4199829101563,
      "Z": 3801.06591796875
    },
    "ROT": {
      "X": -0.0,
      "Y": -0.0,
      "Z": -0.0
    },
    "TYPE": 0
  },
  "ENEMY19": {
    "MAX": {
      "X": 50.0,
      "Y": 50.0,
      "Z": 50.0
    },
    "MIN": {
      "X": -50.0,
      "Y": -50.0,
      "Z": -50.0
    },
    "PASS": "data\\system\\enemy\\snake.txt",
    "POS": {
      "X": 140.19032287597656,
      "Y": 751.4199829101563,
      "Z": 4219.56591796875
    },
    "ROT": {
      "X": -0.0,
      "Y": -0.0,
      "Z": -0.0
    },
    "TYPE": 0
  },
  "ENEMY2": {
    "MAX": {
      "X": 50.0,
      "Y": 50.0,
      "Z": 50.0
    },
    "MIN": {
      "X": -50.0,
      "Y": -50.0,
      "Z": -50.0
    },
    "PASS": "data\\system\\enemy\\snake.txt",
    "POS": {
      "X": -485.24395751953125,
      "Y": 751.4199829101563,
      "Z": 6441.50439453125
    },
    "ROT": {
      "X": -0.0,
      "Y": -0.0,
      "Z": -0.0
    },
    "TYPE": 0
  },
  "ENEMY20": {
    "MAX": {
      "X": 50.0,
      "Y": 50.0,
      "Z": 50.0
    },
    "MIN": {
      "X": -50.0,
      "Y": -50.0,
      "Z": -50.0
    },
    "PASS": "data\\system\\enemy\\snake.txt",
    "POS": {
      "X": 140.19032287597656,
      "Y": 751.4199829101563,
      "Z": 4773.06591796875
    },
    "ROT": {
      "X": -0.0,
      "Y": -0.0,
      "Z": -0.0
    },
    "TYPE": 0
  },
  "ENEMY21": {
    "MAX": {
      "X": 50.0,
      "Y": 50.0,
      "Z": 50.0
    },
    "MIN": {
      "X": -50.0,
      "Y": -50.0,
      "Z": -50.0
    },
    "PASS": "data\\system\\enemy\\snake.txt",
    "POS": {
      "X": 140.19032287597656,
      "Y": 751.4199829101563,
      "Z": 5245.56591796875
    },
    "ROT": {
      "X": -0.0,
      "Y": -0.0,
      "Z": -0.0
    },
    "TYPE": 0
  },
  "ENEMY22": {
    "MAX": {
      "X": 50.0,
      "Y": 50.0,
      "Z": 50.0
    },
    "MIN": {
      "X": -50.0,
      "Y": -50.0,
      "Z": -50.0
    },
    "PASS": "data\\system\\enemy\\snake.txt",
    "POS": {
      "X": -89.98532104492188,
      "Y": 751.4199829101563,
      "Z": 5347.255859375
    },
    "ROT": {
      "X": -0.0,
      "Y": -0.0,
      "Z": -0.0
    },
    "TYPE": 0
  },
  "ENEMY23": {
    "MAX": {
      "X": 50.0,
      "Y": 50.0,
      "Z": 50.0
    },
    "MIN": {
      "X": -50.0,
      "Y": -50.0,
      "Z": -50.0
    },
    "PASS": "data\\system\\enemy\\snake.txt",
    "POS": {
      "X": 122.02214050292969,
      "Y": -0.0010000000474974513,
      "Z": 2802.2568359375
    },
    "ROT": {
      "X": -0.0,
      "Y": -0.0,
      "Z": -0.0
    },
    "TYPE": 0
  },
  "ENEMY24": {
    "MAX": {
      "X": 50.0,
      "Y": 50.0,
      "Z": 50.0
    },
    "MIN": {
      "X": -50.0,
      "Y": -50.0,
      "Z": -50.0
    },
    "PASS": "data\\system\\enemy\\snake.txt",
    "POS": {
      "X": 122.02214050292969,
      "Y": -0.0010000000474974513,
      "Z": 3252.48193359375
    },
    "ROT": {
      "X": -0.0,
      "Y": -0.0,
      "Z": -0.0
    },
    "TYPE": 0
  },
  "ENEMY25": {
    "MAX": {
      "X": 50.0,
      "Y": 50.0,
      "Z": 50.0
    },
    "MIN": {
      "X": -50.0,
      "Y": -50.0,
      "Z": -50.0
    },
    "PASS": "data\\system\\enemy\\snake.txt",
    "POS": {
      "X": 122.02214050292969,
      "Y": -0.0010000000474974513,
      "Z": 3711.48193359375
    },
    "ROT": {
      "X": -0.0,
      "Y": -0.0,
      "Z": -0.0
    },
    "TYPE": 0
  },
  "ENEMY26": {
    "MAX": {
      "X": 50.0,
      "Y": 50.0,
      "Z": 50.0
    },
    "MIN": {
      "X": -50.0,
      "Y": -50.0,
      "Z": -50.0
    },
    "PASS": "data\\system\\enemy\\snake.txt",
    "POS": {
      "X": 122.02214050292969,
      "Y": -0.0010000000474974513,
      "Z": 4170.48193359375
    },
    "ROT": {
      "X": -0.0,
      "Y": -0.0,
      "Z": -0.0
    },
    "TYPE": 0
  },
  "ENEMY27": {
    "MAX": {
      "X": 50.0,
      "Y": 50.0,
      "Z": 50.0
    },
    "MIN": {
      "X": -50.0,
      "Y": -50.0,
      "Z": -50.0
    },
    "PASS": "data\\system\\enemy\\snake.txt",
    "POS": {
      "X": -567.2222290039063,
      "Y": -0.0010000000474974513,
      "Z": 7717.9501953125
    },
    "ROT": {
      "X": -0.0,
      "Y": -0.0,
      "Z": -0.0
    },
    "TYPE": 0
  },
  "ENEMY28": {
    "MAX": {
      "X": 50.0,
      "Y": 50.0,
      "Z": 50.0
    },
    "MIN": {
      "X": -50.0,
      "Y": -50.0,
      "Z": -50.0
    },
    "PASS": "data\\system\\enemy\\snake.txt",
    "POS": {
      "X": -567.2222290039063,
      "Y": -0.0010000000474974513,
      "Z": 8991.67578125
    },
    "ROT": {
      "X": -0.0,
      "Y": -0.0,
      "Z": -0.0
    },
    "TYPE": 0
  },
  "ENEMY29": {
    "MAX": {
      "X": 50.0,
      "Y": 50.0,
      "Z": 50.0
    },
    "MIN": {
      "X": -50.0,
      "Y": -50.0,
      "Z": -50.0
    },
    "PASS": "data\\system\\enemy\\snake.txt",
    "POS": {
      "X": -567.2222290039063,
      "Y": -0.0010000000474974513,
      "Z": 9369.67578125
    },
    "ROT": {
      "X": -0.0,
      "Y": -0.0,
      "Z": -0.0
    },
    "TYPE": 0
  },
  "ENEMY3": {
    "MAX": {
      "X": 50.0,
      "Y": 50.0,
      "Z": 50.0
    },
    "MIN": {
      "X": -50.0,
      "Y": -50.0,
      "Z": -50.0
    },
    "PASS": "data\\system\\enemy\\snake.txt",
    "POS": {
      "X": -0.21990203857421875,
      "Y": 751.4199829101563,
      "Z": 5352.16162109375
    },
    "ROT": {
      "X": -0.0,
      "Y": -0.0,
      "Z": -0.0
    },
    "TYPE": 0
  },
  "ENEMY30": {
    "MAX": {
      "X": 50.0,
      "Y": 50.0,
      "Z": 50.0
    },
    "MIN": {
      "X": -50.0,
      "Y": -50.0,
      "Z": -50.0
    },
    "PASS": "data\\system\\enemy\\snake.txt",
    "POS": {
      "X": -567.2222290039063,
      "Y": -0.0010000000474974513,
      "Z": 9828.67578125
    },
    "ROT": {
      "X": -0.0,
      "Y": -0.0,
      "Z": -0.0
    },
    "TYPE": 0
  },
  "ENEMY31": {
    "MAX": {
      "X": 50.0,
      "Y": 50.0,
      "Z": 50.0
    },
    "MIN": {
      "X": -50.0,
      "Y": -50.0,
      "Z": -50.0
    },
    "PASS": "data\\system\\enemy\\snake.txt",
    "POS": {
      "X": 203.63279724121094,
      "Y": -0.0010000000474974513,
      "Z": 1989.71484375
    },
    "ROT": {
      "X": -0.0,
      "Y": -0.0,
      "Z": -0.0
    },
    "TYPE": 0
  },
  "ENEMY32": {
    "MAX": {
      "X": 50.0,
      "Y": 50.0,
      "Z": 50.0
    },
    "MIN": {
      "X": -50.0,
      "Y": -50.0,
      "Z": -50.0
    },
    "PASS": "data\\system\\enemy\\snake.txt",
    "POS": {
      "X": 203.63279724121094,
      "Y": -0.0010000000474974513,
      "Z": 2601.940185546875
    },
    "ROT": {
      "X": -0.0,
      "Y": -0.0,
      "Z": -0.0
    },
    "TYPE": 0
  },
  "ENEMY33": {
    "MAX": {
      "X": 50.0,
      "Y": 50.0,
      "Z": 50.0
    },
    "MIN": {
      "X": -50.0,
      "Y": -50.0,
      "Z": -50.0
    },
    "PASS": "data\\system\\enemy\\snake.txt",
    "POS": {
      "X": 203.63279724121094,
      "Y": -0.0010000000474974513,
      "Z": 3425.440185546875
    },
    "ROT": {
      "X": -0.0,
      "Y": -0.0,
      "Z": -0.0
    },
    "TYPE": 0
  },
  "ENEMY34": {
    "MAX": {
      "X": 50.0,
      "Y": 50.0,
      "Z": 50.0
    },
    "MIN": {
      "X": -50.0,
      "Y": -50.0,
      "Z": -50.0
    },
    "PASS": "data\\system\\enemy\\snake.txt",
    "POS": {
      "X": 203.63279724121094,
      "Y": -0.0010000000474974513,
      "Z": 4248.9404296875
    },
    "ROT": {
      "X": -0.0,
      "Y": -0.0,
      "Z": -0.0
    },
    "TYPE": 0
  },
  "ENEMY35": {
    "MAX": {
      "X": 50.0,
      "Y": 50.0,
      "Z": 50.0
    },
    "MIN": {
      "X": -50.0,
      "Y": -50.0,
      "Z": -50.0
    },
    "PASS": "data\\system\\enemy\\snake.txt",
    "POS": {
      "X": -638.180908203125,
      "Y": -0.0010000000474974513,
      "Z": 7204.9501953125
    },
    "ROT": {
      "X": -0.0,
      "Y": -0.0,
      "Z": -0.0
    },
    "TYPE": 0
  },
  "ENEMY36": {
    "MAX": {
      "X": 50.0,
      "Y": 50.0,
      "Z": 50.0
    },
    "MIN": {
      "X": -50.0,
      "Y": -50.0,
      "Z": -50.0
    },
    "PASS": "data\\system\\enemy\\snake.txt",
    "POS": {
      "X": -638.180908203125,
      "Y": -0.0010000000474974513,
      "Z": 8127.67529296875
    },
    "ROT": {
      "X": -0.0,
      "Y": -0.0,
      "Z": -0.0
    },
    "TYPE": 0
  },
  "ENEMY37": {
    "MAX": {
      "X": 50.0,
      "Y": 50.0,
      "Z": 50.0
    },
    "MIN": {
      "X": -50.0,
      "Y": -50.0,
      "Z": -50.0
    },
    "PASS": "data\\system\\enemy\\snake.txt",
    "POS": {
      "X": -638.180908203125,
      "Y": -0.0010000000474974513,
      "Z": 9126.67578125
    },
    "ROT": {
      "X": -0.0,
      "Y": -0.0,
      "Z": -0.0
    },
    "TYPE": 0
  },
  "ENEMY38": {
    "MAX": {
      "X": 50.0,
      "Y": 50.0,
      "Z": 50.0
    },
    "MIN": {
      "X": -50.0,
      "Y": -50.0,
      "Z": -50.0
    },
    "PASS": "data\\system\\enemy\\snake.txt",
    "POS": {
      "X": -638.180908203125,
      "Y": -0.0010000000474974513,
      "Z": 9585.67578125
    },
    "ROT": {
      "X": -0.0,
      "Y": -0.0,
      "Z": -0.0
    },
    "TYPE": 0
  },
  "ENEMY39": {
    "MAX": {
      "X": 50.0,
      "Y": 50.0,
      "Z": 50.0
    },
    "MIN": {
      "X": -50.0,
      "Y": -50.0,
      "Z": -50.0
    },
    "PASS": "data\\system\\enemy\\snake.txt",
    "POS": {
      "X": -638.180908203125,
      "Y": -0.0010000000474974513,
      "Z": 10031.17578125
    },
    "ROT": {
      "X": -0.0,
      "Y": -0.0,
      "Z": -0.0
    },
    "TYPE": 0
  },
  "ENEMY4": {
    "MAX": {
      "X": 50.0,
      "Y": 50.0,
      "Z": 50.0
    },
    "MIN": {
      "X": -50.0,
      "Y": -50.0,
      "Z": -50.0
    },
    "PASS": "data\\system\\enemy\\snake.txt",
    "POS": {
      "X": -653.7036743164063,
      "Y": 801.4199829101563,
      "Z": 7624.88671875
    },
    "ROT": {
      "X": -0.0,
      "Y": -0.0,
      "Z": -0.0
    },
    "TYPE": 0
  },
  "ENEMY40": {
    "MAX": {
      "X": 50.0,
      "Y": 50.0,
      "Z": 50.0
    },
    "MIN": {
      "X": -50.0,
      "Y": -50.0,
      "Z": -50.0
    },
    "PASS": "data\\system\\enemy\\snake.txt",
    "POS": {
      "X": 198.20901489257813,
      "Y": 751.4199829101563,
      "Z": 4001.27294921875
    },
    "ROT": {
      "X": -0.0,
      "Y": -0.0,
      "Z": -0.0
    },
    "TYPE": 0
  },
  "ENEMY41": {
    "MAX": {
      "X": 50.0,
      "Y": 50.0,
      "Z": 50.0
    },
    "MIN": {
      "X": -50.0,
      "Y": -50.0,
      "Z": -50.0
    },
    "PASS": "data\\system\\enemy\\snake.txt",
    "POS": {
      "X": 198.20901489257813,
      "Y": 751.4199829101563,
      "Z": 4370.498046875
    },
    "ROT": {
      "X": -0.0,
      "Y": -0.0,
      "Z": -0.0
    },
    "TYPE": 0
  },
  "ENEMY42": {
    "MAX": {
      "X": 50.0,
      "Y": 50.0,
      "Z": 50.0
    },
    "MIN": {
      "X": -50.0,
      "Y": -50.0,
      "Z": -50.0
    },
    "PASS": "data\\system\\enemy\\snake.txt",
    "POS": {
      "X": 198.20901489257813,
      "Y": 751.4199829101563,
      "Z": 4883.498046875
    },
    "ROT": {
      "X": -0.0,
      "Y": -0.0,
      "Z": -0.0
    },
    "TYPE": 0
  },
  "ENEMY43": {
    "MAX": {
      "X": 50.0,
      "Y": 50.0,
      "Z": 50.0
    },
    "MIN": {
      "X": -50.0,
      "Y": -50.0,
      "Z": -50.0
    },
    "PASS": "data\\system\\enemy\\snake.txt",
    "POS": {
      "X": 198.20901489257813,
      "Y": 751.4199829101563,
      "Z": 5301.998046875
    },
    "ROT": {
      "X": -0.0,
      "Y": -0.0,
      "Z": -0.0
    },
    "TYPE": 0
  },
  "ENEMY44": {
    "MAX": {
      "X": 50.0,
      "Y": 50.0,
      "Z": 50.0
    },
    "MIN": {
      "X": -50.0,
      "Y": -50.0,
      "Z": -50.0
    },
    "PASS": "data\\system\\enemy\\snake.txt",
    "POS": {
      "X": -602.23974609375,
      "Y": 751.4199829101563,
      "Z": 6886.74853515625
    },
    "ROT": {
      "X": -0.0,
      "Y": -0.0,
      "Z": -0.0
    },
    "TYPE": 0
  },
  "ENEMY45": {
    "MAX": {
      "X": 50.0,
      "Y": 50.0,
      "Z": 50.0
    },
    "MIN": {
      "X": -50.0,
      "Y": -50.0,
      "Z": -50.0
    },
    "PASS": "data\\system\\enemy\\snake.txt",
    "POS": {
      "X": -602.23974609375,
      "Y": 751.4199829101563,
      "Z": 7638.69970703125
    },
    "ROT": {
      "X": -0.0,
      "Y": -0.0,
      "Z": -0.0
    },
    "TYPE": 0
  },
  "ENEMY46": {
    "MAX": {
      "X": 50.0,
      "Y": 50.0,
      "Z": 50.0
    },
    "MIN": {
      "X": -50.0,
      "Y": -50.0,
      "Z": -50.0
    },
    "PASS": "data\\system\\enemy\\snake.txt",
    "POS": {
      "X": -602.23974609375,
      "Y": 871.4199829101563,
      "Z": 8242.150390625
    },
    "ROT": {
      "X": -0.0,
      "Y": -0.0,
      "Z": -0.0
    },
    "TYPE": 0
  },
  "ENEMY47": {
    "MAX": {
      "X": 50.0,
      "Y": 50.0,
      "Z": 50.0
    },
    "MIN": {
      "X": -50.0,
      "Y": -50.0,
      "Z": -50.0
    },
    "PASS": "data\\system\\enemy\\snake.txt",
    "POS": {
      "X": -602.23974609375,
      "Y": 1071.4200439453125,
      "Z": 8746.375
    },
    "ROT": {
      "X": -0.0,
      "Y": -0.0,
      "Z": -0.0
    },
    "TYPE": 0
  },
  "ENEMY48": {
    "MAX": {
      "X": 50.0,
      "Y": 50.0,
      "Z": 50.0
    },
    "MIN": {
      "X": -50.0,
      "Y": -50.0,
      "Z": -50.0
    },
    "PASS": "data\\system\\enemy\\snake.txt",
    "POS": {
      "X": -602.23974609375,
      "Y": 1071.4200439453125,
      "Z": 9502.375
    },
    "ROT": {
      "X": -0.0,
      "Y": -0.0,
      "Z": -0.0
    },
    "TYPE": 0
  },
  "ENEMY5": {
    "MAX": {
      "X": 50.0,
      "Y": 50.0,
      "Z": 50.0
    },
    "MIN": {
      "X": -50.0,
      "Y": -50.0,
      "Z": -50.0
    },
    "PASS": "data\\system\\enemy\\snake.txt",
    "POS": {
      "X": -653.7479248046875,
      "Y": 941.4199829101563,
      "Z": 8151.38671875
    },
    "ROT": {
      "X": -0.0,
      "Y": -0.0,
      "Z": -0.0
    },
    "TYPE": 0
  },
  "ENEMY6": {
    "MAX": {
      "X": 50.0,
      "Y": 50.0,
      "Z": 50.0
    },
    "MIN": {
      "X": -50.0,
      "Y": -50.0,
      "Z": -50.0
    },
    "PASS": "data\\system\\enemy\\snake.txt",
    "POS": {
      "X": -653.7484741210938,
      "Y": 1091.4200439453125,
      "Z": 8691.38671875
    },
    "ROT": {
      "X": -0.0,
      "Y": -0.0,
      "Z": -0.0
    },
    "TYPE": 0
  },
  "ENEMY7": {
    "MAX": {
      "X": 50.0,
      "Y": 50.0,
      "Z": 50.0
    },
    "MIN": {
      "X": -50.0,
      "Y": -50.0,
      "Z": -50.0
    },
    "PASS": "data\\system\\enemy\\snake.txt",
    "POS": {
      "X": -653.7484741210938,
      "Y": 1071.4200439453125,
      "Z": 9258.38671875
    },
    "ROT": {
      "X": -0.0,
      "Y": -0.0,
      "Z": -0.0
    },
    "TYPE": 0
  },
  "ENEMY8": {
    "MAX": {
      "X": 50.0,
      "Y": 50.0,
      "Z": 50.0
    },
    "MIN": {
      "X": -50.0,
      "Y": -50.0,
      "Z": -50.0
    },
    "PASS": "data\\system\\enemy\\snake.txt",
    "POS": {
      "X": 177.503173828125,
      "Y": -0.0010000000474974513,
      "Z": 4245.43896484375
    },
    "ROT": {
      "X": -0.0,
      "Y": -0.0,
      "Z": -0.0
    },
    "TYPE": 0
  },
  "ENEMY9": {
    "MAX": {
      "X": 50.0,
      "Y": 50.0,
      "Z": 50.0
    },
    "MIN": {
      "X": -50.0,
      "Y": -50.0,
      "Z": -50.0
    },
    "PASS": "data\\system\\enemy\\snake.txt",
    "POS": {
      "X": 177.503173828125,
      "Y": -0.0010000000474974513,
      "Z": 3637.93896484375
    },
    "ROT": {
      "X": -0.0,
      "Y": -0.0,
      "Z": -0.0
    },
    "TYPE": 0
  },
  "INDEX": 49

