xof 0302txt 0064
template Header {
 <3D82AB43-62DA-11cf-AB39-0020AF71E433>
 WORD major;
 WORD minor;
 DWORD flags;
}

template Vector {
 <3D82AB5E-62DA-11cf-AB39-0020AF71E433>
 FLOAT x;
 FLOAT y;
 FLOAT z;
}

template Coords2d {
 <F6F23F44-7686-11cf-8F52-0040333594A3>
 FLOAT u;
 FLOAT v;
}

template Matrix4x4 {
 <F6F23F45-7686-11cf-8F52-0040333594A3>
 array FLOAT matrix[16];
}

template ColorRGBA {
 <35FF44E0-6C7C-11cf-8F52-0040333594A3>
 FLOAT red;
 FLOAT green;
 FLOAT blue;
 FLOAT alpha;
}

template ColorRGB {
 <D3E16E81-7835-11cf-8F52-0040333594A3>
 FLOAT red;
 FLOAT green;
 FLOAT blue;
}

template IndexedColor {
 <1630B820-7842-11cf-8F52-0040333594A3>
 DWORD index;
 ColorRGBA indexColor;
}

template Boolean {
 <4885AE61-78E8-11cf-8F52-0040333594A3>
 WORD truefalse;
}

template Boolean2d {
 <4885AE63-78E8-11cf-8F52-0040333594A3>
 Boolean u;
 Boolean v;
}

template MaterialWrap {
 <4885AE60-78E8-11cf-8F52-0040333594A3>
 Boolean u;
 Boolean v;
}

template TextureFilename {
 <A42790E1-7810-11cf-8F52-0040333594A3>
 STRING filename;
}

template Material {
 <3D82AB4D-62DA-11cf-AB39-0020AF71E433>
 ColorRGBA faceColor;
 FLOAT power;
 ColorRGB specularColor;
 ColorRGB emissiveColor;
 [...]
}

template MeshFace {
 <3D82AB5F-62DA-11cf-AB39-0020AF71E433>
 DWORD nFaceVertexIndices;
 array DWORD faceVertexIndices[nFaceVertexIndices];
}

template MeshFaceWraps {
 <4885AE62-78E8-11cf-8F52-0040333594A3>
 DWORD nFaceWrapValues;
 Boolean2d faceWrapValues;
}

template MeshTextureCoords {
 <F6F23F40-7686-11cf-8F52-0040333594A3>
 DWORD nTextureCoords;
 array Coords2d textureCoords[nTextureCoords];
}

template MeshMaterialList {
 <F6F23F42-7686-11cf-8F52-0040333594A3>
 DWORD nMaterials;
 DWORD nFaceIndexes;
 array DWORD faceIndexes[nFaceIndexes];
 [Material]
}

template MeshNormals {
 <F6F23F43-7686-11cf-8F52-0040333594A3>
 DWORD nNormals;
 array Vector normals[nNormals];
 DWORD nFaceNormals;
 array MeshFace faceNormals[nFaceNormals];
}

template MeshVertexColors {
 <1630B821-7842-11cf-8F52-0040333594A3>
 DWORD nVertexColors;
 array IndexedColor vertexColors[nVertexColors];
}

template Mesh {
 <3D82AB44-62DA-11cf-AB39-0020AF71E433>
 DWORD nVertices;
 array Vector vertices[nVertices];
 DWORD nFaces;
 array MeshFace faces[nFaces];
 [...]
}

Header{
1;
0;
1;
}

Mesh {
 644;
 -4.11567;-1.80158;-3.53784;,
 -0.11951;-2.52128;-3.67854;,
 -0.11951;-1.80158;0.67393;,
 -3.61512;-1.46561;0.15280;,
 4.13294;-1.96734;-3.41952;,
 3.61512;-1.46561;0.15280;,
 -4.11567;2.76497;-3.53784;,
 -3.61512;2.76497;0.15280;,
 -0.11951;3.34722;0.67393;,
 -0.10497;3.27786;-4.74026;,
 -0.11951;1.36434;-7.17311;,
 -3.61512;1.10491;-7.07744;,
 3.61512;2.76497;0.15280;,
 4.11567;2.76497;-3.53784;,
 3.61512;1.10491;-7.07744;,
 -0.11951;-3.01732;-8.52010;,
 -0.11951;-2.52128;-3.67854;,
 -3.61512;-1.65007;-7.07744;,
 -5.06684;-1.12717;-6.71061;,
 -3.61512;1.10491;-7.07744;,
 -0.11951;1.36434;-7.17311;,
 3.61512;1.10491;-7.07744;,
 4.57219;-1.29293;-6.95912;,
 3.63239;-1.81584;-6.95912;,
 -5.06684;-1.12717;-6.71061;,
 -3.61512;-1.65007;-7.07744;,
 -4.11567;-1.80158;-3.53784;,
 -5.75538;0.09297;-3.53784;,
 -4.11567;2.76497;-3.53784;,
 -3.61512;1.10491;-7.07744;,
 4.57219;-1.29293;-6.95912;,
 3.61512;1.10491;-7.07744;,
 4.11567;2.76497;-3.53784;,
 5.26073;-0.07279;-3.41952;,
 4.13294;-1.96734;-3.41952;,
 3.63239;-1.81584;-6.95912;,
 -4.83236;0.28955;1.88614;,
 4.33771;0.12379;2.00446;,
 -4.83236;0.28955;1.88614;,
 -3.61512;-1.46561;0.15280;,
 -0.11951;-1.80158;0.67393;,
 -0.11951;0.09297;2.40726;,
 -0.11951;3.34722;0.67393;,
 -3.61512;2.76497;0.15280;,
 4.33771;0.12379;2.00446;,
 3.61512;2.76497;0.15280;,
 3.61512;-1.46561;0.15280;,
 -4.11567;-1.80158;-3.53784;,
 -3.61512;-1.65007;-7.07744;,
 -0.11951;-2.52128;-3.67854;,
 -0.11951;-2.52128;-3.67854;,
 3.63239;-1.81584;-6.95912;,
 -0.07593;15.21418;-4.62227;,
 -0.07593;13.69437;2.54560;,
 5.28134;13.13600;0.76277;,
 5.28134;14.23364;-4.62227;,
 4.24069;14.23364;-9.45467;,
 -0.07593;14.23364;-9.45467;,
 -4.24069;14.23364;-9.45467;,
 -5.28134;14.23364;-4.62227;,
 -5.28134;13.13600;0.76277;,
 6.07287;0.91861;-4.62227;,
 4.47985;2.56639;-0.21871;,
 -0.10712;2.59768;1.35942;,
 -0.10712;0.37397;-4.62227;,
 -0.10712;0.91861;-12.31491;,
 4.66221;2.28418;-10.69211;,
 -6.07287;0.91861;-4.62227;,
 -4.66221;2.28418;-10.69211;,
 -4.47985;2.56639;-0.21871;,
 -0.07703;11.07527;-13.50787;,
 -0.07593;14.23364;-9.45467;,
 4.24069;14.23364;-9.45467;,
 6.67650;10.81397;-11.87679;,
 -6.67650;10.81397;-11.87679;,
 -4.24069;14.23364;-9.45467;,
 6.67650;10.81397;-11.87679;,
 4.24069;14.23364;-9.45467;,
 5.28134;14.23364;-4.62227;,
 7.83182;10.81397;-4.62227;,
 -6.67650;10.81397;-11.87679;,
 -7.83182;10.81397;-4.62227;,
 -5.28134;14.23364;-4.62227;,
 -4.24069;14.23364;-9.45467;,
 6.44743;10.81397;2.44691;,
 -6.44743;10.81397;2.44691;,
 6.44743;10.81397;2.44691;,
 5.28134;13.13600;0.76277;,
 -0.07593;13.69437;2.54560;,
 -0.10712;7.43725;5.08444;,
 -6.44743;10.81397;2.44691;,
 -5.28134;13.13600;0.76277;,
 -0.10712;8.25430;-14.59654;,
 7.08829;8.38041;-11.64223;,
 7.45079;6.23651;-12.31491;,
 -0.10712;6.23651;-16.92228;,
 -7.45079;6.23651;-12.31491;,
 -7.08829;8.38041;-11.64223;,
 7.08829;8.38041;-11.64223;,
 8.61029;7.88120;-4.62227;,
 -7.08829;8.38041;-11.64223;,
 -8.61029;7.88183;-4.62227;,
 7.45079;8.52500;3.38543;,
 -7.45079;8.52500;3.38543;,
 -4.66221;2.28418;-10.69211;,
 -0.59011;3.16675;-14.76977;,
 -4.66221;2.28418;-10.69211;,
 -7.45079;3.57388;-4.62227;,
 -8.61029;7.88183;-4.62227;,
 -7.45079;6.23651;-12.31491;,
 4.66221;2.28418;-10.69211;,
 -6.07287;0.91861;-4.62227;,
 -6.81103;5.07088;2.14504;,
 -7.45079;6.74460;2.84721;,
 4.66221;2.28418;-10.69211;,
 7.45079;6.23651;-12.31491;,
 8.61029;7.88120;-4.62227;,
 7.45079;3.57388;-4.62227;,
 -6.81103;5.07088;2.14504;,
 -4.47985;2.56639;-0.21871;,
 -0.10712;2.59768;1.35942;,
 -0.10712;3.92433;3.41389;,
 -0.10712;7.43725;5.08444;,
 -7.45079;6.74460;2.84721;,
 7.45079;6.74460;2.84721;,
 6.81103;5.07088;2.14504;,
 6.07287;0.91861;-4.62227;,
 4.47985;2.56639;-0.21871;,
 6.81103;5.07088;2.14504;,
 7.45079;6.74460;2.84721;,
 -4.66221;2.28418;-10.69211;,
 -0.59011;3.16675;-14.76977;,
 -0.10712;0.91861;-12.31491;,
 -4.66221;2.28418;-10.69211;,
 -6.07287;0.91861;-4.62227;,
 -0.59011;3.16675;-14.76977;,
 4.66221;2.28418;-10.69211;,
 4.66221;2.28418;-10.69211;,
 7.45079;3.57388;-4.62227;,
 7.08829;8.38041;-11.64223;,
 8.61029;7.88120;-4.62227;,
 -7.08829;8.38041;-11.64223;,
 -7.45079;6.23651;-12.31491;,
 7.45079;8.52500;3.38543;,
 -8.61029;7.88183;-4.62227;,
 -7.45079;6.74460;2.84721;,
 7.45079;8.52500;3.38543;,
 6.44743;10.81397;2.44691;,
 -0.10712;7.43725;5.08444;,
 -7.45079;8.52500;3.38543;,
 -7.45079;6.74460;2.84721;,
 -0.10712;7.43725;5.08444;,
 -5.95676;17.15996;-4.92293;,
 -5.07825;19.39222;-5.20432;,
 -3.70006;21.08654;-5.47096;,
 -3.03795;15.74619;-4.64139;,
 -2.22455;19.69107;-5.69143;,
 -1.67786;17.67391;-6.01091;,
 -6.30592;16.94446;-3.44949;,
 -3.36046;18.04632;-2.76538;,
 -3.55684;22.32893;-4.51308;,
 -5.75736;19.63709;-3.45656;,
 -0.44457;17.00291;-4.35366;,
 -1.40819;19.74483;-4.13687;,
 -3.53649;21.89915;-4.87597;,
 -3.70006;21.08654;-5.47096;,
 -5.07825;19.39222;-5.20432;,
 -5.75736;19.63709;-3.45656;,
 -3.55684;22.32893;-4.51308;,
 -1.40819;19.74483;-4.13687;,
 -1.63850;19.89827;-4.84806;,
 -2.22455;19.69107;-5.69143;,
 -5.75736;19.63709;-3.45656;,
 -5.07825;19.39222;-5.20432;,
 -5.95676;17.15996;-4.92293;,
 -6.67514;17.02197;-4.47400;,
 -1.63850;19.89827;-4.84806;,
 -0.44457;17.00291;-4.35366;,
 -0.79309;16.53282;-5.30688;,
 -1.67786;17.67391;-6.01091;,
 -2.22455;19.69107;-5.69143;,
 -6.31178;11.64240;-4.80490;,
 -5.88102;14.11671;-5.37059;,
 -3.96061;14.27040;-6.34085;,
 -3.80230;13.15840;-6.68795;,
 -1.40459;13.00747;-6.12682;,
 -1.00868;12.72363;-5.10925;,
 -3.81088;12.54001;-3.17537;,
 -1.81524;14.61423;-6.51075;,
 -6.33937;15.51441;-3.75253;,
 -6.31178;11.64240;-4.80490;,
 -3.81088;12.54001;-3.17537;,
 -3.50755;14.27936;-2.47946;,
 -6.33937;15.51441;-3.75253;,
 -6.30592;16.94446;-3.44949;,
 -6.58418;15.70069;-4.68326;,
 -1.00868;12.72363;-5.10925;,
 -0.51870;15.60089;-4.29845;,
 -5.93277;15.01257;-5.25216;,
 -5.88102;14.11671;-5.37059;,
 -6.31178;11.64240;-4.80490;,
 -0.51870;15.60089;-4.29845;,
 -1.40459;13.00747;-6.12682;,
 -0.79309;16.53282;-5.30688;,
 -5.93277;15.01257;-5.25216;,
 -3.33473;14.51144;-5.02333;,
 -3.96061;14.27040;-6.34085;,
 -5.88102;14.11671;-5.37059;,
 -1.81524;14.61423;-6.51075;,
 -1.72137;15.27468;-6.39574;,
 -1.72137;15.27468;-6.39574;,
 -1.81524;14.61423;-6.51075;,
 -3.53649;21.89915;-4.87597;,
 -5.75736;19.63709;-3.45656;,
 -5.75736;19.63709;-3.45656;,
 -6.67514;17.02197;-4.47400;,
 -6.31178;11.64240;-4.80490;,
 -3.80230;13.15840;-6.68795;,
 -6.33937;15.51441;-3.75253;,
 -6.58418;15.70069;-4.68326;,
 -0.51870;15.60089;-4.29845;,
 -0.79309;16.53282;-5.30688;,
 -1.72137;15.27468;-6.39574;,
 5.95676;17.15996;-4.92293;,
 3.03795;15.74619;-4.64139;,
 3.70006;21.08654;-5.47096;,
 5.07825;19.39222;-5.20432;,
 1.67786;17.67391;-6.01091;,
 2.22455;19.69107;-5.69143;,
 6.30592;16.94446;-3.44949;,
 5.75736;19.63709;-3.45656;,
 3.55684;22.32893;-4.51308;,
 3.36046;18.04632;-2.76538;,
 1.40819;19.74483;-4.13687;,
 0.44457;17.00291;-4.35366;,
 3.53649;21.89915;-4.87597;,
 5.75736;19.63709;-3.45656;,
 5.07825;19.39222;-5.20432;,
 3.70006;21.08654;-5.47096;,
 1.63850;19.89827;-4.84806;,
 1.40819;19.74483;-4.13687;,
 3.55684;22.32893;-4.51308;,
 2.22455;19.69107;-5.69143;,
 5.75736;19.63709;-3.45656;,
 6.67514;17.02197;-4.47400;,
 5.95676;17.15996;-4.92293;,
 5.07825;19.39222;-5.20432;,
 1.63850;19.89827;-4.84806;,
 0.79309;16.53282;-5.30688;,
 0.44457;17.00291;-4.35366;,
 2.22455;19.69107;-5.69143;,
 1.67786;17.67391;-6.01091;,
 6.31178;11.64240;-4.80490;,
 3.80230;13.15840;-6.68795;,
 3.96061;14.27040;-6.34085;,
 5.88102;14.11671;-5.37059;,
 1.40459;13.00747;-6.12682;,
 3.81088;12.54001;-3.17537;,
 1.00868;12.72363;-5.10925;,
 1.81524;14.61423;-6.51075;,
 6.33937;15.51441;-3.75253;,
 3.50755;14.27936;-2.47946;,
 3.81088;12.54001;-3.17537;,
 6.31178;11.64240;-4.80490;,
 6.33937;15.51441;-3.75253;,
 6.58418;15.70069;-4.68326;,
 6.30592;16.94446;-3.44949;,
 0.51870;15.60089;-4.29845;,
 1.00868;12.72363;-5.10925;,
 5.93277;15.01257;-5.25216;,
 6.31178;11.64240;-4.80490;,
 5.88102;14.11671;-5.37059;,
 0.51870;15.60089;-4.29845;,
 0.79309;16.53282;-5.30688;,
 1.40459;13.00747;-6.12682;,
 5.93277;15.01257;-5.25216;,
 3.33473;14.51144;-5.02333;,
 5.88102;14.11671;-5.37059;,
 3.96061;14.27040;-6.34085;,
 1.72137;15.27468;-6.39574;,
 1.81524;14.61423;-6.51075;,
 1.72137;15.27468;-6.39574;,
 1.81524;14.61423;-6.51075;,
 3.53649;21.89915;-4.87597;,
 5.75736;19.63709;-3.45656;,
 5.75736;19.63709;-3.45656;,
 6.67514;17.02197;-4.47400;,
 6.31178;11.64240;-4.80490;,
 3.80230;13.15840;-6.68795;,
 6.33937;15.51441;-3.75253;,
 6.58418;15.70069;-4.68326;,
 0.51870;15.60089;-4.29845;,
 0.79309;16.53282;-5.30688;,
 1.72137;15.27468;-6.39574;,
 -4.80413;-3.20937;-9.63593;,
 -3.86274;-4.97606;-9.79649;,
 -3.87844;-5.34549;-8.70079;,
 -4.80820;-3.48088;-7.80982;,
 4.35990;-3.04520;-8.34647;,
 4.35990;-3.48088;-7.80982;,
 3.87844;-5.34549;-8.70079;,
 3.87844;-3.28921;-10.20987;,
 -4.84183;-1.47801;-8.20406;,
 -4.80583;-1.75382;-6.98457;,
 4.80583;-0.73378;-8.41969;,
 4.80583;-1.75382;-6.98457;,
 -5.19569;-0.17726;-9.23385;,
 -5.15969;-1.05353;-6.32971;,
 -4.96774;0.70907;-5.80770;,
 -3.73716;1.50208;-6.49850;,
 4.91250;0.41722;-6.95989;,
 3.83412;1.77323;-7.50737;,
 4.73512;0.70907;-5.80770;,
 5.15969;-0.38337;-6.32971;,
 -2.44901;-1.28020;-10.36213;,
 -2.17510;-2.11391;-9.97653;,
 -4.80413;-3.20937;-9.63593;,
 -4.84183;-1.47801;-8.20406;,
 -5.19569;-0.17726;-9.23385;,
 -2.29294;-0.17196;-9.59616;,
 -3.73716;1.50208;-6.49850;,
 -3.13451;1.62183;-7.50492;,
 -3.13451;1.62183;-7.50492;,
 -3.73716;1.50208;-6.49850;,
 -3.13451;1.42818;-5.80525;,
 -1.99122;-7.18627;-11.79172;,
 -1.99122;-7.50918;-9.60811;,
 -3.38816;-6.33759;-9.60811;,
 -2.72435;-6.48121;-10.27775;,
 -3.13451;1.42818;-5.80525;,
 -4.96774;0.70907;-5.80770;,
 -5.15969;-1.05353;-6.32971;,
 -3.03235;-0.38337;-6.32971;,
 -4.80583;-1.75382;-6.98457;,
 -2.82438;-1.75382;-6.98457;,
 -2.27936;-5.34549;-8.70079;,
 -2.56231;-3.48088;-7.80982;,
 -4.80820;-3.48088;-7.80982;,
 -3.87844;-5.34549;-8.70079;,
 0.33477;-1.56443;-9.96966;,
 -0.01614;-3.48644;-12.25310;,
 -0.67245;0.11130;-10.60107;,
 -0.07705;1.62183;-7.50492;,
 -0.07705;1.62183;-7.50492;,
 -0.07705;1.42818;-5.80525;,
 -0.08758;-8.49281;-11.50434;,
 -0.08758;-8.81573;-9.60811;,
 -0.07705;1.42818;-5.80525;,
 -0.13338;-0.38337;-6.32971;,
 -0.12423;-1.75382;-6.98457;,
 -0.10026;-5.34549;-8.70079;,
 -0.11270;-3.48088;-7.80982;,
 2.44833;-0.58814;-10.55371;,
 4.80583;-0.73378;-8.41969;,
 4.35990;-3.04520;-8.34647;,
 2.57631;-1.95474;-9.88532;,
 3.87844;-3.28921;-10.20987;,
 2.76943;-3.68957;-11.61183;,
 -0.10026;-5.01490;-11.57324;,
 2.44833;-0.58814;-10.55371;,
 2.16794;1.59759;-7.50737;,
 3.83412;1.77323;-7.50737;,
 4.91250;0.41722;-6.95989;,
 2.16794;1.59759;-7.50737;,
 2.94795;1.40394;-5.80770;,
 3.83412;1.77323;-7.50737;,
 2.44704;-6.29704;-11.70202;,
 1.83546;-7.50918;-9.60811;,
 2.94795;1.40394;-5.80770;,
 2.79514;-0.38337;-6.32971;,
 5.15969;-0.38337;-6.32971;,
 4.73512;0.70907;-5.80770;,
 2.60345;-1.75382;-6.98457;,
 4.80583;-1.75382;-6.98457;,
 2.10105;-5.34549;-8.70079;,
 3.87844;-5.34549;-8.70079;,
 4.35990;-3.48088;-7.80982;,
 2.36187;-3.48088;-7.80982;,
 -2.17510;-2.11391;-9.97653;,
 -3.86274;-4.97606;-9.79649;,
 -0.01614;-3.48644;-12.25310;,
 -0.10026;-5.01490;-11.57324;,
 -2.17510;-2.11391;-9.97653;,
 2.44833;-0.58814;-10.55371;,
 0.33477;-1.56443;-9.96966;,
 4.91250;0.41722;-6.95989;,
 -2.93047;-4.07040;-11.60980;,
 -0.09298;-7.01195;-12.07224;,
 -0.08758;-8.49281;-11.50434;,
 -1.99122;-7.18627;-11.79172;,
 -2.72435;-6.48121;-10.27775;,
 -3.59024;-5.57244;-11.23515;,
 -3.86274;-4.97606;-9.79649;,
 2.58431;-5.29705;-11.07800;,
 2.44704;-6.29704;-11.70202;,
 -3.59024;-5.57244;-11.23515;,
 -2.72435;-6.48121;-10.27775;,
 -3.59692;-5.91516;-9.22178;,
 3.59692;-5.08974;-10.47766;,
 3.38816;-6.01467;-9.98486;,
 -3.59692;-5.91516;-9.22178;,
 -3.38816;-6.33759;-9.60811;,
 -1.99122;-7.50918;-9.60811;,
 -2.11391;-6.58790;-9.22178;,
 3.59692;-5.08974;-10.47766;,
 3.59692;-5.91516;-9.22178;,
 -0.08758;-8.81573;-9.60811;,
 -0.09298;-7.33813;-9.22178;,
 3.59692;-5.91516;-9.22178;,
 1.94855;-6.58790;-9.22178;,
 1.83546;-7.50918;-9.60811;,
 3.38816;-6.01467;-9.98486;,
 -4.85062;13.95708;-4.43071;,
 -5.73228;14.72379;-5.45998;,
 -4.91602;14.25600;-5.96950;,
 -3.59088;13.95708;-6.16789;,
 -2.40022;13.95708;-6.39221;,
 -2.40022;13.95708;-4.43071;,
 -4.18324;15.96700;-5.01916;,
 -3.61659;14.64443;-4.43162;,
 -3.37289;16.08788;-5.26556;,
 -3.90644;17.31850;-5.24412;,
 -4.30785;15.50918;-6.23813;,
 -3.90644;17.31850;-5.24412;,
 -3.35574;16.64010;-6.46835;,
 -3.56638;15.42294;-5.98073;,
 -2.40022;15.05558;-4.55712;,
 -2.40022;18.34186;-5.55831;,
 -2.40022;18.34186;-5.55831;,
 -2.40022;15.05558;-5.84485;,
 -3.58611;15.03255;-7.14982;,
 -2.40022;15.05558;-5.84485;,
 -2.40022;13.95708;-6.39221;,
 -3.59088;13.95708;-6.16789;,
 -4.91602;14.25600;-5.96950;,
 -4.83416;15.70067;-5.91854;,
 -2.40022;15.05558;-5.84485;,
 -2.40022;15.05558;-4.55712;,
 -2.40022;13.95708;-6.39221;,
 -4.83416;15.70067;-5.91854;,
 -4.91602;14.25600;-5.96950;,
 -5.27802;17.64670;-5.65755;,
 -4.18324;15.96700;-5.01916;,
 -4.30785;15.50918;-6.23813;,
 -2.40022;15.05558;-4.55712;,
 -3.61659;14.64443;-4.43162;,
 -4.85062;13.95708;-4.43071;,
 -2.40022;13.95708;-4.43071;,
 -5.27802;17.64670;-5.65755;,
 -5.73228;14.72379;-5.45998;,
 2.44704;-6.29704;-11.70202;,
 3.38816;-6.01467;-9.98486;,
 3.59692;-5.08974;-10.47766;,
 3.59692;-5.91516;-9.22178;,
 -3.37289;16.08788;-5.26556;,
 -2.40022;18.34186;-5.55831;,
 -3.35574;16.64010;-6.46835;,
 -3.37289;16.08788;-5.26556;,
 -3.35574;16.64010;-6.46835;,
 -3.90644;17.31850;-5.24412;,
 -4.18324;15.96700;-5.01916;,
 -3.90644;17.31850;-5.24412;,
 -2.40022;15.05558;-4.55712;,
 -2.40022;15.05558;-5.84485;,
 -3.58611;15.03255;-7.14982;,
 -3.56638;15.42294;-5.98073;,
 -5.27802;17.64670;-5.65755;,
 -3.61659;14.64443;-4.43162;,
 4.85062;13.95708;-4.43071;,
 3.59088;13.95708;-6.16789;,
 4.91602;14.25600;-5.96950;,
 5.73228;14.72379;-5.45998;,
 2.40022;13.95708;-4.43071;,
 2.40022;13.95708;-6.39221;,
 4.18324;15.96700;-5.01916;,
 3.90644;18.15898;-5.95257;,
 3.37289;16.08788;-5.26556;,
 3.61659;14.64443;-4.43162;,
 4.30785;15.81236;-5.83446;,
 3.56638;15.42294;-5.98073;,
 3.35574;16.64010;-5.79671;,
 3.90644;18.15898;-5.95257;,
 2.40022;18.34186;-5.55831;,
 2.40022;15.05558;-4.55712;,
 2.40022;15.05558;-5.84485;,
 2.40022;18.34186;-5.55831;,
 3.58611;16.04454;-7.14982;,
 4.15129;15.22957;-5.91854;,
 4.15129;15.22957;-5.91854;,
 4.30785;15.81236;-5.83446;,
 4.18324;15.96700;-5.01916;,
 5.27802;17.96936;-5.48345;,
 3.37289;16.08788;-5.26556;,
 3.35574;16.64010;-5.79671;,
 2.40022;18.34186;-5.55831;,
 3.37289;16.08788;-5.26556;,
 3.90644;18.15898;-5.95257;,
 3.35574;16.64010;-5.79671;,
 4.18324;15.96700;-5.01916;,
 3.90644;18.15898;-5.95257;,
 2.40022;15.05558;-4.55712;,
 2.40022;15.05558;-5.84485;,
 3.58611;16.04454;-7.14982;,
 3.56638;15.42294;-5.98073;,
 5.27802;17.96936;-5.48345;,
 3.61659;14.64443;-4.43162;,
 3.58758;14.70144;-6.84751;,
 4.85937;14.90022;-6.80522;,
 4.91602;14.25600;-5.96950;,
 3.59088;13.95708;-6.16789;,
 2.40022;13.95708;-6.39221;,
 2.40022;14.71738;-6.01337;,
 2.40022;15.05558;-5.84485;,
 4.85937;14.90022;-6.80522;,
 5.41787;16.74682;-5.59672;,
 4.91602;14.25600;-5.96950;,
 2.40022;14.71738;-6.01337;,
 2.40022;13.95708;-6.39221;,
 2.40022;14.71738;-4.51820;,
 2.40022;15.05558;-4.55712;,
 2.40022;15.05558;-5.84485;,
 5.41787;16.74682;-5.59672;,
 5.27802;17.96936;-5.48345;,
 3.61659;14.64443;-4.43162;,
 3.99651;14.43282;-4.43134;,
 4.85062;13.95708;-4.43071;,
 5.73228;14.72379;-5.45998;,
 2.40022;14.71738;-4.51820;,
 2.40022;13.95708;-4.43071;,
 2.40022;15.05558;-4.55712;,
 -5.84936;11.53485;-11.55419;,
 -1.94970;11.63431;-12.63733;,
 -2.04876;10.82522;-13.25292;,
 -5.94841;10.72578;-12.16977;,
 -1.94970;11.63431;-12.63733;,
 -1.81382;11.41158;-12.14951;,
 -1.91288;10.60251;-12.76510;,
 -2.04876;10.82522;-13.25292;,
 -1.81382;11.41158;-12.14951;,
 -5.71348;11.31212;-11.06637;,
 -5.81254;10.50304;-11.68196;,
 -1.91288;10.60251;-12.76510;,
 -5.71348;11.31212;-11.06637;,
 -5.84936;11.53485;-11.55419;,
 -5.94841;10.72578;-12.16977;,
 -5.81254;10.50304;-11.68196;,
 -1.94970;11.63431;-12.63733;,
 -5.84936;11.53485;-11.55419;,
 -5.94841;10.72578;-12.16977;,
 -2.04876;10.82522;-13.25292;,
 -2.98849;10.85394;-12.91258;,
 -2.65841;10.23638;-11.48008;,
 -2.89393;7.77914;-13.17995;,
 -3.22401;7.84386;-13.85932;,
 -4.12087;10.23638;-11.06839;,
 -4.45096;10.85394;-12.50089;,
 -4.68648;7.84386;-13.44763;,
 -4.35640;7.77914;-12.76825;,
 5.84936;11.53485;-11.55419;,
 5.94841;10.72578;-12.16977;,
 2.04876;10.82522;-13.25292;,
 1.94970;11.63431;-12.63733;,
 1.94970;11.63431;-12.63733;,
 2.04876;10.82522;-13.25292;,
 1.91288;10.60251;-12.76510;,
 1.81382;11.41158;-12.14951;,
 1.81382;11.41158;-12.14951;,
 1.91288;10.60251;-12.76510;,
 5.81254;10.50304;-11.68196;,
 5.71348;11.31212;-11.06637;,
 5.71348;11.31212;-11.06637;,
 5.81254;10.50304;-11.68196;,
 5.94841;10.72578;-12.16977;,
 5.84936;11.53485;-11.55419;,
 5.84936;11.53485;-11.55419;,
 1.94970;11.63431;-12.63733;,
 5.94841;10.72578;-12.16977;,
 2.04876;10.82522;-13.25292;,
 2.98849;10.85394;-12.91258;,
 3.22401;7.84386;-13.85932;,
 2.89393;7.77914;-13.17995;,
 2.65841;10.23638;-11.48008;,
 4.12087;10.23638;-11.06839;,
 4.35640;7.77914;-12.76825;,
 4.68648;7.84386;-13.44763;,
 4.45096;10.85394;-12.50089;,
 3.93392;7.45670;-13.82605;,
 4.68648;7.84386;-13.44763;,
 3.60384;7.39196;-13.14668;,
 3.22401;7.84386;-13.85932;,
 3.93392;7.45670;-13.82605;,
 3.22401;7.84386;-13.85932;,
 2.98849;10.85394;-12.91258;,
 3.69840;10.85394;-12.71274;,
 4.45096;10.85394;-12.50089;,
 4.68648;7.84386;-13.44763;,
 3.60384;7.39196;-13.14668;,
 4.35640;7.77914;-12.76825;,
 4.12087;10.23638;-11.06839;,
 3.36832;10.23638;-11.28024;,
 2.65841;10.23638;-11.48008;,
 2.89393;7.77914;-13.17995;,
 3.69840;10.85394;-12.71274;,
 2.98849;10.85394;-12.91258;,
 3.36832;10.23638;-11.28024;,
 4.45096;10.85394;-12.50089;,
 -3.98230;7.45670;-13.81244;,
 -3.22401;7.84386;-13.85932;,
 -3.65221;7.77914;-12.96649;,
 -4.68648;7.84386;-13.44763;,
 -3.98230;7.45670;-13.81244;,
 -4.68648;7.84386;-13.44763;,
 -4.45096;10.85394;-12.50089;,
 -3.74678;10.85394;-12.69912;,
 -2.98849;10.85394;-12.91258;,
 -3.22401;7.84386;-13.85932;,
 -3.65221;7.77914;-12.96649;,
 -2.89393;7.77914;-13.17995;,
 -2.65841;10.23638;-11.48008;,
 -3.41669;10.23638;-11.26662;,
 -4.12087;10.23638;-11.06839;,
 -4.35640;7.77914;-12.76825;,
 -3.74678;10.85394;-12.69912;,
 -4.45096;10.85394;-12.50089;,
 -3.41669;10.23638;-11.26662;,
 -2.98849;10.85394;-12.91258;,
 0.00000;6.85280;-16.66661;,
 0.81436;6.55564;-16.66661;,
 0.00000;6.55564;-17.06570;,
 0.00000;6.85280;-16.66661;,
 0.00000;6.55564;-16.26752;,
 0.00000;6.85280;-16.66661;,
 -0.81436;6.55564;-16.66661;,
 0.00000;6.85280;-16.66661;,
 0.00000;6.55564;-17.06570;,
 0.81436;5.96136;-16.66661;,
 0.00000;5.96136;-17.06570;,
 0.00000;5.96136;-16.26752;,
 -0.81436;5.96136;-16.66661;,
 0.00000;5.96136;-17.06570;,
 0.00000;5.66420;-16.66661;,
 0.00000;5.66420;-16.66661;,
 0.00000;5.66420;-16.66661;,
 0.00000;5.66420;-16.66661;;
 
 294;
 4;0,1,2,3;,
 4;1,4,5,2;,
 4;6,7,8,9;,
 4;6,9,10,11;,
 4;9,8,12,13;,
 4;9,13,14,10;,
 4;15,16,17,18;,
 4;15,18,19,20;,
 4;15,20,21,22;,
 4;15,22,23,16;,
 4;24,25,26,27;,
 4;24,27,28,29;,
 4;30,31,32,33;,
 4;30,33,34,35;,
 4;27,26,3,36;,
 4;27,36,7,28;,
 4;33,32,12,37;,
 4;33,37,5,34;,
 4;38,39,40,41;,
 4;38,41,42,43;,
 4;44,45,42,41;,
 4;44,41,40,46;,
 3;47,48,49;,
 3;50,51,4;,
 4;52,53,54,55;,
 4;52,55,56,57;,
 4;52,57,58,59;,
 4;52,59,60,53;,
 4;61,62,63,64;,
 4;61,64,65,66;,
 4;67,68,65,64;,
 4;67,64,63,69;,
 4;70,71,72,73;,
 4;70,74,75,71;,
 4;76,77,78,79;,
 4;80,81,82,83;,
 4;79,78,54,84;,
 4;81,85,60,82;,
 4;86,87,88,89;,
 4;90,89,88,91;,
 4;92,70,73,93;,
 4;92,93,94,95;,
 4;92,95,96,97;,
 4;92,97,74,70;,
 4;98,76,79,99;,
 4;100,101,81,80;,
 4;99,79,84,102;,
 4;101,103,85,81;,
 4;104,96,95,105;,
 4;106,107,108,109;,
 4;105,95,94,110;,
 4;107,111,69,112;,
 4;107,112,113,108;,
 4;114,115,116,117;,
 4;118,119,120,121;,
 4;118,121,122,123;,
 4;117,116,124,125;,
 4;117,125,62,126;,
 4;121,120,127,128;,
 4;121,128,129,122;,
 3;130,131,132;,
 3;133,134,107;,
 3;135,136,132;,
 3;137,138,126;,
 3;139,140,115;,
 3;141,142,108;,
 3;140,143,124;,
 3;144,145,103;,
 3;146,147,89;,
 3;146,148,129;,
 3;149,150,122;,
 3;149,151,90;,
 4;152,153,154,155;,
 4;155,154,156,157;,
 4;158,159,160,161;,
 4;159,162,163,160;,
 4;164,165,166,167;,
 4;164,168,169,170;,
 4;164,170,171,165;,
 4;172,173,174,175;,
 4;176,169,177,178;,
 4;176,178,179,180;,
 4;181,182,183,184;,
 4;185,186,187,184;,
 4;185,184,183,188;,
 4;189,190,191,192;,
 4;189,192,159,158;,
 4;193,194,175,195;,
 4;192,191,196,197;,
 4;192,197,162,159;,
 4;195,175,174,198;,
 4;195,198,199,200;,
 4;201,186,202,203;,
 4;204,152,155,205;,
 4;204,205,206,207;,
 4;203,202,208,209;,
 4;205,155,157,210;,
 4;205,210,211,206;,
 3;212,213,168;,
 3;214,215,194;,
 3;216,217,187;,
 3;218,219,200;,
 3;220,221,177;,
 3;221,222,179;,
 4;223,224,225,226;,
 4;224,227,228,225;,
 4;229,230,231,232;,
 4;232,231,233,234;,
 4;235,236,237,238;,
 4;235,239,240,241;,
 4;235,238,242,239;,
 4;243,244,245,246;,
 4;247,248,249,240;,
 4;247,250,251,248;,
 4;252,253,254,255;,
 4;256,253,257,258;,
 4;256,259,254,253;,
 4;260,261,262,263;,
 4;260,229,232,261;,
 4;264,265,244,266;,
 4;261,267,268,262;,
 4;261,232,234,267;,
 4;265,269,245,244;,
 4;265,270,271,269;,
 4;272,273,274,258;,
 4;275,276,224,223;,
 4;275,277,278,276;,
 4;273,279,280,274;,
 4;276,281,227,224;,
 4;276,278,282,281;,
 3;283,241,284;,
 3;285,266,286;,
 3;287,257,288;,
 3;289,270,290;,
 3;291,249,292;,
 3;292,251,293;,
 4;294,295,296,297;,
 4;298,299,300,301;,
 4;302,294,297,303;,
 4;304,305,299,298;,
 4;306,302,303,307;,
 4;306,307,308,309;,
 4;310,311,312,313;,
 4;310,313,305,304;,
 4;314,315,316,317;,
 4;314,317,318,319;,
 4;319,318,320,321;,
 4;322,323,308,324;,
 4;325,326,327,328;,
 4;329,330,331,332;,
 4;332,331,333,334;,
 4;335,336,337,338;,
 4;334,333,337,336;,
 4;339,340,315,314;,
 4;339,314,319,341;,
 4;341,319,321,342;,
 4;343,322,324,344;,
 4;345,346,326,325;,
 4;347,329,332,348;,
 4;348,332,334,349;,
 4;350,351,336,335;,
 4;349,334,336,351;,
 4;352,353,354,355;,
 4;352,355,340,339;,
 4;355,354,356,357;,
 4;355,357,358,340;,
 4;359,341,342,360;,
 4;359,360,361,362;,
 4;363,343,344,364;,
 4;363,364,312,365;,
 4;366,367,346,345;,
 4;368,347,348,369;,
 4;368,369,370,371;,
 4;369,348,349,372;,
 4;369,372,373,370;,
 4;374,375,376,377;,
 4;374,377,351,350;,
 4;372,349,351,377;,
 4;372,377,376,373;,
 3;378,379,316;,
 3;380,381,382;,
 3;383,384,341;,
 3;383,385,353;,
 4;386,382,358,387;,
 4;386,387,388,389;,
 4;386,389,390,391;,
 4;386,391,392,382;,
 4;387,358,357,393;,
 4;387,393,394,388;,
 4;395,396,327,397;,
 4;395,397,296,295;,
 4;393,357,356,398;,
 4;393,398,399,394;,
 4;400,401,402,403;,
 4;400,403,335,338;,
 4;404,301,300,405;,
 4;403,402,406,407;,
 4;403,407,350,335;,
 4;408,375,374,409;,
 4;408,409,410,411;,
 4;407,406,410,409;,
 4;407,409,374,350;,
 4;412,413,414,415;,
 4;412,415,416,417;,
 4;418,419,420,421;,
 4;422,423,424,425;,
 4;419,426,427,420;,
 4;425,424,428,429;,
 4;430,431,432,433;,
 4;430,433,434,435;,
 4;430,435,422,425;,
 4;436,437,417,438;,
 4;439,440,413,441;,
 4;439,441,442,443;,
 4;444,445,446,447;,
 4;448,449,446,445;,
 3;450,451,367;,
 3;452,453,399;,
 3;454,455,456;,
 3;457,458,459;,
 3;460,461,443;,
 3;462,463,427;,
 3;464,465,429;,
 3;466,467,418;,
 4;468,469,470,471;,
 4;468,472,473,469;,
 4;474,475,476,477;,
 4;478,479,480,481;,
 4;477,476,482,483;,
 4;479,484,485,480;,
 4;486,479,478,487;,
 4;488,489,490,491;,
 3;492,493,494;,
 3;495,496,497;,
 3;498,489,499;,
 3;500,482,501;,
 3;502,484,503;,
 3;504,474,505;,
 4;506,486,487,507;,
 4;506,507,508,509;,
 4;506,509,510,511;,
 4;506,511,512,486;,
 4;513,488,491,514;,
 4;513,514,471,515;,
 4;516,517,472,518;,
 4;516,518,519,520;,
 4;521,522,523,524;,
 4;521,524,525,526;,
 4;527,528,525,524;,
 4;527,524,523,529;,
 4;530,531,532,533;,
 4;534,535,536,537;,
 4;538,539,540,541;,
 4;542,543,544,545;,
 4;542,535,546,547;,
 4;548,549,536,545;,
 4;550,551,552,553;,
 4;554,555,556,557;,
 4;558,559,560,561;,
 4;562,563,564,565;,
 4;566,567,568,569;,
 4;570,571,572,573;,
 4;570,574,575,565;,
 4;576,571,564,577;,
 4;578,579,580,581;,
 4;582,583,584,585;,
 4;586,587,583,588;,
 4;586,588,580,589;,
 4;590,591,592,593;,
 4;590,593,594,595;,
 4;596,597,598,599;,
 4;596,599,600,601;,
 4;602,603,581,604;,
 4;602,604,582,605;,
 4;606,607,552,608;,
 4;606,608,557,609;,
 4;610,611,612,613;,
 4;610,613,614,615;,
 4;616,617,618,619;,
 4;616,619,620,621;,
 4;622,623,554,624;,
 4;622,624,551,625;,
 3;626,627,628;,
 3;629,630,627;,
 3;631,632,630;,
 3;633,634,632;,
 4;628,627,635,636;,
 4;627,630,637,635;,
 4;630,632,638,637;,
 4;632,634,639,638;,
 3;636,635,640;,
 3;635,637,641;,
 3;637,638,642;,
 3;638,639,643;;
 
 MeshMaterialList {
  5;
  294;
  0,
  0,
  0,
  0,
  0,
  0,
  0,
  0,
  0,
  0,
  0,
  0,
  0,
  0,
  0,
  0,
  0,
  0,
  0,
  0,
  0,
  0,
  0,
  0,
  0,
  0,
  0,
  0,
  0,
  0,
  0,
  0,
  0,
  0,
  0,
  0,
  0,
  0,
  0,
  0,
  0,
  0,
  0,
  0,
  0,
  0,
  0,
  0,
  0,
  0,
  0,
  0,
  0,
  0,
  0,
  0,
  0,
  0,
  0,
  0,
  0,
  0,
  0,
  0,
  0,
  0,
  0,
  0,
  0,
  0,
  0,
  0,
  3,
  3,
  1,
  1,
  1,
  1,
  1,
  1,
  1,
  1,
  1,
  0,
  1,
  1,
  1,
  1,
  1,
  1,
  1,
  1,
  1,
  3,
  3,
  1,
  3,
  3,
  1,
  1,
  0,
  1,
  1,
  1,
  3,
  3,
  1,
  1,
  1,
  1,
  1,
  1,
  1,
  1,
  1,
  0,
  1,
  1,
  1,
  1,
  1,
  1,
  1,
  1,
  1,
  3,
  3,
  1,
  3,
  3,
  1,
  1,
  0,
  1,
  1,
  1,
  2,
  2,
  2,
  2,
  2,
  2,
  2,
  2,
  2,
  2,
  2,
  2,
  2,
  2,
  2,
  2,
  2,
  2,
  2,
  2,
  2,
  2,
  2,
  2,
  2,
  2,
  2,
  2,
  2,
  2,
  2,
  2,
  2,
  2,
  2,
  2,
  2,
  2,
  2,
  2,
  2,
  2,
  2,
  2,
  2,
  2,
  2,
  2,
  2,
  2,
  2,
  2,
  2,
  2,
  2,
  2,
  2,
  2,
  2,
  2,
  2,
  2,
  2,
  2,
  2,
  2,
  2,
  2,
  2,
  2,
  2,
  2,
  2,
  2,
  2,
  2,
  2,
  2,
  2,
  2,
  2,
  2,
  2,
  2,
  2,
  2,
  2,
  2,
  2,
  2,
  2,
  2,
  2,
  2,
  2,
  2,
  2,
  2,
  2,
  2,
  2,
  2,
  2,
  2,
  2,
  2,
  2,
  2,
  2,
  2,
  2,
  2,
  2,
  2,
  4,
  4,
  4,
  4,
  4,
  4,
  4,
  4,
  4,
  4,
  4,
  4,
  4,
  4,
  4,
  4,
  4,
  4,
  4,
  4,
  4,
  4,
  4,
  4,
  4,
  4,
  4,
  4,
  4,
  4,
  4,
  4,
  4,
  4,
  4,
  4,
  4,
  4,
  4,
  4,
  4,
  4,
  4,
  4;;
  Material {
   0.702400;0.380000;0.181600;1.000000;;
   5.000000;
   0.000000;0.000000;0.000000;;
   0.000000;0.000000;0.000000;;
  }
  Material {
   0.367200;0.160000;0.000000;1.000000;;
   5.000000;
   0.000000;0.000000;0.000000;;
   0.000000;0.000000;0.000000;;
  }
  Material {
   0.800000;0.800000;0.800000;1.000000;;
   5.000000;
   0.000000;0.000000;0.000000;;
   0.000000;0.000000;0.000000;;
  }
  Material {
   0.800000;0.680800;0.796800;1.000000;;
   5.000000;
   0.000000;0.000000;0.000000;;
   0.000000;0.000000;0.000000;;
  }
  Material {
   0.179200;0.106400;0.106400;1.000000;;
   5.000000;
   0.000000;0.000000;0.000000;;
   0.000000;0.000000;0.000000;;
  }
 }
 MeshNormals {
  417;
  -0.437438;0.564096;-0.700317;,
  -0.361973;-0.931884;0.023841;,
  0.475170;0.532524;-0.700451;,
  0.413622;-0.904822;-0.101067;,
  0.151425;0.864115;0.479975;,
  0.395891;-0.835261;0.381587;,
  -0.448161;0.808369;0.381696;,
  -0.375155;-0.853101;0.362599;,
  -0.007404;0.559704;-0.828659;,
  -0.003501;-0.999760;0.021639;,
  -0.003422;0.874765;0.484535;,
  -0.015088;-0.895479;0.444849;,
  -0.430677;-0.900606;0.058532;,
  -0.557321;0.801617;-0.216340;,
  0.482103;-0.874008;0.060725;,
  -0.004279;0.960095;-0.279641;,
  0.624677;0.753677;-0.204328;,
  0.030804;-0.999266;-0.022769;,
  -0.448518;-0.891056;0.069642;,
  0.170752;0.184064;-0.967969;,
  -0.665018;-0.742814;0.077319;,
  0.997647;0.068142;0.007540;,
  -0.482073;-0.740854;0.467697;,
  0.980469;-0.092038;0.173810;,
  -0.013189;-0.716338;0.697629;,
  -0.009380;0.183805;-0.982918;,
  -0.560094;0.370234;-0.741095;,
  0.543195;-0.831262;-0.118077;,
  -0.851384;0.511151;-0.117771;,
  0.892539;0.344969;-0.290466;,
  0.696375;-0.715935;-0.049992;,
  -0.849459;0.513658;0.120729;,
  0.921269;0.364932;0.134495;,
  -0.135398;0.529461;0.837459;,
  -0.002004;0.532251;0.846584;,
  0.131426;0.525523;0.840567;,
  0.112561;-0.720323;0.684445;,
  -0.361710;0.864342;-0.349398;,
  -0.615799;-0.674921;-0.406537;,
  0.360224;0.864783;-0.349841;,
  0.603678;-0.671723;-0.429372;,
  0.462341;0.771607;0.436878;,
  0.358383;-0.820864;0.444683;,
  -0.465799;0.770506;0.435146;,
  -0.362190;-0.819929;0.443323;,
  -0.001235;0.907419;-0.420224;,
  -0.004920;-0.905588;-0.424130;,
  -0.003091;0.825067;0.565027;,
  -0.003012;-0.882638;0.470044;,
  -0.005031;0.572909;-0.819604;,
  0.737886;0.418624;-0.529413;,
  -0.741255;0.416775;-0.526156;,
  0.973691;-0.185338;0.132577;,
  -0.973694;-0.185326;0.132565;,
  -0.003067;0.246201;0.969214;,
  -0.001905;0.999150;0.041184;,
  0.509867;0.859996;0.021050;,
  -0.511521;0.859019;0.020829;,
  0.999752;-0.008876;-0.020437;,
  -0.999752;-0.008859;-0.020442;,
  0.531202;-0.844095;0.073001;,
  -0.533986;-0.842343;0.072920;,
  -0.003191;-0.994097;0.108453;,
  -0.002655;0.486536;-0.873657;,
  0.641894;0.507971;-0.574401;,
  -0.643690;0.508249;-0.572142;,
  0.896594;0.442762;-0.008988;,
  -0.896587;0.442776;-0.008986;,
  0.614616;0.537469;0.577386;,
  -0.616551;0.537330;0.575449;,
  -0.004640;0.380797;-0.924647;,
  0.743262;0.319474;-0.587791;,
  -0.746139;0.319105;-0.584336;,
  0.977287;0.152794;0.146846;,
  -0.977284;0.152810;0.146852;,
  -0.017944;-0.683450;-0.729777;,
  -0.880522;-0.474001;0.002020;,
  -0.590013;-0.608192;0.531025;,
  0.880517;-0.474011;0.002023;,
  -0.003675;-0.652632;0.757666;,
  0.587070;-0.609096;0.533245;,
  -0.724565;-0.521614;-0.450472;,
  -0.030689;-0.623211;-0.781452;,
  0.701286;-0.548447;-0.455417;,
  -0.003215;-0.444081;0.895981;,
  -0.243359;-0.357432;0.901676;,
  0.236803;-0.357535;0.903379;,
  0.207840;0.078763;0.974987;,
  -0.213472;0.079663;0.973696;,
  0.013652;-0.145107;-0.989322;,
  -0.445078;0.292561;-0.846353;,
  -0.499003;-0.125354;-0.857486;,
  0.432608;0.039026;-0.900737;,
  0.405630;0.244850;0.880632;,
  -0.059206;-0.977372;-0.203072;,
  -0.133278;0.219141;0.966547;,
  -0.598299;0.039533;-0.800297;,
  0.141559;0.241168;0.960104;,
  -0.251663;-0.140238;-0.957601;,
  0.187248;-0.964679;-0.185292;,
  -0.280539;0.436402;-0.854898;,
  -0.140797;0.059990;-0.988219;,
  -0.299226;0.048594;-0.952944;,
  -0.682414;0.082001;0.726352;,
  -0.642191;0.058242;-0.764329;,
  0.108090;0.120630;0.986795;,
  0.452333;0.137086;0.881251;,
  -0.755381;0.461561;-0.465145;,
  0.747994;0.453161;-0.484922;,
  -0.658505;0.254807;-0.708127;,
  0.856030;0.099918;-0.507178;,
  -0.243600;0.059302;-0.968061;,
  -0.763578;-0.120523;0.634368;,
  -0.130963;-0.097309;0.986600;,
  -0.962027;-0.074327;0.262641;,
  0.540544;-0.165586;0.824859;,
  -0.308562;0.293842;-0.904681;,
  -0.318043;0.532739;-0.784243;,
  0.723482;0.059326;-0.687789;,
  -0.757140;0.513542;-0.403749;,
  -0.745969;0.455179;-0.486150;,
  -0.857949;0.408371;-0.311700;,
  0.634007;0.593414;-0.495878;,
  0.726225;0.606260;-0.324110;,
  0.819590;0.464396;-0.335571;,
  0.655403;0.429327;-0.621390;,
  0.517588;0.557916;-0.648716;,
  -0.727100;0.392118;-0.563533;,
  0.934782;0.125542;-0.332298;,
  0.738243;0.194692;-0.645827;,
  -0.788173;-0.171521;0.591071;,
  -0.477981;-0.242506;0.844231;,
  -0.946325;0.056413;0.318255;,
  0.565834;-0.351723;0.745736;,
  -0.620204;0.063299;-0.781882;,
  0.939925;-0.065564;-0.335026;,
  0.932531;-0.068614;-0.354510;,
  -0.653845;0.497158;-0.570369;,
  -0.511592;0.717283;-0.473054;,
  -0.748732;0.406592;-0.523530;,
  0.422239;-0.892931;-0.156169;,
  -0.013652;-0.145107;-0.989322;,
  0.445078;0.292561;-0.846353;,
  0.499003;-0.125354;-0.857486;,
  -0.432608;0.039026;-0.900737;,
  -0.405630;0.244850;0.880632;,
  0.059206;-0.977372;-0.203072;,
  0.133278;0.219141;0.966547;,
  0.598299;0.039533;-0.800297;,
  -0.141559;0.241168;0.960104;,
  0.251663;-0.140238;-0.957601;,
  -0.187248;-0.964679;-0.185292;,
  0.280539;0.436402;-0.854898;,
  0.140797;0.059990;-0.988219;,
  0.299226;0.048594;-0.952944;,
  0.682414;0.082001;0.726352;,
  0.642191;0.058242;-0.764329;,
  -0.108090;0.120630;0.986795;,
  -0.452333;0.137086;0.881251;,
  0.755381;0.461561;-0.465145;,
  -0.747994;0.453161;-0.484922;,
  0.658505;0.254807;-0.708127;,
  -0.856030;0.099918;-0.507178;,
  0.243600;0.059302;-0.968061;,
  0.763578;-0.120523;0.634368;,
  0.130963;-0.097309;0.986600;,
  0.962027;-0.074327;0.262641;,
  -0.540544;-0.165586;0.824859;,
  0.308562;0.293842;-0.904681;,
  0.318043;0.532739;-0.784243;,
  -0.723482;0.059326;-0.687789;,
  0.857949;0.408371;-0.311700;,
  0.745969;0.455179;-0.486150;,
  0.757140;0.513542;-0.403749;,
  -0.634007;0.593414;-0.495878;,
  -0.819590;0.464396;-0.335571;,
  -0.726225;0.606260;-0.324110;,
  -0.517588;0.557916;-0.648716;,
  -0.655403;0.429327;-0.621390;,
  0.727100;0.392118;-0.563533;,
  -0.934782;0.125542;-0.332298;,
  -0.738243;0.194692;-0.645827;,
  0.477981;-0.242506;0.844231;,
  0.788173;-0.171521;0.591071;,
  0.946325;0.056413;0.318255;,
  -0.565834;-0.351723;0.745736;,
  0.620204;0.063299;-0.781882;,
  -0.939925;-0.065564;-0.335026;,
  -0.932531;-0.068614;-0.354510;,
  0.653845;0.497158;-0.570369;,
  0.511592;0.717283;-0.473054;,
  0.748732;0.406592;-0.523530;,
  -0.422239;-0.892931;-0.156169;,
  -0.517594;0.849116;-0.105354;,
  -0.717193;-0.599795;-0.354795;,
  0.540275;0.827500;-0.152795;,
  0.816500;-0.428103;-0.387372;,
  0.562730;0.811022;0.159933;,
  -0.587763;0.802117;0.105559;,
  -0.721719;-0.651101;-0.234924;,
  -0.978154;-0.127372;-0.164289;,
  0.903145;0.033541;-0.428025;,
  -0.918908;-0.380633;-0.103573;,
  0.964019;-0.191342;-0.184542;,
  -0.922381;-0.147808;-0.356883;,
  0.900675;0.030108;-0.433450;,
  -0.971297;-0.231811;-0.053344;,
  0.969854;-0.180050;-0.164212;,
  -0.846237;-0.114811;-0.520289;,
  0.886338;0.063276;-0.458696;,
  -0.980791;-0.192316;-0.032614;,
  0.982803;-0.102985;-0.153275;,
  -0.908459;0.016381;-0.417653;,
  0.778805;0.494999;-0.385277;,
  -0.994729;0.066050;-0.078432;,
  0.967482;0.240474;-0.078428;,
  -0.328337;0.092662;-0.940005;,
  -0.433097;0.178563;-0.883483;,
  -0.327118;0.335475;-0.883431;,
  -0.185897;0.968520;-0.165564;,
  -0.660468;-0.672525;-0.333905;,
  -0.089315;0.978553;0.185624;,
  -0.629859;-0.750741;-0.199163;,
  0.049563;-0.383165;0.922349;,
  -0.035026;-0.434559;0.899962;,
  0.024588;-0.456742;0.889259;,
  0.000000;-0.431141;0.902284;,
  -0.076279;0.046738;-0.995991;,
  0.085345;0.203051;-0.975442;,
  -0.119247;0.668580;-0.734017;,
  0.190732;0.187296;-0.963609;,
  -0.019908;0.975914;-0.217245;,
  -0.554737;-0.821702;-0.130665;,
  0.004726;0.993665;0.112288;,
  -0.000184;-0.356075;0.934457;,
  -0.000147;-0.376660;0.926352;,
  0.000000;-0.431146;0.902282;,
  0.324229;0.345036;-0.880809;,
  0.423739;0.233872;-0.875071;,
  0.469968;0.177479;-0.864657;,
  0.167264;0.959595;-0.226275;,
  0.704790;-0.596186;-0.384492;,
  0.065451;0.979234;0.191881;,
  0.616005;-0.787741;0.001164;,
  -0.013431;-0.374468;0.927142;,
  0.032413;-0.434036;0.900312;,
  0.012298;0.129505;-0.991503;,
  0.081346;0.078102;-0.993621;,
  -0.906023;-0.284063;-0.313737;,
  0.454103;-0.075767;-0.887721;,
  -0.860342;-0.486805;-0.151105;,
  0.859322;-0.227106;-0.458245;,
  -0.162341;-0.448955;0.878683;,
  0.884820;-0.465729;0.013815;,
  -0.000711;-0.324912;0.945744;,
  0.214247;-0.510442;0.832795;,
  0.238586;0.289862;0.926853;,
  -0.542100;-0.458469;-0.704225;,
  -0.643214;0.462320;0.610357;,
  0.000000;-1.000000;-0.000000;,
  -0.404298;-0.900908;-0.157824;,
  0.006319;0.353781;0.935307;,
  0.026900;-0.064386;-0.997562;,
  -0.207351;-0.974912;-0.080943;,
  0.241841;0.386371;0.890073;,
  -0.282338;0.042604;-0.958368;,
  -0.022455;0.334781;0.942028;,
  -0.099633;0.233198;0.967312;,
  0.320845;-0.109277;-0.940806;,
  -0.115952;-0.209842;-0.970835;,
  -0.509073;-0.146165;-0.848222;,
  -0.485021;0.035758;-0.873771;,
  -0.580463;0.417192;0.699295;,
  0.514276;-0.692821;-0.505489;,
  0.569120;0.435908;0.697200;,
  0.660691;-0.641388;-0.390011;,
  0.320159;0.462944;0.826548;,
  -0.059524;0.077589;-0.995207;,
  0.207351;-0.974912;-0.080943;,
  0.214569;-0.931740;-0.292952;,
  -0.515069;0.494184;0.700347;,
  -0.264655;0.214083;-0.940280;,
  -0.095883;0.337449;0.936448;,
  0.080007;0.198866;0.976755;,
  -0.386795;0.111983;-0.915341;,
  0.435043;0.707488;-0.556955;,
  0.230706;0.645169;-0.728376;,
  -0.368881;0.370448;-0.852464;,
  0.530554;0.557241;-0.638745;,
  0.168758;0.511496;-0.842551;,
  -0.420697;0.005670;-0.907183;,
  -0.222490;0.376482;-0.899310;,
  -1.000000;0.000000;0.000000;,
  0.187912;0.154838;0.969904;,
  -0.324335;0.821790;-0.468475;,
  0.049321;-0.280157;0.958686;,
  0.098523;-0.281541;0.954478;,
  0.099255;-0.409383;0.906948;,
  0.049212;-0.481756;0.874922;,
  0.000000;-0.431141;0.902284;,
  -0.046385;-0.490747;0.870067;,
  -0.000367;-0.278626;0.960400;,
  0.591547;-0.782594;-0.193956;,
  -0.026822;-0.316221;0.948306;,
  -0.026458;-0.392357;0.919432;,
  -0.052851;-0.352584;0.934286;,
  0.000000;-0.431146;0.902282;,
  0.041462;-0.489886;0.870800;,
  0.000000;-0.431141;0.902284;,
  -0.135714;0.017711;-0.990590;,
  -0.770903;-0.222965;-0.596653;,
  -0.073483;-0.390019;-0.917870;,
  -0.006813;-0.036157;-0.999323;,
  -0.128225;-0.174694;-0.976238;,
  -0.882268;-0.034145;-0.469508;,
  0.114834;0.103626;-0.987965;,
  -0.217511;-0.564799;0.796047;,
  -0.338813;-0.572814;0.746385;,
  -0.253638;-0.456489;0.852810;,
  -0.001133;-0.329085;0.944300;,
  0.082668;-0.545613;0.833950;,
  0.521560;-0.736550;0.430662;,
  0.158081;-0.324269;0.932663;,
  0.333216;-0.164383;-0.928410;,
  0.307402;-0.053804;-0.950058;,
  0.234655;0.912408;-0.335333;,
  0.329758;0.817703;-0.471828;,
  1.000000;0.000000;0.000000;,
  0.492289;0.670638;-0.554884;,
  -0.188360;0.225039;0.955969;,
  0.031931;0.057828;0.997816;,
  -0.079972;0.450776;0.889047;,
  -0.393914;0.374644;0.839329;,
  -0.895497;0.409178;0.175094;,
  0.901826;0.387670;0.190847;,
  -0.978629;0.204311;0.023307;,
  0.318293;0.897558;-0.305090;,
  0.004366;0.050570;-0.998711;,
  -0.123127;0.104234;-0.986902;,
  0.322833;0.830576;-0.453786;,
  -0.506544;0.355648;-0.785448;,
  0.823162;0.406686;0.396246;,
  -0.851988;0.348957;0.390315;,
  0.977964;0.173159;0.116629;,
  -0.218843;0.863076;0.455201;,
  -0.752264;0.508452;0.419017;,
  -0.236559;-0.273068;-0.932456;,
  0.536402;-0.530107;-0.656703;,
  -0.190845;-0.100418;-0.976470;,
  -0.621568;0.111368;-0.775403;,
  0.793535;-0.261930;-0.549267;,
  0.407748;0.276642;0.870179;,
  0.386058;0.171534;0.906386;,
  0.212573;0.227572;0.950276;,
  0.424207;0.378200;0.822808;,
  -0.044358;0.022466;0.998763;,
  -0.016859;0.057890;0.998181;,
  -0.226987;0.607153;-0.761473;,
  0.968537;0.064332;-0.240409;,
  0.226986;-0.607157;0.761471;,
  -0.945651;-0.056920;0.320162;,
  0.945651;0.056921;-0.320161;,
  0.226987;0.607153;-0.761473;,
  -0.968537;0.064332;-0.240409;,
  -0.226986;-0.607157;0.761471;,
  0.945651;-0.056920;0.320162;,
  -0.945651;0.056921;-0.320161;,
  -0.021109;-0.994250;-0.104987;,
  0.255950;0.312624;-0.914744;,
  -0.227004;-0.558093;0.798124;,
  0.025452;-0.990042;0.138456;,
  0.136885;-0.847923;0.512142;,
  -0.257189;0.312600;-0.914404;,
  0.222840;-0.568965;0.791594;,
  0.000000;0.802074;-0.597225;,
  0.000000;0.463620;-0.886034;,
  0.398287;0.425260;-0.812724;,
  0.000000;0.463621;0.886034;,
  -0.398289;0.425261;0.812724;,
  0.000000;-0.463620;-0.886034;,
  0.398287;-0.425260;-0.812724;,
  0.000000;-0.463621;0.886034;,
  -0.398289;-0.425261;0.812724;,
  0.000000;-0.802074;-0.597225;,
  -0.968539;-0.064332;0.240402;,
  0.086053;0.915135;0.393855;,
  -0.086057;-0.915134;-0.393859;,
  0.968539;-0.064332;0.240402;,
  -0.086053;0.915135;0.393855;,
  0.086057;-0.915134;-0.393859;,
  0.409232;-0.905461;0.112558;,
  0.132943;-0.839224;0.527284;,
  -0.446375;-0.844018;-0.297293;,
  0.237169;0.312942;-0.919684;,
  0.274634;0.312188;-0.909458;,
  -0.176943;-0.560899;0.808754;,
  -0.276469;-0.553820;0.785397;,
  -0.105052;0.921791;0.373183;,
  -0.105051;0.921791;0.373184;,
  -0.105054;0.921791;0.373183;,
  0.225337;-0.973559;0.037491;,
  0.247931;-0.853328;0.458651;,
  0.025639;-0.830018;0.557147;,
  -0.175717;-0.956606;0.232440;,
  -0.275763;0.312159;-0.909127;,
  -0.238519;0.312925;-0.919340;,
  0.222838;-0.568966;0.791594;,
  0.222841;-0.568965;0.791594;,
  0.105052;0.921791;0.373183;,
  0.105053;0.921791;0.373183;,
  0.105052;0.921791;0.373183;,
  0.000000;0.802075;0.597223;,
  0.398289;0.425261;0.812724;,
  -0.398287;0.425260;-0.812724;,
  0.398289;-0.425261;0.812724;,
  -0.398287;-0.425260;-0.812724;,
  0.000000;-0.802075;0.597223;;
  294;
  4;12,9,11,7;,
  4;9,14,5,11;,
  4;13,6,10,15;,
  4;13,15,8,0;,
  4;15,10,4,16;,
  4;15,16,2,8;,
  4;17,9,1,18;,
  4;25,26,0,8;,
  4;25,8,2,19;,
  4;17,27,3,9;,
  4;18,1,12,20;,
  4;26,28,13,0;,
  4;29,2,16,21;,
  4;27,30,14,3;,
  4;20,12,7,22;,
  4;28,31,6,13;,
  4;21,16,32,23;,
  4;21,23,5,14;,
  4;22,7,11,24;,
  4;33,34,10,6;,
  4;35,4,10,34;,
  4;36,24,11,5;,
  3;12,1,9;,
  3;9,3,14;,
  4;55,47,41,56;,
  4;55,56,39,45;,
  4;55,45,37,57;,
  4;55,57,43,47;,
  4;60,42,48,62;,
  4;60,62,46,40;,
  4;61,38,46,62;,
  4;61,62,48,44;,
  4;63,45,39,64;,
  4;63,65,37,45;,
  4;64,39,56,66;,
  4;65,67,57,37;,
  4;66,56,41,68;,
  4;67,69,43,57;,
  4;68,41,47,54;,
  4;69,54,47,43;,
  4;70,63,64,71;,
  4;70,71,50,49;,
  4;70,49,51,72;,
  4;70,72,65,63;,
  4;71,64,66,58;,
  4;72,59,67,65;,
  4;58,66,68,73;,
  4;59,74,69,67;,
  4;38,81,82,75;,
  4;38,76,59,81;,
  4;75,82,83,40;,
  4;76,61,44,77;,
  4;76,77,53,59;,
  4;40,83,58,78;,
  4;77,44,48,79;,
  4;77,79,84,85;,
  4;78,58,52,80;,
  4;78,80,42,60;,
  4;79,48,42,80;,
  4;79,80,86,84;,
  3;38,75,46;,
  3;38,61,76;,
  3;75,40,46;,
  3;40,78,60;,
  3;71,58,50;,
  3;72,51,59;,
  3;58,73,52;,
  3;59,53,74;,
  3;87,68,54;,
  3;87,54,86;,
  3;88,85,54;,
  3;88,54,69;,
  4;101,89,98,102;,
  4;102,98,91,104;,
  4;103,105,97,95;,
  4;105,106,93,97;,
  4;107,119,120,121;,
  4;122,123,124,108;,
  4;122,108,125,126;,
  4;121,120,127,109;,
  4;108,124,128,110;,
  4;108,110,129,125;,
  4;96,90,100,111;,
  4;94,94,99,99;,
  4;92,111,100,92;,
  4;112,130,131,113;,
  4;112,113,105,103;,
  4;112,103,132,114;,
  4;133,133,133,115;,
  4;113,115,106,105;,
  4;134,109,101,116;,
  4;134,116,90,96;,
  4;135,136,136,110;,
  4;116,101,102,117;,
  4;116,117,100,90;,
  4;110,92,92,118;,
  4;117,102,104,137;,
  4;117,137,138,100;,
  3;107,121,139;,
  3;121,132,103;,
  3;140,99,99;,
  3;112,114,130;,
  3;135,110,128;,
  3;110,118,129;,
  4;153,154,150,141;,
  4;154,156,143,150;,
  4;155,147,149,157;,
  4;157,149,145,158;,
  4;159,171,172,173;,
  4;174,160,175,176;,
  4;174,177,178,160;,
  4;171,161,179,172;,
  4;160,162,180,175;,
  4;160,178,181,162;,
  4;148,163,152,142;,
  4;146,151,151,146;,
  4;144,144,152,163;,
  4;164,165,182,183;,
  4;164,155,157,165;,
  4;164,166,184,155;,
  4;185,167,185,185;,
  4;165,157,158,167;,
  4;186,168,153,161;,
  4;186,148,142,168;,
  4;187,162,188,188;,
  4;168,169,154,153;,
  4;168,142,152,169;,
  4;162,170,144,144;,
  4;169,189,156,154;,
  4;169,152,190,189;,
  3;159,191,171;,
  3;171,155,184;,
  3;192,151,151;,
  3;164,183,166;,
  3;187,180,162;,
  3;162,181,170;,
  4;204,200,202,206;,
  4;205,207,203,201;,
  4;208,204,206,210;,
  4;209,211,207,205;,
  4;212,208,210,214;,
  4;212,214,198,193;,
  4;213,195,197,215;,
  4;213,215,211,209;,
  4;216,217,204,208;,
  4;216,208,212,218;,
  4;294,294,193,219;,
  4;219,193,198,221;,
  4;220,222,199,194;,
  4;295,296,297,223;,
  4;223,297,298,225;,
  4;224,226,299,300;,
  4;225,298,299,226;,
  4;227,228,217,216;,
  4;227,216,218,229;,
  4;229,218,219,231;,
  4;231,219,221,233;,
  4;232,232,222,220;,
  4;301,295,223,234;,
  4;234,223,225,236;,
  4;235,226,226,224;,
  4;236,225,226,226;,
  4;237,209,205,238;,
  4;237,238,228,227;,
  4;238,205,201,239;,
  4;238,239,230,228;,
  4;237,229,231,240;,
  4;237,240,195,213;,
  4;240,231,233,242;,
  4;240,242,197,195;,
  4;241,243,302,302;,
  4;303,301,234,244;,
  4;303,244,304,305;,
  4;244,234,236,236;,
  4;244,236,306,304;,
  4;245,307,308,226;,
  4;245,226,226,235;,
  4;236,236,226,226;,
  4;236,226,308,306;,
  3;217,309,309;,
  3;310,310,217;,
  3;237,227,311;,
  3;237,213,209;,
  4;246,217,230,247;,
  4;246,247,312,313;,
  4;314,220,194,248;,
  4;314,248,200,217;,
  4;247,230,239,249;,
  4;247,249,315,312;,
  4;248,194,199,250;,
  4;248,250,202,200;,
  4;249,239,201,251;,
  4;249,251,196,241;,
  4;316,317,318,252;,
  4;316,252,224,300;,
  4;251,201,203,253;,
  4;252,318,319,254;,
  4;252,254,235,224;,
  4;320,307,245,255;,
  4;253,255,243,321;,
  4;254,319,322,255;,
  4;254,255,245,235;,
  4;263,260,257,263;,
  4;263,263,259,259;,
  4;264,266,261,256;,
  4;265,265,262,262;,
  4;266,267,258,261;,
  4;262,262,323,268;,
  4;269,268,324,269;,
  4;269,269,257,270;,
  4;325,326,326,325;,
  4;327,327,327,327;,
  4;270,257,271,271;,
  4;326,328,328,326;,
  4;267,266,329,330;,
  4;331,332,329,266;,
  3;241,196,243;,
  3;251,253,196;,
  3;333,258,333;,
  3;334,334,334;,
  3;335,335,335;,
  3;327,327,327;,
  3;325,325,336;,
  3;331,266,264;,
  4;278,279,273,275;,
  4;278,259,259,279;,
  4;280,272,276,282;,
  4;281,277,277,337;,
  4;282,276,274,283;,
  4;277,284,338,277;,
  4;285,339,339,286;,
  4;340,281,340,287;,
  3;276,341,274;,
  3;342,272,342;,
  3;343,343,343;,
  3;292,292,292;,
  3;344,344,344;,
  3;345,280,282;,
  4;288,285,286,289;,
  4;346,347,273,279;,
  4;346,348,348,290;,
  4;346,290,284,349;,
  4;289,286,287,291;,
  4;347,350,275,273;,
  4;292,292,292,292;,
  4;292,292,292,292;,
  4;351,352,282,293;,
  4;351,293,353,354;,
  4;355,356,353,293;,
  4;355,293,282,283;,
  4;357,357,357,357;,
  4;358,358,358,358;,
  4;359,359,359,359;,
  4;384,384,384,384;,
  4;385,385,385,385;,
  4;386,386,386,386;,
  4;361,361,361,361;,
  4;360,360,360,360;,
  4;362,362,362,362;,
  4;363,363,363,363;,
  4;364,364,364,364;,
  4;387,387,387,387;,
  4;388,388,388,388;,
  4;389,389,389,389;,
  4;366,366,366,366;,
  4;365,365,365,365;,
  4;367,390,391,367;,
  4;367,367,392,392;,
  4;368,393,393,368;,
  4;368,368,394,394;,
  4;369,391,395,369;,
  4;369,369,396,396;,
  4;397,398,398,397;,
  4;397,397,399,399;,
  4;370,400,401,371;,
  4;370,371,402,403;,
  4;372,404,404,372;,
  4;372,372,405,405;,
  4;371,401,406,373;,
  4;371,373,407,402;,
  4;408,409,409,408;,
  4;408,408,410,410;,
  3;374,376,375;,
  3;411,377,412;,
  3;411,378,377;,
  3;374,375,413;,
  4;375,376,380,379;,
  4;412,377,381,414;,
  4;377,378,382,381;,
  4;413,375,379,415;,
  3;379,380,383;,
  3;414,381,416;,
  3;381,382,416;,
  3;415,379,383;;
 }
 MeshTextureCoords {
  644;
  0.000000;0.490870;,
  0.485480;0.490870;,
  0.485480;1.000000;,
  0.000000;1.000000;,
  1.000000;0.490870;,
  1.000000;1.000000;,
  0.000000;0.509130;,
  0.000000;0.000000;,
  0.485480;0.000000;,
  0.485480;0.509130;,
  0.485480;1.000000;,
  0.000000;1.000000;,
  1.000000;0.000000;,
  1.000000;0.509130;,
  1.000000;1.000000;,
  0.485480;0.585120;,
  0.485480;1.000000;,
  0.000000;1.000000;,
  0.000000;0.585120;,
  0.000000;0.000000;,
  0.485480;0.000000;,
  1.000000;0.000000;,
  1.000000;0.585120;,
  1.000000;1.000000;,
  1.000000;0.585120;,
  1.000000;1.000000;,
  0.509130;1.000000;,
  0.509130;0.585120;,
  0.509130;0.000000;,
  1.000000;0.000000;,
  0.000000;0.585120;,
  0.000000;0.000000;,
  0.490870;0.000000;,
  0.490870;0.585120;,
  0.490870;1.000000;,
  0.000000;1.000000;,
  0.000000;0.585120;,
  1.000000;0.585120;,
  1.000000;0.585120;,
  1.000000;1.000000;,
  0.514520;1.000000;,
  0.514520;0.585120;,
  0.514520;0.000000;,
  1.000000;0.000000;,
  0.000000;0.585120;,
  0.000000;0.000000;,
  0.000000;1.000000;,
  0.242740;0.490870;,
  0.242740;0.245440;,
  0.485480;0.000000;,
  0.485480;0.245440;,
  0.742740;0.000000;,
  0.492810;0.483770;,
  0.492810;0.000000;,
  1.000000;0.000000;,
  1.000000;0.483770;,
  1.000000;1.000000;,
  0.492810;1.000000;,
  0.000000;1.000000;,
  0.000000;0.483770;,
  0.000000;0.000000;,
  1.000000;0.516230;,
  1.000000;1.000000;,
  0.492810;1.000000;,
  0.492810;0.516230;,
  0.492810;0.000000;,
  1.000000;0.000000;,
  0.000000;0.516230;,
  0.000000;0.000000;,
  0.000000;1.000000;,
  0.492810;0.251990;,
  0.492810;0.000000;,
  1.000000;0.000000;,
  1.000000;0.251990;,
  0.000000;0.251990;,
  0.000000;0.000000;,
  0.000000;0.251990;,
  0.000000;0.000000;,
  0.516230;0.000000;,
  0.516230;0.251990;,
  1.000000;0.251990;,
  0.483770;0.251990;,
  0.483770;0.000000;,
  1.000000;0.000000;,
  1.000000;0.251990;,
  0.000000;0.251990;,
  0.000000;0.251990;,
  0.000000;0.000000;,
  0.507190;0.000000;,
  0.507190;0.251990;,
  1.000000;0.251990;,
  1.000000;0.000000;,
  0.492810;0.350470;,
  1.000000;0.350470;,
  1.000000;0.482400;,
  0.492810;0.482400;,
  0.000000;0.482400;,
  0.000000;0.350470;,
  0.000000;0.350470;,
  0.516230;0.350470;,
  1.000000;0.350470;,
  0.483770;0.350470;,
  1.000000;0.350470;,
  0.000000;0.350470;,
  0.000000;0.741560;,
  0.492810;0.741560;,
  1.000000;0.741560;,
  0.483770;0.741560;,
  0.483770;0.482400;,
  1.000000;0.482400;,
  1.000000;0.741560;,
  0.483770;1.000000;,
  0.000000;0.741560;,
  0.000000;0.482400;,
  0.000000;0.741560;,
  0.000000;0.482400;,
  0.516230;0.482400;,
  0.516230;0.741560;,
  1.000000;0.741560;,
  1.000000;1.000000;,
  0.507190;1.000000;,
  0.507190;0.741560;,
  0.507190;0.482400;,
  1.000000;0.482400;,
  1.000000;0.482400;,
  1.000000;0.741560;,
  0.516230;1.000000;,
  0.000000;1.000000;,
  0.000000;0.741560;,
  0.000000;0.482400;,
  0.000000;0.870780;,
  0.246410;0.870780;,
  0.492810;1.000000;,
  1.000000;0.870780;,
  0.741880;1.000000;,
  0.746410;0.741560;,
  1.000000;0.870780;,
  0.000000;0.870780;,
  0.258120;0.870780;,
  0.258120;0.350470;,
  0.516230;0.416430;,
  0.741880;0.350470;,
  0.741880;0.416430;,
  0.758120;0.416430;,
  0.483770;0.416430;,
  0.241880;0.482400;,
  0.253590;0.350470;,
  0.253590;0.301230;,
  0.507190;0.416430;,
  0.753590;0.350470;,
  0.753590;0.416430;,
  0.507190;0.301230;,
  0.000000;0.397140;,
  0.000000;0.000000;,
  0.494470;0.000000;,
  0.494470;0.397140;,
  1.000000;0.000000;,
  1.000000;0.397140;,
  1.000000;0.397140;,
  0.505530;0.397140;,
  0.505530;0.000000;,
  1.000000;0.000000;,
  0.000000;0.397140;,
  0.000000;0.000000;,
  0.494470;0.797460;,
  0.494470;1.000000;,
  0.000000;1.000000;,
  0.000000;0.797460;,
  0.494470;0.000000;,
  1.000000;0.000000;,
  1.000000;0.797460;,
  1.000000;1.000000;,
  0.797460;0.000000;,
  1.000000;0.000000;,
  1.000000;0.397140;,
  0.797460;0.397140;,
  0.202540;0.000000;,
  1.000000;0.397140;,
  0.202540;0.397140;,
  0.000000;0.397140;,
  0.000000;0.000000;,
  0.000000;0.202540;,
  0.000000;0.000000;,
  0.494470;0.000000;,
  0.494470;0.202540;,
  1.000000;0.202540;,
  1.000000;1.000000;,
  0.494470;1.000000;,
  1.000000;0.000000;,
  1.000000;0.588090;,
  1.000000;1.000000;,
  0.505530;1.000000;,
  0.505530;0.588090;,
  0.000000;0.588090;,
  0.000000;0.397140;,
  0.797460;0.588090;,
  0.000000;1.000000;,
  0.000000;0.588090;,
  1.000000;0.588090;,
  1.000000;1.000000;,
  0.797460;1.000000;,
  1.000000;0.588090;,
  0.202540;1.000000;,
  0.202540;0.588090;,
  0.000000;0.588090;,
  0.494470;0.588090;,
  0.494470;1.000000;,
  0.000000;1.000000;,
  0.000000;1.000000;,
  0.000000;0.588090;,
  1.000000;0.588090;,
  1.000000;1.000000;,
  0.247240;0.797460;,
  0.000000;0.398730;,
  0.398730;0.000000;,
  0.398730;0.198570;,
  0.000000;0.601270;,
  0.247240;0.601270;,
  0.000000;0.794040;,
  0.398730;0.794040;,
  0.601270;0.588090;,
  0.202540;0.492610;,
  0.101270;0.492610;,
  0.000000;0.397140;,
  0.494470;0.397140;,
  0.494470;0.000000;,
  0.000000;0.000000;,
  1.000000;0.397140;,
  1.000000;0.000000;,
  1.000000;0.397140;,
  1.000000;0.000000;,
  0.505530;0.000000;,
  0.505530;0.397140;,
  0.000000;0.000000;,
  0.000000;0.397140;,
  0.494470;0.797460;,
  0.000000;0.797460;,
  0.000000;1.000000;,
  0.494470;1.000000;,
  1.000000;0.797460;,
  1.000000;0.000000;,
  0.494470;0.000000;,
  1.000000;1.000000;,
  0.797460;0.000000;,
  0.797460;0.397140;,
  1.000000;0.397140;,
  1.000000;0.000000;,
  0.202540;0.000000;,
  0.202540;0.397140;,
  1.000000;0.397140;,
  0.000000;0.000000;,
  0.000000;0.397140;,
  0.000000;0.202540;,
  0.494470;0.202540;,
  0.494470;0.000000;,
  0.000000;0.000000;,
  1.000000;0.202540;,
  0.494470;1.000000;,
  1.000000;1.000000;,
  1.000000;0.000000;,
  1.000000;0.588090;,
  0.505530;0.588090;,
  0.505530;1.000000;,
  1.000000;1.000000;,
  0.000000;0.588090;,
  0.797460;0.588090;,
  0.000000;0.397140;,
  0.000000;0.588090;,
  0.000000;1.000000;,
  1.000000;0.588090;,
  0.797460;1.000000;,
  1.000000;1.000000;,
  1.000000;0.588090;,
  0.202540;0.588090;,
  0.202540;1.000000;,
  0.000000;0.588090;,
  0.494470;0.588090;,
  0.000000;1.000000;,
  0.494470;1.000000;,
  0.000000;0.588090;,
  0.000000;1.000000;,
  1.000000;0.588090;,
  1.000000;1.000000;,
  0.247240;0.797460;,
  0.000000;0.398730;,
  0.398730;0.000000;,
  0.398730;0.198570;,
  0.000000;0.601270;,
  0.247240;0.601270;,
  0.000000;0.794040;,
  0.398730;0.794040;,
  0.601270;0.588090;,
  0.202540;0.492610;,
  0.101270;0.492610;,
  1.000000;0.526820;,
  1.000000;0.761260;,
  0.000000;0.761260;,
  0.000000;0.526820;,
  0.000000;0.526820;,
  1.000000;0.526820;,
  1.000000;0.761260;,
  0.000000;0.761260;,
  1.000000;0.309670;,
  0.000000;0.309670;,
  0.000000;0.309670;,
  1.000000;0.309670;,
  1.000000;0.137360;,
  0.000000;0.137360;,
  0.000000;0.000000;,
  1.000000;0.000000;,
  0.000000;0.137360;,
  0.000000;0.000000;,
  1.000000;0.000000;,
  1.000000;0.137360;,
  0.206150;0.309670;,
  0.206150;0.526820;,
  0.000000;0.526820;,
  0.000000;0.309670;,
  0.000000;0.137360;,
  0.206150;0.137360;,
  0.000000;0.000000;,
  0.206150;0.000000;,
  0.206150;1.000000;,
  0.000000;1.000000;,
  0.206150;0.000000;,
  0.206150;0.000000;,
  0.206150;1.000000;,
  0.000000;1.000000;,
  0.000000;0.000000;,
  0.793850;0.000000;,
  1.000000;0.000000;,
  1.000000;0.137360;,
  0.793850;0.137360;,
  1.000000;0.309670;,
  0.793850;0.309670;,
  0.793850;0.761260;,
  0.793850;0.526820;,
  1.000000;0.526820;,
  1.000000;0.761260;,
  0.487080;0.309670;,
  0.487080;0.526820;,
  0.487080;0.137360;,
  0.487080;0.000000;,
  0.487080;1.000000;,
  0.487080;0.000000;,
  0.487080;0.000000;,
  0.487080;1.000000;,
  0.512920;0.000000;,
  0.512920;0.137360;,
  0.512920;0.309670;,
  0.512920;0.761260;,
  0.512920;0.526820;,
  0.770860;0.309670;,
  1.000000;0.309670;,
  1.000000;0.526820;,
  0.770860;0.526820;,
  1.000000;0.761260;,
  0.770860;0.761260;,
  0.487080;0.761260;,
  0.770860;0.137360;,
  0.770860;0.000000;,
  1.000000;0.000000;,
  1.000000;0.137360;,
  0.770860;1.000000;,
  0.770860;0.000000;,
  1.000000;1.000000;,
  0.770860;0.000000;,
  0.770860;1.000000;,
  0.229140;0.000000;,
  0.229140;0.137360;,
  0.000000;0.137360;,
  0.000000;0.000000;,
  0.229140;0.309670;,
  0.000000;0.309670;,
  0.229140;0.761260;,
  0.000000;0.761260;,
  0.000000;0.526820;,
  0.229140;0.526820;,
  0.206150;0.644040;,
  0.103080;0.761260;,
  0.346610;0.526820;,
  0.346610;0.644040;,
  0.206150;0.761260;,
  0.770860;0.223510;,
  0.628970;0.223510;,
  0.885430;0.137360;,
  0.206150;0.898350;,
  0.487080;0.898350;,
  0.487080;1.000000;,
  0.206150;1.000000;,
  0.000000;1.000000;,
  0.000000;0.898350;,
  0.000000;0.761260;,
  0.770860;0.898350;,
  0.770860;1.000000;,
  1.000000;0.898350;,
  1.000000;1.000000;,
  0.000000;0.898350;,
  1.000000;0.898350;,
  1.000000;1.000000;,
  1.000000;0.898350;,
  1.000000;1.000000;,
  0.793850;1.000000;,
  0.793850;0.898350;,
  0.000000;0.898350;,
  1.000000;0.898350;,
  0.512920;1.000000;,
  0.512920;0.898350;,
  0.000000;0.898350;,
  0.229140;0.898350;,
  0.229140;1.000000;,
  0.000000;1.000000;,
  0.534680;1.000000;,
  0.000000;1.000000;,
  0.000000;0.000000;,
  0.534680;0.000000;,
  1.000000;0.000000;,
  1.000000;1.000000;,
  1.000000;0.693890;,
  0.465320;0.693890;,
  0.465320;0.000000;,
  1.000000;0.000000;,
  0.000000;0.693890;,
  0.000000;0.000000;,
  0.534680;0.000000;,
  0.534680;0.693890;,
  0.000000;0.693890;,
  0.000000;0.000000;,
  1.000000;0.000000;,
  1.000000;0.693890;,
  0.534680;0.776570;,
  1.000000;0.776570;,
  1.000000;1.000000;,
  0.534680;1.000000;,
  0.000000;1.000000;,
  0.000000;0.776570;,
  0.000000;0.776570;,
  1.000000;0.776570;,
  0.000000;1.000000;,
  1.000000;0.776570;,
  1.000000;1.000000;,
  0.000000;0.776570;,
  0.000000;0.693890;,
  1.000000;0.693890;,
  0.000000;0.776570;,
  0.465320;0.776570;,
  0.465320;1.000000;,
  0.000000;1.000000;,
  1.000000;0.776570;,
  1.000000;1.000000;,
  0.885430;0.000000;,
  1.000000;0.500000;,
  0.000000;0.949170;,
  0.500000;0.949170;,
  0.767340;0.000000;,
  1.000000;0.500000;,
  0.534680;1.000000;,
  0.267340;0.000000;,
  0.267340;0.500000;,
  0.000000;1.000000;,
  0.000000;0.346950;,
  0.500000;0.000000;,
  1.000000;0.346950;,
  0.500000;0.346950;,
  0.767340;0.776570;,
  0.767340;0.735230;,
  0.732660;0.776570;,
  0.465320;0.735230;,
  0.534680;1.000000;,
  0.534680;0.000000;,
  0.000000;0.000000;,
  0.000000;1.000000;,
  1.000000;1.000000;,
  1.000000;0.000000;,
  1.000000;0.693890;,
  1.000000;0.000000;,
  0.465320;0.000000;,
  0.465320;0.693890;,
  0.000000;0.693890;,
  0.534680;0.693890;,
  0.534680;0.000000;,
  0.000000;0.000000;,
  0.000000;0.000000;,
  0.000000;0.693890;,
  1.000000;0.693890;,
  1.000000;0.000000;,
  0.534680;0.776570;,
  0.000000;0.776570;,
  1.000000;0.776570;,
  1.000000;0.693890;,
  0.000000;0.693890;,
  0.000000;0.776570;,
  0.767340;0.000000;,
  0.534680;1.000000;,
  1.000000;0.500000;,
  0.267340;0.000000;,
  0.000000;1.000000;,
  0.267340;0.500000;,
  0.000000;0.346950;,
  0.500000;0.000000;,
  1.000000;0.346950;,
  0.500000;0.346950;,
  0.767340;0.776570;,
  0.767340;0.735230;,
  0.732660;0.776570;,
  0.465320;0.735230;,
  0.534680;0.845360;,
  0.000000;0.845360;,
  0.000000;1.000000;,
  0.534680;1.000000;,
  1.000000;1.000000;,
  1.000000;0.845360;,
  1.000000;0.776570;,
  1.000000;0.845360;,
  0.000000;0.845360;,
  1.000000;1.000000;,
  0.000000;0.845360;,
  0.000000;1.000000;,
  1.000000;0.845360;,
  1.000000;0.776570;,
  0.000000;0.776570;,
  1.000000;0.845360;,
  1.000000;0.776570;,
  0.465320;0.776570;,
  0.465320;0.845360;,
  0.465320;1.000000;,
  1.000000;1.000000;,
  0.000000;0.845360;,
  0.000000;1.000000;,
  0.000000;0.776570;,
  0.000000;0.000000;,
  1.000000;0.000000;,
  1.000000;1.000000;,
  0.000000;1.000000;,
  0.000000;0.000000;,
  1.000000;0.000000;,
  1.000000;1.000000;,
  0.000000;1.000000;,
  0.000000;0.000000;,
  1.000000;0.000000;,
  1.000000;1.000000;,
  0.000000;1.000000;,
  0.000000;0.000000;,
  1.000000;0.000000;,
  1.000000;1.000000;,
  0.000000;1.000000;,
  1.000000;1.000000;,
  0.000000;1.000000;,
  0.000000;0.000000;,
  1.000000;0.000000;,
  0.000000;0.000000;,
  1.000000;0.000000;,
  1.000000;1.000000;,
  0.000000;1.000000;,
  0.000000;0.000000;,
  1.000000;0.000000;,
  1.000000;1.000000;,
  0.000000;1.000000;,
  0.000000;0.000000;,
  0.000000;1.000000;,
  1.000000;1.000000;,
  1.000000;0.000000;,
  0.000000;0.000000;,
  0.000000;1.000000;,
  1.000000;1.000000;,
  1.000000;0.000000;,
  0.000000;0.000000;,
  0.000000;1.000000;,
  1.000000;1.000000;,
  1.000000;0.000000;,
  0.000000;0.000000;,
  0.000000;1.000000;,
  1.000000;1.000000;,
  1.000000;0.000000;,
  0.000000;1.000000;,
  1.000000;1.000000;,
  0.000000;0.000000;,
  1.000000;0.000000;,
  0.000000;0.000000;,
  0.000000;1.000000;,
  1.000000;1.000000;,
  1.000000;0.000000;,
  0.000000;0.000000;,
  0.000000;1.000000;,
  1.000000;1.000000;,
  1.000000;0.000000;,
  0.514580;0.000000;,
  0.000000;0.000000;,
  0.514580;1.000000;,
  1.000000;0.000000;,
  0.514580;1.000000;,
  1.000000;1.000000;,
  1.000000;0.000000;,
  0.514580;0.000000;,
  0.000000;0.000000;,
  0.000000;1.000000;,
  0.485420;1.000000;,
  1.000000;1.000000;,
  1.000000;0.000000;,
  0.485420;0.000000;,
  0.000000;0.000000;,
  0.000000;1.000000;,
  0.514580;1.000000;,
  1.000000;1.000000;,
  0.514580;0.000000;,
  0.000000;1.000000;,
  0.481500;0.000000;,
  1.000000;0.000000;,
  0.481500;1.000000;,
  0.000000;0.000000;,
  0.481500;1.000000;,
  0.000000;1.000000;,
  0.000000;0.000000;,
  0.481500;0.000000;,
  1.000000;0.000000;,
  1.000000;1.000000;,
  0.518500;1.000000;,
  0.000000;1.000000;,
  0.000000;0.000000;,
  0.518500;0.000000;,
  1.000000;0.000000;,
  1.000000;1.000000;,
  0.481500;1.000000;,
  0.000000;1.000000;,
  0.481500;0.000000;,
  1.000000;1.000000;,
  0.125000;0.000000;,
  0.250000;0.333330;,
  0.000000;0.333330;,
  0.375000;0.000000;,
  0.500000;0.333330;,
  0.625000;0.000000;,
  0.750000;0.333330;,
  0.875000;0.000000;,
  1.000000;0.333330;,
  0.250000;0.666670;,
  0.000000;0.666670;,
  0.500000;0.666670;,
  0.750000;0.666670;,
  1.000000;0.666670;,
  0.125000;1.000000;,
  0.375000;1.000000;,
  0.625000;1.000000;,
  0.875000;1.000000;;
 }
}
