xof 0302txt 0064
template Header {
 <3D82AB43-62DA-11cf-AB39-0020AF71E433>
 WORD major;
 WORD minor;
 DWORD flags;
}

template Vector {
 <3D82AB5E-62DA-11cf-AB39-0020AF71E433>
 FLOAT x;
 FLOAT y;
 FLOAT z;
}

template Coords2d {
 <F6F23F44-7686-11cf-8F52-0040333594A3>
 FLOAT u;
 FLOAT v;
}

template Matrix4x4 {
 <F6F23F45-7686-11cf-8F52-0040333594A3>
 array FLOAT matrix[16];
}

template ColorRGBA {
 <35FF44E0-6C7C-11cf-8F52-0040333594A3>
 FLOAT red;
 FLOAT green;
 FLOAT blue;
 FLOAT alpha;
}

template ColorRGB {
 <D3E16E81-7835-11cf-8F52-0040333594A3>
 FLOAT red;
 FLOAT green;
 FLOAT blue;
}

template IndexedColor {
 <1630B820-7842-11cf-8F52-0040333594A3>
 DWORD index;
 ColorRGBA indexColor;
}

template Boolean {
 <4885AE61-78E8-11cf-8F52-0040333594A3>
 WORD truefalse;
}

template Boolean2d {
 <4885AE63-78E8-11cf-8F52-0040333594A3>
 Boolean u;
 Boolean v;
}

template MaterialWrap {
 <4885AE60-78E8-11cf-8F52-0040333594A3>
 Boolean u;
 Boolean v;
}

template TextureFilename {
 <A42790E1-7810-11cf-8F52-0040333594A3>
 STRING filename;
}

template Material {
 <3D82AB4D-62DA-11cf-AB39-0020AF71E433>
 ColorRGBA faceColor;
 FLOAT power;
 ColorRGB specularColor;
 ColorRGB emissiveColor;
 [...]
}

template MeshFace {
 <3D82AB5F-62DA-11cf-AB39-0020AF71E433>
 DWORD nFaceVertexIndices;
 array DWORD faceVertexIndices[nFaceVertexIndices];
}

template MeshFaceWraps {
 <4885AE62-78E8-11cf-8F52-0040333594A3>
 DWORD nFaceWrapValues;
 Boolean2d faceWrapValues;
}

template MeshTextureCoords {
 <F6F23F40-7686-11cf-8F52-0040333594A3>
 DWORD nTextureCoords;
 array Coords2d textureCoords[nTextureCoords];
}

template MeshMaterialList {
 <F6F23F42-7686-11cf-8F52-0040333594A3>
 DWORD nMaterials;
 DWORD nFaceIndexes;
 array DWORD faceIndexes[nFaceIndexes];
 [Material]
}

template MeshNormals {
 <F6F23F43-7686-11cf-8F52-0040333594A3>
 DWORD nNormals;
 array Vector normals[nNormals];
 DWORD nFaceNormals;
 array MeshFace faceNormals[nFaceNormals];
}

template MeshVertexColors {
 <1630B821-7842-11cf-8F52-0040333594A3>
 DWORD nVertexColors;
 array IndexedColor vertexColors[nVertexColors];
}

template Mesh {
 <3D82AB44-62DA-11cf-AB39-0020AF71E433>
 DWORD nVertices;
 array Vector vertices[nVertices];
 DWORD nFaces;
 array MeshFace faces[nFaces];
 [...]
}

Header{
1;
0;
1;
}

Mesh {
 406;
 40.00000;5.67000;0.00000;,
 41.46445;9.20555;0.00000;,
 29.31980;9.20555;-29.31980;,
 28.28425;5.67000;-28.28425;,
 45.00000;10.67000;0.00000;,
 31.81980;10.67000;-31.81980;,
 48.53555;9.20555;0.00000;,
 34.31980;9.20555;-34.31980;,
 50.00000;5.67000;0.00000;,
 35.35535;5.67000;-35.35535;,
 48.53555;2.13445;0.00000;,
 34.31980;2.13445;-34.31980;,
 45.00000;0.67000;0.00000;,
 31.81980;0.67000;-31.81980;,
 41.46445;2.13445;0.00000;,
 29.31980;2.13445;-29.31980;,
 40.00000;5.67000;0.00000;,
 28.28425;5.67000;-28.28425;,
 0.00000;9.20555;-41.46445;,
 0.00000;5.67000;-40.00000;,
 0.00000;10.67000;-45.00000;,
 0.00000;9.20555;-48.53555;,
 0.00000;5.67000;-50.00000;,
 0.00000;2.13445;-48.53555;,
 0.00000;0.67000;-45.00000;,
 0.00000;2.13445;-41.46445;,
 0.00000;5.67000;-40.00000;,
 -29.31980;9.20555;-29.31980;,
 -28.28425;5.67000;-28.28425;,
 -31.81980;10.67000;-31.81980;,
 -34.31980;9.20555;-34.31980;,
 -35.35535;5.67000;-35.35535;,
 -34.31980;2.13445;-34.31980;,
 -31.81980;0.67000;-31.81980;,
 -29.31980;2.13445;-29.31980;,
 -28.28425;5.67000;-28.28425;,
 -41.46445;9.20555;0.00000;,
 -40.00000;5.67000;0.00000;,
 -45.00000;10.67000;0.00000;,
 -48.53555;9.20555;0.00000;,
 -50.00000;5.67000;0.00000;,
 -48.53555;2.13445;0.00000;,
 -45.00000;0.67000;0.00000;,
 -41.46445;2.13445;0.00000;,
 -40.00000;5.67000;0.00000;,
 -29.31980;9.20555;29.31980;,
 -28.28425;5.67000;28.28430;,
 -31.81980;10.67000;31.81980;,
 -34.31980;9.20555;34.31980;,
 -35.35535;5.67000;35.35535;,
 -34.31980;2.13445;34.31980;,
 -31.81980;0.67000;31.81980;,
 -29.31980;2.13445;29.31980;,
 -28.28425;5.67000;28.28430;,
 0.00000;9.20555;41.46445;,
 0.00000;5.67000;40.00000;,
 0.00000;10.67000;45.00000;,
 0.00000;9.20555;48.53555;,
 0.00000;5.67000;50.00000;,
 0.00000;2.13445;48.53555;,
 0.00000;0.67000;45.00000;,
 0.00000;2.13445;41.46445;,
 0.00000;5.67000;40.00000;,
 29.31980;9.20555;29.31980;,
 28.28425;5.67000;28.28430;,
 31.81980;10.67000;31.81980;,
 34.31980;9.20555;34.31980;,
 35.35535;5.67000;35.35535;,
 34.31980;2.13445;34.31980;,
 31.81980;0.67000;31.81980;,
 29.31980;2.13445;29.31980;,
 28.28425;5.67000;28.28430;,
 41.46445;9.20555;0.00000;,
 40.00000;5.67000;0.00000;,
 45.00000;10.67000;0.00000;,
 48.53555;9.20555;0.00000;,
 50.00000;5.67000;0.00000;,
 48.53555;2.13445;0.00000;,
 45.00000;0.67000;0.00000;,
 41.46445;2.13445;0.00000;,
 40.00000;5.67000;0.00000;,
 40.00000;19.86000;0.00000;,
 41.46445;23.39555;0.00000;,
 29.31980;23.39555;-29.31980;,
 28.28425;19.86000;-28.28425;,
 45.00000;24.86000;0.00000;,
 31.81980;24.86000;-31.81980;,
 48.53555;23.39555;0.00000;,
 34.31980;23.39555;-34.31980;,
 50.00000;19.86000;0.00000;,
 35.35535;19.86000;-35.35535;,
 48.53555;16.32445;0.00000;,
 34.31980;16.32445;-34.31980;,
 45.00000;14.86000;0.00000;,
 31.81980;14.86000;-31.81980;,
 41.46445;16.32445;0.00000;,
 29.31980;16.32445;-29.31980;,
 40.00000;19.86000;0.00000;,
 28.28425;19.86000;-28.28425;,
 0.00000;23.39555;-41.46445;,
 0.00000;19.86000;-40.00000;,
 0.00000;24.86000;-45.00000;,
 0.00000;23.39555;-48.53555;,
 0.00000;19.86000;-50.00000;,
 0.00000;16.32445;-48.53555;,
 0.00000;14.86000;-45.00000;,
 0.00000;16.32445;-41.46445;,
 0.00000;19.86000;-40.00000;,
 -29.31980;23.39555;-29.31980;,
 -28.28425;19.86000;-28.28425;,
 -31.81980;24.86000;-31.81980;,
 -34.31980;23.39555;-34.31980;,
 -35.35535;19.86000;-35.35535;,
 -34.31980;16.32445;-34.31980;,
 -31.81980;14.86000;-31.81980;,
 -29.31980;16.32445;-29.31980;,
 -28.28425;19.86000;-28.28425;,
 -41.46445;23.39555;0.00000;,
 -40.00000;19.86000;0.00000;,
 -45.00000;24.86000;0.00000;,
 -48.53555;23.39555;0.00000;,
 -50.00000;19.86000;0.00000;,
 -48.53555;16.32445;0.00000;,
 -45.00000;14.86000;0.00000;,
 -41.46445;16.32445;0.00000;,
 -40.00000;19.86000;0.00000;,
 -29.31980;23.39555;29.31980;,
 -28.28425;19.86000;28.28430;,
 -31.81980;24.86000;31.81980;,
 -34.31980;23.39555;34.31980;,
 -35.35535;19.86000;35.35535;,
 -34.31980;16.32445;34.31980;,
 -31.81980;14.86000;31.81980;,
 -29.31980;16.32445;29.31980;,
 -28.28425;19.86000;28.28430;,
 0.00000;23.39555;41.46445;,
 0.00000;19.86000;40.00000;,
 0.00000;24.86000;45.00000;,
 0.00000;23.39555;48.53555;,
 0.00000;19.86000;50.00000;,
 0.00000;16.32445;48.53555;,
 0.00000;14.86000;45.00000;,
 0.00000;16.32445;41.46445;,
 0.00000;19.86000;40.00000;,
 29.31980;23.39555;29.31980;,
 28.28425;19.86000;28.28430;,
 31.81980;24.86000;31.81980;,
 34.31980;23.39555;34.31980;,
 35.35535;19.86000;35.35535;,
 34.31980;16.32445;34.31980;,
 31.81980;14.86000;31.81980;,
 29.31980;16.32445;29.31980;,
 28.28425;19.86000;28.28430;,
 41.46445;23.39555;0.00000;,
 40.00000;19.86000;0.00000;,
 45.00000;24.86000;0.00000;,
 48.53555;23.39555;0.00000;,
 50.00000;19.86000;0.00000;,
 48.53555;16.32445;0.00000;,
 45.00000;14.86000;0.00000;,
 41.46445;16.32445;0.00000;,
 40.00000;19.86000;0.00000;,
 0.00000;70.38195;0.00000;,
 38.92000;70.38195;-38.34200;,
 0.00000;70.38195;-54.22380;,
 55.04115;70.38195;0.00000;,
 38.92000;70.38195;38.34200;,
 0.00000;70.38195;54.22380;,
 -38.92005;70.38195;38.34200;,
 -55.04115;70.38195;0.00000;,
 -38.92000;70.38195;-38.34200;,
 42.64355;70.23220;-42.01020;,
 0.00000;70.23220;-59.41145;,
 60.30705;70.23220;0.00000;,
 42.64350;70.23220;42.01020;,
 0.00000;70.23220;59.41145;,
 -42.64355;70.23220;42.01020;,
 -60.30705;70.23220;0.00000;,
 -42.64355;70.23220;-42.01020;,
 45.80015;69.80570;-45.12000;,
 0.00000;69.80570;-63.80925;,
 64.77115;69.80570;0.00000;,
 45.80015;69.80570;45.12000;,
 0.00000;69.80570;63.80925;,
 -45.80015;69.80570;45.12000;,
 -64.77115;69.80570;0.00000;,
 -45.80015;69.80570;-45.12000;,
 47.90930;69.16750;-47.19785;,
 0.00000;69.16750;-66.74785;,
 67.75405;69.16750;0.00000;,
 47.90930;69.16750;47.19785;,
 0.00000;69.16750;66.74785;,
 -47.90935;69.16750;47.19785;,
 -67.75405;69.16750;0.00000;,
 -47.90935;69.16750;-47.19785;,
 48.65000;68.41470;-47.92750;,
 0.00000;68.41470;-67.77970;,
 68.80150;68.41470;0.00000;,
 48.65000;68.41470;47.92750;,
 0.00000;68.41470;67.77970;,
 -48.65000;68.41470;47.92750;,
 -68.80150;68.41470;0.00000;,
 -48.65000;68.41470;-47.92750;,
 48.65000;52.67645;-47.92750;,
 0.00000;52.67645;-67.77970;,
 68.80150;52.67645;0.00000;,
 48.65000;52.67645;47.92750;,
 0.00000;52.67645;67.77970;,
 -48.65000;52.67645;47.92750;,
 -68.80150;52.67645;0.00000;,
 -48.65000;52.67645;-47.92750;,
 47.90930;51.92365;-47.19785;,
 0.00000;51.92365;-66.74785;,
 67.75405;51.92365;0.00000;,
 47.90930;51.92365;47.19785;,
 0.00000;51.92365;66.74785;,
 -47.90935;51.92365;47.19785;,
 -67.75405;51.92365;0.00000;,
 -47.90935;51.92365;-47.19785;,
 45.80015;51.28540;-45.12000;,
 0.00000;51.28540;-63.80925;,
 64.77115;51.28540;0.00000;,
 45.80015;51.28540;45.12000;,
 0.00000;51.28540;63.80925;,
 -45.80015;51.28540;45.12000;,
 -64.77115;51.28540;0.00000;,
 -45.80015;51.28540;-45.12000;,
 42.64355;50.85895;-42.01020;,
 0.00000;50.85895;-59.41145;,
 60.30705;50.85895;0.00000;,
 42.64350;50.85895;42.01020;,
 0.00000;50.85895;59.41145;,
 -42.64355;50.85895;42.01020;,
 -60.30705;50.85895;0.00000;,
 -42.64355;50.85895;-42.01020;,
 38.92000;50.70920;-38.34200;,
 0.00000;50.70920;-54.22380;,
 55.04115;50.70920;0.00000;,
 38.92000;50.70920;38.34200;,
 0.00000;50.70920;54.22380;,
 -38.92005;50.70920;38.34200;,
 -55.04115;50.70920;0.00000;,
 -38.92000;50.70920;-38.34200;,
 0.00000;50.70920;0.00000;,
 40.00000;30.48540;0.00000;,
 41.46445;34.02095;0.00000;,
 29.31980;34.02095;-29.31980;,
 28.28425;30.48540;-28.28425;,
 45.00000;35.48540;0.00000;,
 31.81980;35.48540;-31.81980;,
 48.53555;34.02095;0.00000;,
 34.31980;34.02095;-34.31980;,
 50.00000;30.48540;0.00000;,
 35.35535;30.48540;-35.35535;,
 48.53555;26.94985;0.00000;,
 34.31980;26.94985;-34.31980;,
 45.00000;25.48540;0.00000;,
 31.81980;25.48540;-31.81980;,
 41.46445;26.94985;0.00000;,
 29.31980;26.94985;-29.31980;,
 40.00000;30.48540;0.00000;,
 28.28425;30.48540;-28.28425;,
 0.00000;34.02095;-41.46445;,
 0.00000;30.48540;-40.00000;,
 0.00000;35.48540;-45.00000;,
 0.00000;34.02095;-48.53555;,
 0.00000;30.48540;-50.00000;,
 0.00000;26.94985;-48.53555;,
 0.00000;25.48540;-45.00000;,
 0.00000;26.94985;-41.46445;,
 0.00000;30.48540;-40.00000;,
 -29.31980;34.02095;-29.31980;,
 -28.28425;30.48540;-28.28425;,
 -31.81980;35.48540;-31.81980;,
 -34.31980;34.02095;-34.31980;,
 -35.35535;30.48540;-35.35535;,
 -34.31980;26.94985;-34.31980;,
 -31.81980;25.48540;-31.81980;,
 -29.31980;26.94985;-29.31980;,
 -28.28425;30.48540;-28.28425;,
 -41.46445;34.02095;0.00000;,
 -40.00000;30.48540;0.00000;,
 -45.00000;35.48540;0.00000;,
 -48.53555;34.02095;0.00000;,
 -50.00000;30.48540;0.00000;,
 -48.53555;26.94985;0.00000;,
 -45.00000;25.48540;0.00000;,
 -41.46445;26.94985;0.00000;,
 -40.00000;30.48540;0.00000;,
 -29.31980;34.02095;29.31980;,
 -28.28425;30.48540;28.28430;,
 -31.81980;35.48540;31.81980;,
 -34.31980;34.02095;34.31980;,
 -35.35535;30.48540;35.35535;,
 -34.31980;26.94985;34.31980;,
 -31.81980;25.48540;31.81980;,
 -29.31980;26.94985;29.31980;,
 -28.28425;30.48540;28.28430;,
 0.00000;34.02095;41.46445;,
 0.00000;30.48540;40.00000;,
 0.00000;35.48540;45.00000;,
 0.00000;34.02095;48.53555;,
 0.00000;30.48540;50.00000;,
 0.00000;26.94985;48.53555;,
 0.00000;25.48540;45.00000;,
 0.00000;26.94985;41.46445;,
 0.00000;30.48540;40.00000;,
 29.31980;34.02095;29.31980;,
 28.28425;30.48540;28.28430;,
 31.81980;35.48540;31.81980;,
 34.31980;34.02095;34.31980;,
 35.35535;30.48540;35.35535;,
 34.31980;26.94985;34.31980;,
 31.81980;25.48540;31.81980;,
 29.31980;26.94985;29.31980;,
 28.28425;30.48540;28.28430;,
 41.46445;34.02095;0.00000;,
 40.00000;30.48540;0.00000;,
 45.00000;35.48540;0.00000;,
 48.53555;34.02095;0.00000;,
 50.00000;30.48540;0.00000;,
 48.53555;26.94985;0.00000;,
 45.00000;25.48540;0.00000;,
 41.46445;26.94985;0.00000;,
 40.00000;30.48540;0.00000;,
 40.00000;44.67540;0.00000;,
 41.46445;48.21095;0.00000;,
 29.31980;48.21095;-29.31980;,
 28.28425;44.67540;-28.28425;,
 45.00000;49.67540;0.00000;,
 31.81980;49.67540;-31.81980;,
 48.53555;48.21095;0.00000;,
 34.31980;48.21095;-34.31980;,
 50.00000;44.67540;0.00000;,
 35.35535;44.67540;-35.35535;,
 48.53555;41.13985;0.00000;,
 34.31980;41.13985;-34.31980;,
 45.00000;39.67540;0.00000;,
 31.81980;39.67540;-31.81980;,
 41.46445;41.13985;0.00000;,
 29.31980;41.13985;-29.31980;,
 40.00000;44.67540;0.00000;,
 28.28425;44.67540;-28.28425;,
 0.00000;48.21095;-41.46445;,
 0.00000;44.67540;-40.00000;,
 0.00000;49.67540;-45.00000;,
 0.00000;48.21095;-48.53555;,
 0.00000;44.67540;-50.00000;,
 0.00000;41.13985;-48.53555;,
 0.00000;39.67540;-45.00000;,
 0.00000;41.13985;-41.46445;,
 0.00000;44.67540;-40.00000;,
 -29.31980;48.21095;-29.31980;,
 -28.28425;44.67540;-28.28425;,
 -31.81980;49.67540;-31.81980;,
 -34.31980;48.21095;-34.31980;,
 -35.35535;44.67540;-35.35535;,
 -34.31980;41.13985;-34.31980;,
 -31.81980;39.67540;-31.81980;,
 -29.31980;41.13985;-29.31980;,
 -28.28425;44.67540;-28.28425;,
 -41.46445;48.21095;0.00000;,
 -40.00000;44.67540;0.00000;,
 -45.00000;49.67540;0.00000;,
 -48.53555;48.21095;0.00000;,
 -50.00000;44.67540;0.00000;,
 -48.53555;41.13985;0.00000;,
 -45.00000;39.67540;0.00000;,
 -41.46445;41.13985;0.00000;,
 -40.00000;44.67540;0.00000;,
 -29.31980;48.21095;29.31980;,
 -28.28425;44.67540;28.28430;,
 -31.81980;49.67540;31.81980;,
 -34.31980;48.21095;34.31980;,
 -35.35535;44.67540;35.35535;,
 -34.31980;41.13985;34.31980;,
 -31.81980;39.67540;31.81980;,
 -29.31980;41.13985;29.31980;,
 -28.28425;44.67540;28.28430;,
 0.00000;48.21095;41.46445;,
 0.00000;44.67540;40.00000;,
 0.00000;49.67540;45.00000;,
 0.00000;48.21095;48.53555;,
 0.00000;44.67540;50.00000;,
 0.00000;41.13985;48.53555;,
 0.00000;39.67540;45.00000;,
 0.00000;41.13985;41.46445;,
 0.00000;44.67540;40.00000;,
 29.31980;48.21095;29.31980;,
 28.28425;44.67540;28.28430;,
 31.81980;49.67540;31.81980;,
 34.31980;48.21095;34.31980;,
 35.35535;44.67540;35.35535;,
 34.31980;41.13985;34.31980;,
 31.81980;39.67540;31.81980;,
 29.31980;41.13985;29.31980;,
 28.28425;44.67540;28.28430;,
 41.46445;48.21095;0.00000;,
 40.00000;44.67540;0.00000;,
 45.00000;49.67540;0.00000;,
 48.53555;48.21095;0.00000;,
 50.00000;44.67540;0.00000;,
 48.53555;41.13985;0.00000;,
 45.00000;39.67540;0.00000;,
 41.46445;41.13985;0.00000;,
 40.00000;44.67540;0.00000;;
 
 344;
 4;0,1,2,3;,
 4;1,4,5,2;,
 4;4,6,7,5;,
 4;6,8,9,7;,
 4;8,10,11,9;,
 4;10,12,13,11;,
 4;12,14,15,13;,
 4;14,16,17,15;,
 4;3,2,18,19;,
 4;2,5,20,18;,
 4;5,7,21,20;,
 4;7,9,22,21;,
 4;9,11,23,22;,
 4;11,13,24,23;,
 4;13,15,25,24;,
 4;15,17,26,25;,
 4;19,18,27,28;,
 4;18,20,29,27;,
 4;20,21,30,29;,
 4;21,22,31,30;,
 4;22,23,32,31;,
 4;23,24,33,32;,
 4;24,25,34,33;,
 4;25,26,35,34;,
 4;28,27,36,37;,
 4;27,29,38,36;,
 4;29,30,39,38;,
 4;30,31,40,39;,
 4;31,32,41,40;,
 4;32,33,42,41;,
 4;33,34,43,42;,
 4;34,35,44,43;,
 4;37,36,45,46;,
 4;36,38,47,45;,
 4;38,39,48,47;,
 4;39,40,49,48;,
 4;40,41,50,49;,
 4;41,42,51,50;,
 4;42,43,52,51;,
 4;43,44,53,52;,
 4;46,45,54,55;,
 4;45,47,56,54;,
 4;47,48,57,56;,
 4;48,49,58,57;,
 4;49,50,59,58;,
 4;50,51,60,59;,
 4;51,52,61,60;,
 4;52,53,62,61;,
 4;55,54,63,64;,
 4;54,56,65,63;,
 4;56,57,66,65;,
 4;57,58,67,66;,
 4;58,59,68,67;,
 4;59,60,69,68;,
 4;60,61,70,69;,
 4;61,62,71,70;,
 4;64,63,72,73;,
 4;63,65,74,72;,
 4;65,66,75,74;,
 4;66,67,76,75;,
 4;67,68,77,76;,
 4;68,69,78,77;,
 4;69,70,79,78;,
 4;70,71,80,79;,
 4;81,82,83,84;,
 4;82,85,86,83;,
 4;85,87,88,86;,
 4;87,89,90,88;,
 4;89,91,92,90;,
 4;91,93,94,92;,
 4;93,95,96,94;,
 4;95,97,98,96;,
 4;84,83,99,100;,
 4;83,86,101,99;,
 4;86,88,102,101;,
 4;88,90,103,102;,
 4;90,92,104,103;,
 4;92,94,105,104;,
 4;94,96,106,105;,
 4;96,98,107,106;,
 4;100,99,108,109;,
 4;99,101,110,108;,
 4;101,102,111,110;,
 4;102,103,112,111;,
 4;103,104,113,112;,
 4;104,105,114,113;,
 4;105,106,115,114;,
 4;106,107,116,115;,
 4;109,108,117,118;,
 4;108,110,119,117;,
 4;110,111,120,119;,
 4;111,112,121,120;,
 4;112,113,122,121;,
 4;113,114,123,122;,
 4;114,115,124,123;,
 4;115,116,125,124;,
 4;118,117,126,127;,
 4;117,119,128,126;,
 4;119,120,129,128;,
 4;120,121,130,129;,
 4;121,122,131,130;,
 4;122,123,132,131;,
 4;123,124,133,132;,
 4;124,125,134,133;,
 4;127,126,135,136;,
 4;126,128,137,135;,
 4;128,129,138,137;,
 4;129,130,139,138;,
 4;130,131,140,139;,
 4;131,132,141,140;,
 4;132,133,142,141;,
 4;133,134,143,142;,
 4;136,135,144,145;,
 4;135,137,146,144;,
 4;137,138,147,146;,
 4;138,139,148,147;,
 4;139,140,149,148;,
 4;140,141,150,149;,
 4;141,142,151,150;,
 4;142,143,152,151;,
 4;145,144,153,154;,
 4;144,146,155,153;,
 4;146,147,156,155;,
 4;147,148,157,156;,
 4;148,149,158,157;,
 4;149,150,159,158;,
 4;150,151,160,159;,
 4;151,152,161,160;,
 3;162,163,164;,
 3;162,165,163;,
 3;162,166,165;,
 3;162,167,166;,
 3;162,168,167;,
 3;162,169,168;,
 3;162,170,169;,
 3;162,164,170;,
 4;164,163,171,172;,
 4;163,165,173,171;,
 4;165,166,174,173;,
 4;166,167,175,174;,
 4;167,168,176,175;,
 4;168,169,177,176;,
 4;169,170,178,177;,
 4;170,164,172,178;,
 4;172,171,179,180;,
 4;171,173,181,179;,
 4;173,174,182,181;,
 4;174,175,183,182;,
 4;175,176,184,183;,
 4;176,177,185,184;,
 4;177,178,186,185;,
 4;178,172,180,186;,
 4;180,179,187,188;,
 4;179,181,189,187;,
 4;181,182,190,189;,
 4;182,183,191,190;,
 4;183,184,192,191;,
 4;184,185,193,192;,
 4;185,186,194,193;,
 4;186,180,188,194;,
 4;188,187,195,196;,
 4;187,189,197,195;,
 4;189,190,198,197;,
 4;190,191,199,198;,
 4;191,192,200,199;,
 4;192,193,201,200;,
 4;193,194,202,201;,
 4;194,188,196,202;,
 4;196,195,203,204;,
 4;195,197,205,203;,
 4;197,198,206,205;,
 4;198,199,207,206;,
 4;199,200,208,207;,
 4;200,201,209,208;,
 4;201,202,210,209;,
 4;202,196,204,210;,
 4;204,203,211,212;,
 4;203,205,213,211;,
 4;205,206,214,213;,
 4;206,207,215,214;,
 4;207,208,216,215;,
 4;208,209,217,216;,
 4;209,210,218,217;,
 4;210,204,212,218;,
 4;212,211,219,220;,
 4;211,213,221,219;,
 4;213,214,222,221;,
 4;214,215,223,222;,
 4;215,216,224,223;,
 4;216,217,225,224;,
 4;217,218,226,225;,
 4;218,212,220,226;,
 4;220,219,227,228;,
 4;219,221,229,227;,
 4;221,222,230,229;,
 4;222,223,231,230;,
 4;223,224,232,231;,
 4;224,225,233,232;,
 4;225,226,234,233;,
 4;226,220,228,234;,
 4;228,227,235,236;,
 4;227,229,237,235;,
 4;229,230,238,237;,
 4;230,231,239,238;,
 4;231,232,240,239;,
 4;232,233,241,240;,
 4;233,234,242,241;,
 4;234,228,236,242;,
 3;236,235,243;,
 3;235,237,243;,
 3;237,238,243;,
 3;238,239,243;,
 3;239,240,243;,
 3;240,241,243;,
 3;241,242,243;,
 3;242,236,243;,
 4;244,245,246,247;,
 4;245,248,249,246;,
 4;248,250,251,249;,
 4;250,252,253,251;,
 4;252,254,255,253;,
 4;254,256,257,255;,
 4;256,258,259,257;,
 4;258,260,261,259;,
 4;247,246,262,263;,
 4;246,249,264,262;,
 4;249,251,265,264;,
 4;251,253,266,265;,
 4;253,255,267,266;,
 4;255,257,268,267;,
 4;257,259,269,268;,
 4;259,261,270,269;,
 4;263,262,271,272;,
 4;262,264,273,271;,
 4;264,265,274,273;,
 4;265,266,275,274;,
 4;266,267,276,275;,
 4;267,268,277,276;,
 4;268,269,278,277;,
 4;269,270,279,278;,
 4;272,271,280,281;,
 4;271,273,282,280;,
 4;273,274,283,282;,
 4;274,275,284,283;,
 4;275,276,285,284;,
 4;276,277,286,285;,
 4;277,278,287,286;,
 4;278,279,288,287;,
 4;281,280,289,290;,
 4;280,282,291,289;,
 4;282,283,292,291;,
 4;283,284,293,292;,
 4;284,285,294,293;,
 4;285,286,295,294;,
 4;286,287,296,295;,
 4;287,288,297,296;,
 4;290,289,298,299;,
 4;289,291,300,298;,
 4;291,292,301,300;,
 4;292,293,302,301;,
 4;293,294,303,302;,
 4;294,295,304,303;,
 4;295,296,305,304;,
 4;296,297,306,305;,
 4;299,298,307,308;,
 4;298,300,309,307;,
 4;300,301,310,309;,
 4;301,302,311,310;,
 4;302,303,312,311;,
 4;303,304,313,312;,
 4;304,305,314,313;,
 4;305,306,315,314;,
 4;308,307,316,317;,
 4;307,309,318,316;,
 4;309,310,319,318;,
 4;310,311,320,319;,
 4;311,312,321,320;,
 4;312,313,322,321;,
 4;313,314,323,322;,
 4;314,315,324,323;,
 4;325,326,327,328;,
 4;326,329,330,327;,
 4;329,331,332,330;,
 4;331,333,334,332;,
 4;333,335,336,334;,
 4;335,337,338,336;,
 4;337,339,340,338;,
 4;339,341,342,340;,
 4;328,327,343,344;,
 4;327,330,345,343;,
 4;330,332,346,345;,
 4;332,334,347,346;,
 4;334,336,348,347;,
 4;336,338,349,348;,
 4;338,340,350,349;,
 4;340,342,351,350;,
 4;344,343,352,353;,
 4;343,345,354,352;,
 4;345,346,355,354;,
 4;346,347,356,355;,
 4;347,348,357,356;,
 4;348,349,358,357;,
 4;349,350,359,358;,
 4;350,351,360,359;,
 4;353,352,361,362;,
 4;352,354,363,361;,
 4;354,355,364,363;,
 4;355,356,365,364;,
 4;356,357,366,365;,
 4;357,358,367,366;,
 4;358,359,368,367;,
 4;359,360,369,368;,
 4;362,361,370,371;,
 4;361,363,372,370;,
 4;363,364,373,372;,
 4;364,365,374,373;,
 4;365,366,375,374;,
 4;366,367,376,375;,
 4;367,368,377,376;,
 4;368,369,378,377;,
 4;371,370,379,380;,
 4;370,372,381,379;,
 4;372,373,382,381;,
 4;373,374,383,382;,
 4;374,375,384,383;,
 4;375,376,385,384;,
 4;376,377,386,385;,
 4;377,378,387,386;,
 4;380,379,388,389;,
 4;379,381,390,388;,
 4;381,382,391,390;,
 4;382,383,392,391;,
 4;383,384,393,392;,
 4;384,385,394,393;,
 4;385,386,395,394;,
 4;386,387,396,395;,
 4;389,388,397,398;,
 4;388,390,399,397;,
 4;390,391,400,399;,
 4;391,392,401,400;,
 4;392,393,402,401;,
 4;393,394,403,402;,
 4;394,395,404,403;,
 4;395,396,405,404;;
 
 MeshMaterialList {
  5;
  344;
  4,
  4,
  4,
  4,
  4,
  4,
  4,
  4,
  4,
  4,
  4,
  4,
  4,
  4,
  4,
  4,
  4,
  4,
  4,
  4,
  4,
  4,
  4,
  4,
  4,
  4,
  4,
  4,
  4,
  4,
  4,
  4,
  4,
  4,
  4,
  4,
  4,
  4,
  4,
  4,
  4,
  4,
  4,
  4,
  4,
  4,
  4,
  4,
  4,
  4,
  4,
  4,
  4,
  4,
  4,
  4,
  4,
  4,
  4,
  4,
  4,
  4,
  4,
  4,
  4,
  4,
  4,
  4,
  4,
  4,
  4,
  4,
  4,
  4,
  4,
  4,
  4,
  4,
  4,
  4,
  4,
  4,
  4,
  4,
  4,
  4,
  4,
  4,
  4,
  4,
  4,
  4,
  4,
  4,
  4,
  4,
  4,
  4,
  4,
  4,
  4,
  4,
  4,
  4,
  4,
  4,
  4,
  4,
  4,
  4,
  4,
  4,
  4,
  4,
  4,
  4,
  4,
  4,
  4,
  4,
  4,
  4,
  4,
  4,
  4,
  4,
  4,
  4,
  3,
  3,
  3,
  3,
  3,
  3,
  3,
  3,
  2,
  2,
  2,
  2,
  2,
  2,
  2,
  2,
  1,
  1,
  1,
  1,
  1,
  1,
  1,
  1,
  0,
  0,
  0,
  0,
  0,
  0,
  0,
  0,
  0,
  0,
  0,
  0,
  0,
  0,
  0,
  0,
  0,
  0,
  0,
  0,
  0,
  0,
  0,
  0,
  0,
  0,
  0,
  0,
  0,
  0,
  0,
  0,
  0,
  0,
  0,
  0,
  0,
  0,
  0,
  0,
  0,
  0,
  0,
  0,
  0,
  0,
  0,
  0,
  0,
  0,
  0,
  0,
  0,
  0,
  0,
  0,
  0,
  0,
  0,
  0,
  0,
  0,
  0,
  0,
  4,
  4,
  4,
  4,
  4,
  4,
  4,
  4,
  4,
  4,
  4,
  4,
  4,
  4,
  4,
  4,
  4,
  4,
  4,
  4,
  4,
  4,
  4,
  4,
  4,
  4,
  4,
  4,
  4,
  4,
  4,
  4,
  4,
  4,
  4,
  4,
  4,
  4,
  4,
  4,
  4,
  4,
  4,
  4,
  4,
  4,
  4,
  4,
  4,
  4,
  4,
  4,
  4,
  4,
  4,
  4,
  4,
  4,
  4,
  4,
  4,
  4,
  4,
  4,
  4,
  4,
  4,
  4,
  4,
  4,
  4,
  4,
  4,
  4,
  4,
  4,
  4,
  4,
  4,
  4,
  4,
  4,
  4,
  4,
  4,
  4,
  4,
  4,
  4,
  4,
  4,
  4,
  4,
  4,
  4,
  4,
  4,
  4,
  4,
  4,
  4,
  4,
  4,
  4,
  4,
  4,
  4,
  4,
  4,
  4,
  4,
  4,
  4,
  4,
  4,
  4,
  4,
  4,
  4,
  4,
  4,
  4,
  4,
  4,
  4,
  4,
  4,
  4;;
  Material {
   0.800000;0.364000;0.254400;1.000000;;
   34.000000;
   0.350000;0.350000;0.350000;;
   0.000000;0.000000;0.000000;;
  }
  Material {
   0.800000;0.266400;0.266400;1.000000;;
   61.000000;
   0.310000;0.310000;0.310000;;
   0.160000;0.053280;0.053280;;
  }
  Material {
   0.800000;0.765600;0.279200;1.000000;;
   5.000000;
   0.850000;0.850000;0.850000;;
   0.000000;0.000000;0.000000;;
  }
  Material {
   0.800000;0.279200;0.292000;1.000000;;
   27.000000;
   0.390000;0.390000;0.390000;;
   0.000000;0.000000;0.000000;;
  }
  Material {
   0.492800;0.470400;0.496000;1.000000;;
   5.000000;
   0.610000;0.610000;0.610000;;
   0.000000;0.000000;0.000000;;
  }
 }
 MeshNormals {
  297;
  -1.000000;0.000000;-0.000000;,
  -0.698871;0.715248;-0.000000;,
  -0.000000;1.000000;0.000000;,
  0.698870;0.715248;0.000000;,
  1.000000;0.000000;0.000000;,
  0.698870;-0.715248;-0.000000;,
  -0.000000;-1.000000;0.000000;,
  -0.698871;-0.715248;-0.000000;,
  -0.707107;0.000000;0.707107;,
  -0.494176;0.715248;0.494176;,
  -0.000000;1.000000;0.000000;,
  0.494176;0.715248;-0.494176;,
  0.707107;0.000000;-0.707107;,
  0.494176;-0.715248;-0.494176;,
  -0.000000;-1.000000;0.000000;,
  -0.494176;-0.715248;0.494176;,
  0.000000;0.000000;1.000000;,
  0.000000;0.715248;0.698870;,
  0.000000;1.000000;0.000000;,
  0.000000;0.715248;-0.698870;,
  0.000000;0.000000;-1.000000;,
  0.000000;-0.715248;-0.698870;,
  0.000000;-1.000000;0.000000;,
  0.000000;-0.715248;0.698870;,
  0.707107;0.000000;0.707107;,
  0.494176;0.715248;0.494176;,
  0.000000;1.000000;0.000000;,
  -0.494176;0.715248;-0.494176;,
  -0.707107;0.000000;-0.707107;,
  -0.494176;-0.715248;-0.494176;,
  0.000000;-1.000000;0.000000;,
  0.494176;-0.715248;0.494176;,
  1.000000;0.000000;-0.000000;,
  0.698871;0.715248;-0.000000;,
  0.000000;1.000000;0.000000;,
  -0.698870;0.715248;0.000000;,
  -1.000000;0.000000;0.000000;,
  -0.698870;-0.715248;0.000000;,
  0.000000;-1.000000;-0.000000;,
  0.698871;-0.715248;-0.000000;,
  0.707106;0.000000;-0.707107;,
  0.494177;0.715247;-0.494177;,
  0.000000;1.000000;-0.000000;,
  -0.494176;0.715248;0.494176;,
  -0.494176;-0.715248;0.494176;,
  0.000000;-1.000000;-0.000000;,
  0.494177;-0.715247;-0.494177;,
  0.000000;0.715246;-0.698873;,
  0.000000;1.000000;-0.000000;,
  0.000000;-1.000000;-0.000000;,
  0.000000;-0.715246;-0.698873;,
  -0.707106;0.000000;-0.707107;,
  -0.494177;0.715247;-0.494177;,
  -0.000000;1.000000;-0.000000;,
  0.494176;0.715248;0.494176;,
  0.494176;-0.715248;0.494176;,
  -0.000000;-1.000000;-0.000000;,
  -0.494177;-0.715247;-0.494177;,
  -1.000000;0.000000;-0.000000;,
  -0.698871;0.715248;-0.000000;,
  -0.000000;1.000000;0.000000;,
  0.698870;0.715248;0.000000;,
  1.000000;0.000000;-0.000000;,
  0.698870;-0.715248;-0.000000;,
  -0.000000;-1.000000;0.000000;,
  -0.698871;-0.715248;-0.000000;,
  -0.707107;0.000000;0.707107;,
  -0.494176;0.715248;0.494176;,
  0.000000;1.000000;-0.000000;,
  0.494176;0.715248;-0.494176;,
  0.707107;0.000000;-0.707107;,
  0.494176;-0.715248;-0.494176;,
  -0.000000;-1.000000;0.000000;,
  -0.494176;-0.715248;0.494176;,
  -0.000000;0.000000;1.000000;,
  0.000000;0.715248;0.698870;,
  0.000000;1.000000;0.000000;,
  -0.000000;0.715248;-0.698870;,
  0.000000;0.000000;-1.000000;,
  0.000000;-0.715248;-0.698870;,
  0.000000;-1.000000;0.000000;,
  -0.000000;-0.715248;0.698870;,
  0.707107;0.000000;0.707107;,
  0.494176;0.715248;0.494176;,
  -0.000000;1.000000;-0.000000;,
  -0.494176;0.715248;-0.494176;,
  -0.707107;0.000000;-0.707107;,
  -0.494176;-0.715248;-0.494176;,
  0.000000;-1.000000;0.000000;,
  0.494176;-0.715248;0.494176;,
  1.000000;0.000000;-0.000000;,
  0.698871;0.715248;-0.000000;,
  0.000000;1.000000;0.000000;,
  -0.698870;0.715248;0.000000;,
  -1.000000;0.000000;-0.000000;,
  -0.698870;-0.715248;0.000000;,
  0.000000;-1.000000;-0.000000;,
  0.698871;-0.715248;-0.000000;,
  0.707106;0.000000;-0.707107;,
  0.494177;0.715247;-0.494177;,
  -0.000000;1.000000;0.000000;,
  -0.494176;0.715248;0.494176;,
  -0.707107;0.000000;0.707107;,
  -0.494176;-0.715248;0.494176;,
  0.000000;-1.000000;-0.000000;,
  0.494177;-0.715247;-0.494177;,
  0.000000;0.000000;-1.000000;,
  0.000000;0.715246;-0.698873;,
  0.000000;1.000000;-0.000000;,
  0.000000;0.715248;0.698870;,
  -0.000000;0.000000;1.000000;,
  0.000000;-0.715248;0.698870;,
  0.000000;-1.000000;-0.000000;,
  0.000000;-0.715246;-0.698873;,
  -0.707106;0.000000;-0.707107;,
  -0.494177;0.715247;-0.494177;,
  0.000000;1.000000;0.000000;,
  0.494176;0.715248;0.494176;,
  0.707107;0.000000;0.707107;,
  0.494176;-0.715248;0.494176;,
  -0.000000;-1.000000;-0.000000;,
  -0.494177;-0.715247;-0.494177;,
  0.000000;1.000000;0.000000;,
  0.000000;0.999896;-0.014428;,
  0.010051;0.999897;-0.010202;,
  0.014214;0.999899;0.000000;,
  0.010051;0.999897;0.010202;,
  0.000000;0.999896;0.014428;,
  -0.010051;0.999897;0.010202;,
  -0.014214;0.999899;0.000000;,
  -0.010051;0.999897;-0.010202;,
  0.000000;0.998031;-0.062714;,
  0.043690;0.998060;-0.044347;,
  0.061788;0.998089;-0.000000;,
  0.043690;0.998060;0.044347;,
  -0.000000;0.998031;0.062714;,
  -0.043690;0.998060;0.044347;,
  -0.061789;0.998089;0.000000;,
  -0.043690;0.998060;-0.044347;,
  0.000000;0.987984;-0.154559;,
  0.107700;0.988157;-0.109304;,
  0.152330;0.988330;-0.000000;,
  0.107699;0.988157;0.109304;,
  0.000000;0.987984;0.154559;,
  -0.107699;0.988157;0.109304;,
  -0.152330;0.988330;0.000000;,
  -0.107699;0.988157;-0.109304;,
  -0.000000;0.913294;-0.407300;,
  0.284371;0.914342;-0.288290;,
  0.402561;0.915393;0.000000;,
  0.284371;0.914342;0.288290;,
  -0.000000;0.913294;0.407300;,
  -0.284373;0.914341;0.288292;,
  -0.402566;0.915391;0.000000;,
  -0.284373;0.914341;-0.288292;,
  -0.000000;0.464155;-0.885754;,
  0.621942;0.466134;-0.629211;,
  0.883652;0.468144;0.000000;,
  0.621942;0.466134;0.629211;,
  -0.000000;0.464155;0.885754;,
  -0.621944;0.466130;0.629212;,
  -0.883655;0.468138;0.000000;,
  -0.621944;0.466130;-0.629212;,
  -0.000000;-0.464155;-0.885754;,
  0.621942;-0.466134;-0.629211;,
  0.883652;-0.468144;-0.000000;,
  0.621942;-0.466134;0.629211;,
  -0.000000;-0.464155;0.885754;,
  -0.621944;-0.466130;0.629212;,
  -0.883655;-0.468138;0.000000;,
  -0.621944;-0.466130;-0.629212;,
  -0.000000;-0.913291;-0.407307;,
  0.284376;-0.914339;-0.288296;,
  0.402569;-0.915390;-0.000000;,
  0.284376;-0.914339;0.288296;,
  -0.000000;-0.913291;0.407307;,
  -0.284378;-0.914338;0.288297;,
  -0.402573;-0.915388;0.000000;,
  -0.284378;-0.914338;-0.288297;,
  0.000000;-0.987983;-0.154562;,
  0.107701;-0.988156;-0.109306;,
  0.152333;-0.988329;-0.000000;,
  0.107701;-0.988156;0.109306;,
  0.000000;-0.987983;0.154562;,
  -0.107701;-0.988156;0.109306;,
  -0.152332;-0.988329;0.000000;,
  -0.107701;-0.988156;-0.109306;,
  0.000000;-0.998032;-0.062709;,
  0.043686;-0.998061;-0.044343;,
  0.061783;-0.998090;-0.000000;,
  0.043686;-0.998061;0.044343;,
  -0.000000;-0.998032;0.062709;,
  -0.043686;-0.998061;0.044343;,
  -0.061783;-0.998090;0.000000;,
  -0.043686;-0.998061;-0.044343;,
  0.000000;-0.999896;-0.014428;,
  0.010051;-0.999897;-0.010202;,
  0.014214;-0.999899;0.000000;,
  0.010051;-0.999897;0.010202;,
  0.000000;-0.999896;0.014428;,
  -0.010051;-0.999897;0.010202;,
  -0.014214;-0.999899;0.000000;,
  -0.010051;-0.999897;-0.010202;,
  0.000000;-1.000000;-0.000000;,
  -1.000000;-0.000000;-0.000000;,
  -0.698871;0.715248;-0.000000;,
  -0.000000;1.000000;0.000000;,
  0.698870;0.715248;0.000000;,
  1.000000;-0.000000;-0.000000;,
  0.698870;-0.715248;0.000000;,
  -0.000000;-1.000000;0.000000;,
  -0.698871;-0.715248;-0.000000;,
  -0.707107;-0.000000;0.707107;,
  -0.494176;0.715248;0.494176;,
  0.000000;1.000000;-0.000000;,
  0.494176;0.715248;-0.494176;,
  0.707107;-0.000000;-0.707107;,
  0.494176;-0.715248;-0.494176;,
  0.000000;-1.000000;-0.000000;,
  -0.494176;-0.715248;0.494176;,
  -0.000000;-0.000000;1.000000;,
  -0.000000;0.715248;0.698870;,
  0.000000;1.000000;0.000000;,
  0.000000;0.715248;-0.698870;,
  0.000000;-0.000000;-1.000000;,
  -0.000000;-0.715248;-0.698870;,
  0.000000;-1.000000;0.000000;,
  0.000000;-0.715248;0.698870;,
  0.707107;-0.000000;0.707107;,
  0.494176;0.715248;0.494176;,
  -0.000000;1.000000;-0.000000;,
  -0.494176;0.715248;-0.494176;,
  -0.707107;-0.000000;-0.707107;,
  -0.494176;-0.715248;-0.494176;,
  -0.000000;-1.000000;-0.000000;,
  0.494176;-0.715248;0.494176;,
  1.000000;-0.000000;-0.000000;,
  0.698871;0.715248;-0.000000;,
  0.000000;1.000000;0.000000;,
  -0.698870;0.715248;0.000000;,
  -1.000000;-0.000000;-0.000000;,
  -0.698870;-0.715248;0.000000;,
  0.000000;-1.000000;-0.000000;,
  0.698871;-0.715248;-0.000000;,
  0.707106;-0.000000;-0.707107;,
  0.494177;0.715247;-0.494177;,
  -0.000000;1.000000;0.000000;,
  -0.494176;0.715248;0.494176;,
  -0.707107;-0.000000;0.707107;,
  -0.494176;-0.715248;0.494176;,
  -0.000000;-1.000000;0.000000;,
  0.494177;-0.715247;-0.494177;,
  0.000000;-0.000000;-1.000000;,
  0.000000;0.715246;-0.698873;,
  0.000000;1.000000;-0.000000;,
  0.000000;0.715248;0.698870;,
  0.000000;-0.715248;0.698870;,
  0.000000;-1.000000;-0.000000;,
  0.000000;-0.715246;-0.698873;,
  -0.707106;-0.000000;-0.707107;,
  -0.494177;0.715247;-0.494177;,
  0.000000;1.000000;0.000000;,
  0.494176;0.715248;0.494176;,
  0.707107;-0.000000;0.707107;,
  0.494176;-0.715248;0.494176;,
  0.000000;-1.000000;0.000000;,
  -0.494177;-0.715247;-0.494177;,
  -1.000000;0.000000;-0.000000;,
  -0.698871;0.715248;-0.000000;,
  0.698870;0.715248;0.000000;,
  1.000000;0.000000;0.000000;,
  -0.707107;0.000000;0.707107;,
  -0.494176;0.715248;0.494176;,
  0.494176;0.715248;-0.494176;,
  0.707107;0.000000;-0.707107;,
  0.000000;0.000000;1.000000;,
  0.000000;0.715248;0.698870;,
  -0.000000;0.715248;-0.698870;,
  0.000000;0.000000;-1.000000;,
  0.707107;0.000000;0.707107;,
  0.494176;0.715248;0.494176;,
  -0.494176;0.715248;-0.494176;,
  -0.707107;0.000000;-0.707107;,
  1.000000;0.000000;-0.000000;,
  0.698871;0.715248;-0.000000;,
  -0.698870;0.715248;0.000000;,
  -1.000000;0.000000;0.000000;,
  0.707106;0.000000;-0.707107;,
  0.494177;0.715247;-0.494177;,
  -0.494176;0.715248;0.494176;,
  -0.707107;0.000000;0.707107;,
  0.000000;0.715246;-0.698873;,
  0.000000;0.715248;0.698870;,
  -0.707106;0.000000;-0.707107;,
  -0.494177;0.715247;-0.494177;,
  0.494176;0.715248;0.494176;,
  0.707107;0.000000;0.707107;;
  344;
  4;0,1,9,8;,
  4;1,2,10,9;,
  4;2,3,11,10;,
  4;3,4,12,11;,
  4;4,5,13,12;,
  4;5,6,14,13;,
  4;6,7,15,14;,
  4;7,0,8,15;,
  4;8,9,17,16;,
  4;9,10,18,17;,
  4;10,11,19,18;,
  4;11,12,20,19;,
  4;12,13,21,20;,
  4;13,14,22,21;,
  4;14,15,23,22;,
  4;15,8,16,23;,
  4;16,17,25,24;,
  4;17,18,26,25;,
  4;18,19,27,26;,
  4;19,20,28,27;,
  4;20,21,29,28;,
  4;21,22,30,29;,
  4;22,23,31,30;,
  4;23,16,24,31;,
  4;24,25,33,32;,
  4;25,26,34,33;,
  4;26,27,35,34;,
  4;27,28,36,35;,
  4;28,29,37,36;,
  4;29,30,38,37;,
  4;30,31,39,38;,
  4;31,24,32,39;,
  4;32,33,41,40;,
  4;33,34,42,41;,
  4;34,35,43,42;,
  4;35,36,8,43;,
  4;36,37,44,8;,
  4;37,38,45,44;,
  4;38,39,46,45;,
  4;39,32,40,46;,
  4;40,41,47,20;,
  4;41,42,48,47;,
  4;42,43,17,48;,
  4;43,8,16,17;,
  4;8,44,23,16;,
  4;44,45,49,23;,
  4;45,46,50,49;,
  4;46,40,20,50;,
  4;20,47,52,51;,
  4;47,48,53,52;,
  4;48,17,54,53;,
  4;17,16,24,54;,
  4;16,23,55,24;,
  4;23,49,56,55;,
  4;49,50,57,56;,
  4;50,20,51,57;,
  4;51,52,1,0;,
  4;52,53,2,1;,
  4;53,54,3,2;,
  4;54,24,4,3;,
  4;24,55,5,4;,
  4;55,56,6,5;,
  4;56,57,7,6;,
  4;57,51,0,7;,
  4;58,59,67,66;,
  4;59,60,68,67;,
  4;60,61,69,68;,
  4;61,62,70,69;,
  4;62,63,71,70;,
  4;63,64,72,71;,
  4;64,65,73,72;,
  4;65,58,66,73;,
  4;66,67,75,74;,
  4;67,68,76,75;,
  4;68,69,77,76;,
  4;69,70,78,77;,
  4;70,71,79,78;,
  4;71,72,80,79;,
  4;72,73,81,80;,
  4;73,66,74,81;,
  4;74,75,83,82;,
  4;75,76,84,83;,
  4;76,77,85,84;,
  4;77,78,86,85;,
  4;78,79,87,86;,
  4;79,80,88,87;,
  4;80,81,89,88;,
  4;81,74,82,89;,
  4;82,83,91,90;,
  4;83,84,92,91;,
  4;84,85,93,92;,
  4;85,86,94,93;,
  4;86,87,95,94;,
  4;87,88,96,95;,
  4;88,89,97,96;,
  4;89,82,90,97;,
  4;90,91,99,98;,
  4;91,92,100,99;,
  4;92,93,101,100;,
  4;93,94,102,101;,
  4;94,95,103,102;,
  4;95,96,104,103;,
  4;96,97,105,104;,
  4;97,90,98,105;,
  4;98,99,107,106;,
  4;99,100,108,107;,
  4;100,101,109,108;,
  4;101,102,110,109;,
  4;102,103,111,110;,
  4;103,104,112,111;,
  4;104,105,113,112;,
  4;105,98,106,113;,
  4;106,107,115,114;,
  4;107,108,116,115;,
  4;108,109,117,116;,
  4;109,110,118,117;,
  4;110,111,119,118;,
  4;111,112,120,119;,
  4;112,113,121,120;,
  4;113,106,114,121;,
  4;114,115,59,58;,
  4;115,116,60,59;,
  4;116,117,61,60;,
  4;117,118,62,61;,
  4;118,119,63,62;,
  4;119,120,64,63;,
  4;120,121,65,64;,
  4;121,114,58,65;,
  3;122,124,123;,
  3;122,125,124;,
  3;122,126,125;,
  3;122,127,126;,
  3;122,128,127;,
  3;122,129,128;,
  3;122,130,129;,
  3;122,123,130;,
  4;123,124,132,131;,
  4;124,125,133,132;,
  4;125,126,134,133;,
  4;126,127,135,134;,
  4;127,128,136,135;,
  4;128,129,137,136;,
  4;129,130,138,137;,
  4;130,123,131,138;,
  4;131,132,140,139;,
  4;132,133,141,140;,
  4;133,134,142,141;,
  4;134,135,143,142;,
  4;135,136,144,143;,
  4;136,137,145,144;,
  4;137,138,146,145;,
  4;138,131,139,146;,
  4;139,140,148,147;,
  4;140,141,149,148;,
  4;141,142,150,149;,
  4;142,143,151,150;,
  4;143,144,152,151;,
  4;144,145,153,152;,
  4;145,146,154,153;,
  4;146,139,147,154;,
  4;147,148,156,155;,
  4;148,149,157,156;,
  4;149,150,158,157;,
  4;150,151,159,158;,
  4;151,152,160,159;,
  4;152,153,161,160;,
  4;153,154,162,161;,
  4;154,147,155,162;,
  4;155,156,164,163;,
  4;156,157,165,164;,
  4;157,158,166,165;,
  4;158,159,167,166;,
  4;159,160,168,167;,
  4;160,161,169,168;,
  4;161,162,170,169;,
  4;162,155,163,170;,
  4;163,164,172,171;,
  4;164,165,173,172;,
  4;165,166,174,173;,
  4;166,167,175,174;,
  4;167,168,176,175;,
  4;168,169,177,176;,
  4;169,170,178,177;,
  4;170,163,171,178;,
  4;171,172,180,179;,
  4;172,173,181,180;,
  4;173,174,182,181;,
  4;174,175,183,182;,
  4;175,176,184,183;,
  4;176,177,185,184;,
  4;177,178,186,185;,
  4;178,171,179,186;,
  4;179,180,188,187;,
  4;180,181,189,188;,
  4;181,182,190,189;,
  4;182,183,191,190;,
  4;183,184,192,191;,
  4;184,185,193,192;,
  4;185,186,194,193;,
  4;186,179,187,194;,
  4;187,188,196,195;,
  4;188,189,197,196;,
  4;189,190,198,197;,
  4;190,191,199,198;,
  4;191,192,200,199;,
  4;192,193,201,200;,
  4;193,194,202,201;,
  4;194,187,195,202;,
  3;195,196,203;,
  3;196,197,203;,
  3;197,198,203;,
  3;198,199,203;,
  3;199,200,203;,
  3;200,201,203;,
  3;201,202,203;,
  3;202,195,203;,
  4;204,205,213,212;,
  4;205,206,214,213;,
  4;206,207,215,214;,
  4;207,208,216,215;,
  4;208,209,217,216;,
  4;209,210,218,217;,
  4;210,211,219,218;,
  4;211,204,212,219;,
  4;212,213,221,220;,
  4;213,214,222,221;,
  4;214,215,223,222;,
  4;215,216,224,223;,
  4;216,217,225,224;,
  4;217,218,226,225;,
  4;218,219,227,226;,
  4;219,212,220,227;,
  4;220,221,229,228;,
  4;221,222,230,229;,
  4;222,223,231,230;,
  4;223,224,232,231;,
  4;224,225,233,232;,
  4;225,226,234,233;,
  4;226,227,235,234;,
  4;227,220,228,235;,
  4;228,229,237,236;,
  4;229,230,238,237;,
  4;230,231,239,238;,
  4;231,232,240,239;,
  4;232,233,241,240;,
  4;233,234,242,241;,
  4;234,235,243,242;,
  4;235,228,236,243;,
  4;236,237,245,244;,
  4;237,238,246,245;,
  4;238,239,247,246;,
  4;239,240,248,247;,
  4;240,241,249,248;,
  4;241,242,250,249;,
  4;242,243,251,250;,
  4;243,236,244,251;,
  4;244,245,253,252;,
  4;245,246,254,253;,
  4;246,247,255,254;,
  4;247,248,220,255;,
  4;248,249,256,220;,
  4;249,250,257,256;,
  4;250,251,258,257;,
  4;251,244,252,258;,
  4;252,253,260,259;,
  4;253,254,261,260;,
  4;254,255,262,261;,
  4;255,220,263,262;,
  4;220,256,264,263;,
  4;256,257,265,264;,
  4;257,258,266,265;,
  4;258,252,259,266;,
  4;259,260,205,204;,
  4;260,261,206,205;,
  4;261,262,207,206;,
  4;262,263,208,207;,
  4;263,264,209,208;,
  4;264,265,210,209;,
  4;265,266,211,210;,
  4;266,259,204,211;,
  4;267,268,272,271;,
  4;268,206,214,272;,
  4;206,269,273,214;,
  4;269,270,274,273;,
  4;270,209,217,274;,
  4;209,210,218,217;,
  4;210,211,219,218;,
  4;211,267,271,219;,
  4;271,272,276,275;,
  4;272,214,222,276;,
  4;214,273,277,222;,
  4;273,274,278,277;,
  4;274,217,225,278;,
  4;217,218,226,225;,
  4;218,219,227,226;,
  4;219,271,275,227;,
  4;275,276,280,279;,
  4;276,222,230,280;,
  4;222,277,281,230;,
  4;277,278,282,281;,
  4;278,225,233,282;,
  4;225,226,234,233;,
  4;226,227,235,234;,
  4;227,275,279,235;,
  4;279,280,284,283;,
  4;280,230,238,284;,
  4;230,281,285,238;,
  4;281,282,286,285;,
  4;282,233,241,286;,
  4;233,234,242,241;,
  4;234,235,243,242;,
  4;235,279,283,243;,
  4;283,284,288,287;,
  4;284,238,246,288;,
  4;238,285,289,246;,
  4;285,286,290,289;,
  4;286,241,249,290;,
  4;241,242,250,249;,
  4;242,243,251,250;,
  4;243,283,287,251;,
  4;287,288,291,278;,
  4;288,246,254,291;,
  4;246,289,292,254;,
  4;289,290,275,292;,
  4;290,249,256,275;,
  4;249,250,257,256;,
  4;250,251,258,257;,
  4;251,287,278,258;,
  4;278,291,294,293;,
  4;291,254,261,294;,
  4;254,292,295,261;,
  4;292,275,296,295;,
  4;275,256,264,296;,
  4;256,257,265,264;,
  4;257,258,266,265;,
  4;258,278,293,266;,
  4;293,294,268,267;,
  4;294,261,206,268;,
  4;261,295,269,206;,
  4;295,296,270,269;,
  4;296,264,209,270;,
  4;264,265,210,209;,
  4;265,266,211,210;,
  4;266,293,267,211;;
 }
 MeshTextureCoords {
  406;
  0.000000;0.000000;,
  0.000000;0.125000;,
  0.125000;0.125000;,
  0.125000;0.000000;,
  0.000000;0.250000;,
  0.125000;0.250000;,
  0.000000;0.375000;,
  0.125000;0.375000;,
  0.000000;0.500000;,
  0.125000;0.500000;,
  0.000000;0.625000;,
  0.125000;0.625000;,
  0.000000;0.750000;,
  0.125000;0.750000;,
  0.000000;0.875000;,
  0.125000;0.875000;,
  0.000000;1.000000;,
  0.125000;1.000000;,
  0.250000;0.125000;,
  0.250000;0.000000;,
  0.250000;0.250000;,
  0.250000;0.375000;,
  0.250000;0.500000;,
  0.250000;0.625000;,
  0.250000;0.750000;,
  0.250000;0.875000;,
  0.250000;1.000000;,
  0.375000;0.125000;,
  0.375000;0.000000;,
  0.375000;0.250000;,
  0.375000;0.375000;,
  0.375000;0.500000;,
  0.375000;0.625000;,
  0.375000;0.750000;,
  0.375000;0.875000;,
  0.375000;1.000000;,
  0.500000;0.125000;,
  0.500000;0.000000;,
  0.500000;0.250000;,
  0.500000;0.375000;,
  0.500000;0.500000;,
  0.500000;0.625000;,
  0.500000;0.750000;,
  0.500000;0.875000;,
  0.500000;1.000000;,
  0.625000;0.125000;,
  0.625000;0.000000;,
  0.625000;0.250000;,
  0.625000;0.375000;,
  0.625000;0.500000;,
  0.625000;0.625000;,
  0.625000;0.750000;,
  0.625000;0.875000;,
  0.625000;1.000000;,
  0.750000;0.125000;,
  0.750000;0.000000;,
  0.750000;0.250000;,
  0.750000;0.375000;,
  0.750000;0.500000;,
  0.750000;0.625000;,
  0.750000;0.750000;,
  0.750000;0.875000;,
  0.750000;1.000000;,
  0.875000;0.125000;,
  0.875000;0.000000;,
  0.875000;0.250000;,
  0.875000;0.375000;,
  0.875000;0.500000;,
  0.875000;0.625000;,
  0.875000;0.750000;,
  0.875000;0.875000;,
  0.875000;1.000000;,
  1.000000;0.125000;,
  1.000000;0.000000;,
  1.000000;0.250000;,
  1.000000;0.375000;,
  1.000000;0.500000;,
  1.000000;0.625000;,
  1.000000;0.750000;,
  1.000000;0.875000;,
  1.000000;1.000000;,
  0.000000;0.000000;,
  0.000000;0.125000;,
  0.125000;0.125000;,
  0.125000;0.000000;,
  0.000000;0.250000;,
  0.125000;0.250000;,
  0.000000;0.375000;,
  0.125000;0.375000;,
  0.000000;0.500000;,
  0.125000;0.500000;,
  0.000000;0.625000;,
  0.125000;0.625000;,
  0.000000;0.750000;,
  0.125000;0.750000;,
  0.000000;0.875000;,
  0.125000;0.875000;,
  0.000000;1.000000;,
  0.125000;1.000000;,
  0.250000;0.125000;,
  0.250000;0.000000;,
  0.250000;0.250000;,
  0.250000;0.375000;,
  0.250000;0.500000;,
  0.250000;0.625000;,
  0.250000;0.750000;,
  0.250000;0.875000;,
  0.250000;1.000000;,
  0.375000;0.125000;,
  0.375000;0.000000;,
  0.375000;0.250000;,
  0.375000;0.375000;,
  0.375000;0.500000;,
  0.375000;0.625000;,
  0.375000;0.750000;,
  0.375000;0.875000;,
  0.375000;1.000000;,
  0.500000;0.125000;,
  0.500000;0.000000;,
  0.500000;0.250000;,
  0.500000;0.375000;,
  0.500000;0.500000;,
  0.500000;0.625000;,
  0.500000;0.750000;,
  0.500000;0.875000;,
  0.500000;1.000000;,
  0.625000;0.125000;,
  0.625000;0.000000;,
  0.625000;0.250000;,
  0.625000;0.375000;,
  0.625000;0.500000;,
  0.625000;0.625000;,
  0.625000;0.750000;,
  0.625000;0.875000;,
  0.625000;1.000000;,
  0.750000;0.125000;,
  0.750000;0.000000;,
  0.750000;0.250000;,
  0.750000;0.375000;,
  0.750000;0.500000;,
  0.750000;0.625000;,
  0.750000;0.750000;,
  0.750000;0.875000;,
  0.750000;1.000000;,
  0.875000;0.125000;,
  0.875000;0.000000;,
  0.875000;0.250000;,
  0.875000;0.375000;,
  0.875000;0.500000;,
  0.875000;0.625000;,
  0.875000;0.750000;,
  0.875000;0.875000;,
  0.875000;1.000000;,
  1.000000;0.125000;,
  1.000000;0.000000;,
  1.000000;0.250000;,
  1.000000;0.375000;,
  1.000000;0.500000;,
  1.000000;0.625000;,
  1.000000;0.750000;,
  1.000000;0.875000;,
  1.000000;1.000000;,
  0.000000;0.000000;,
  0.000000;0.000000;,
  0.000000;0.000000;,
  0.000000;0.000000;,
  0.000000;0.000000;,
  0.000000;0.000000;,
  0.000000;0.000000;,
  0.000000;0.000000;,
  0.000000;0.000000;,
  0.000000;0.000000;,
  0.000000;0.000000;,
  0.000000;0.000000;,
  0.000000;0.000000;,
  0.000000;0.000000;,
  0.000000;0.000000;,
  0.000000;0.000000;,
  0.000000;0.000000;,
  0.000000;0.000000;,
  0.000000;0.000000;,
  0.000000;0.000000;,
  0.000000;0.000000;,
  0.000000;0.000000;,
  0.000000;0.000000;,
  0.000000;0.000000;,
  0.000000;0.000000;,
  0.000000;0.000000;,
  0.000000;0.000000;,
  0.000000;0.000000;,
  0.000000;0.000000;,
  0.000000;0.000000;,
  0.000000;0.000000;,
  0.000000;0.000000;,
  0.000000;0.000000;,
  0.000000;0.000000;,
  0.000000;0.000000;,
  0.000000;0.000000;,
  0.000000;0.000000;,
  0.000000;0.000000;,
  0.000000;0.000000;,
  0.000000;0.000000;,
  0.000000;0.000000;,
  0.000000;0.000000;,
  0.000000;0.000000;,
  0.000000;0.000000;,
  0.000000;0.000000;,
  0.000000;0.000000;,
  0.000000;0.000000;,
  0.000000;0.000000;,
  0.000000;0.000000;,
  0.000000;0.000000;,
  0.000000;0.000000;,
  0.000000;0.000000;,
  0.000000;0.000000;,
  0.000000;0.000000;,
  0.000000;0.000000;,
  0.000000;0.000000;,
  0.000000;0.000000;,
  0.000000;0.000000;,
  0.000000;0.000000;,
  0.000000;0.000000;,
  0.000000;0.000000;,
  0.000000;0.000000;,
  0.000000;0.000000;,
  0.000000;0.000000;,
  0.000000;0.000000;,
  0.000000;0.000000;,
  0.000000;0.000000;,
  0.000000;0.000000;,
  0.000000;0.000000;,
  0.000000;0.000000;,
  0.000000;0.000000;,
  0.000000;0.000000;,
  0.000000;0.000000;,
  0.000000;0.000000;,
  0.000000;0.000000;,
  0.000000;0.000000;,
  0.000000;0.000000;,
  0.000000;0.000000;,
  0.000000;0.000000;,
  0.000000;0.000000;,
  0.000000;0.000000;,
  0.000000;0.000000;,
  0.000000;0.000000;,
  0.000000;0.125000;,
  0.125000;0.125000;,
  0.125000;0.000000;,
  0.000000;0.250000;,
  0.125000;0.250000;,
  0.000000;0.375000;,
  0.125000;0.375000;,
  0.000000;0.500000;,
  0.125000;0.500000;,
  0.000000;0.625000;,
  0.125000;0.625000;,
  0.000000;0.750000;,
  0.125000;0.750000;,
  0.000000;0.875000;,
  0.125000;0.875000;,
  0.000000;1.000000;,
  0.125000;1.000000;,
  0.250000;0.125000;,
  0.250000;0.000000;,
  0.250000;0.250000;,
  0.250000;0.375000;,
  0.250000;0.500000;,
  0.250000;0.625000;,
  0.250000;0.750000;,
  0.250000;0.875000;,
  0.250000;1.000000;,
  0.375000;0.125000;,
  0.375000;0.000000;,
  0.375000;0.250000;,
  0.375000;0.375000;,
  0.375000;0.500000;,
  0.375000;0.625000;,
  0.375000;0.750000;,
  0.375000;0.875000;,
  0.375000;1.000000;,
  0.500000;0.125000;,
  0.500000;0.000000;,
  0.500000;0.250000;,
  0.500000;0.375000;,
  0.500000;0.500000;,
  0.500000;0.625000;,
  0.500000;0.750000;,
  0.500000;0.875000;,
  0.500000;1.000000;,
  0.625000;0.125000;,
  0.625000;0.000000;,
  0.625000;0.250000;,
  0.625000;0.375000;,
  0.625000;0.500000;,
  0.625000;0.625000;,
  0.625000;0.750000;,
  0.625000;0.875000;,
  0.625000;1.000000;,
  0.750000;0.125000;,
  0.750000;0.000000;,
  0.750000;0.250000;,
  0.750000;0.375000;,
  0.750000;0.500000;,
  0.750000;0.625000;,
  0.750000;0.750000;,
  0.750000;0.875000;,
  0.750000;1.000000;,
  0.875000;0.125000;,
  0.875000;0.000000;,
  0.875000;0.250000;,
  0.875000;0.375000;,
  0.875000;0.500000;,
  0.875000;0.625000;,
  0.875000;0.750000;,
  0.875000;0.875000;,
  0.875000;1.000000;,
  1.000000;0.125000;,
  1.000000;0.000000;,
  1.000000;0.250000;,
  1.000000;0.375000;,
  1.000000;0.500000;,
  1.000000;0.625000;,
  1.000000;0.750000;,
  1.000000;0.875000;,
  1.000000;1.000000;,
  0.000000;0.000000;,
  0.000000;0.125000;,
  0.125000;0.125000;,
  0.125000;0.000000;,
  0.000000;0.250000;,
  0.125000;0.250000;,
  0.000000;0.375000;,
  0.125000;0.375000;,
  0.000000;0.500000;,
  0.125000;0.500000;,
  0.000000;0.625000;,
  0.125000;0.625000;,
  0.000000;0.750000;,
  0.125000;0.750000;,
  0.000000;0.875000;,
  0.125000;0.875000;,
  0.000000;1.000000;,
  0.125000;1.000000;,
  0.250000;0.125000;,
  0.250000;0.000000;,
  0.250000;0.250000;,
  0.250000;0.375000;,
  0.250000;0.500000;,
  0.250000;0.625000;,
  0.250000;0.750000;,
  0.250000;0.875000;,
  0.250000;1.000000;,
  0.375000;0.125000;,
  0.375000;0.000000;,
  0.375000;0.250000;,
  0.375000;0.375000;,
  0.375000;0.500000;,
  0.375000;0.625000;,
  0.375000;0.750000;,
  0.375000;0.875000;,
  0.375000;1.000000;,
  0.500000;0.125000;,
  0.500000;0.000000;,
  0.500000;0.250000;,
  0.500000;0.375000;,
  0.500000;0.500000;,
  0.500000;0.625000;,
  0.500000;0.750000;,
  0.500000;0.875000;,
  0.500000;1.000000;,
  0.625000;0.125000;,
  0.625000;0.000000;,
  0.625000;0.250000;,
  0.625000;0.375000;,
  0.625000;0.500000;,
  0.625000;0.625000;,
  0.625000;0.750000;,
  0.625000;0.875000;,
  0.625000;1.000000;,
  0.750000;0.125000;,
  0.750000;0.000000;,
  0.750000;0.250000;,
  0.750000;0.375000;,
  0.750000;0.500000;,
  0.750000;0.625000;,
  0.750000;0.750000;,
  0.750000;0.875000;,
  0.750000;1.000000;,
  0.875000;0.125000;,
  0.875000;0.000000;,
  0.875000;0.250000;,
  0.875000;0.375000;,
  0.875000;0.500000;,
  0.875000;0.625000;,
  0.875000;0.750000;,
  0.875000;0.875000;,
  0.875000;1.000000;,
  1.000000;0.125000;,
  1.000000;0.000000;,
  1.000000;0.250000;,
  1.000000;0.375000;,
  1.000000;0.500000;,
  1.000000;0.625000;,
  1.000000;0.750000;,
  1.000000;0.875000;,
  1.000000;1.000000;;
 }
}
