xof 0302txt 0064
template Header {
 <3D82AB43-62DA-11cf-AB39-0020AF71E433>
 WORD major;
 WORD minor;
 DWORD flags;
}

template Vector {
 <3D82AB5E-62DA-11cf-AB39-0020AF71E433>
 FLOAT x;
 FLOAT y;
 FLOAT z;
}

template Coords2d {
 <F6F23F44-7686-11cf-8F52-0040333594A3>
 FLOAT u;
 FLOAT v;
}

template Matrix4x4 {
 <F6F23F45-7686-11cf-8F52-0040333594A3>
 array FLOAT matrix[16];
}

template ColorRGBA {
 <35FF44E0-6C7C-11cf-8F52-0040333594A3>
 FLOAT red;
 FLOAT green;
 FLOAT blue;
 FLOAT alpha;
}

template ColorRGB {
 <D3E16E81-7835-11cf-8F52-0040333594A3>
 FLOAT red;
 FLOAT green;
 FLOAT blue;
}

template IndexedColor {
 <1630B820-7842-11cf-8F52-0040333594A3>
 DWORD index;
 ColorRGBA indexColor;
}

template Boolean {
 <4885AE61-78E8-11cf-8F52-0040333594A3>
 WORD truefalse;
}

template Boolean2d {
 <4885AE63-78E8-11cf-8F52-0040333594A3>
 Boolean u;
 Boolean v;
}

template MaterialWrap {
 <4885AE60-78E8-11cf-8F52-0040333594A3>
 Boolean u;
 Boolean v;
}

template TextureFilename {
 <A42790E1-7810-11cf-8F52-0040333594A3>
 STRING filename;
}

template Material {
 <3D82AB4D-62DA-11cf-AB39-0020AF71E433>
 ColorRGBA faceColor;
 FLOAT power;
 ColorRGB specularColor;
 ColorRGB emissiveColor;
 [...]
}

template MeshFace {
 <3D82AB5F-62DA-11cf-AB39-0020AF71E433>
 DWORD nFaceVertexIndices;
 array DWORD faceVertexIndices[nFaceVertexIndices];
}

template MeshFaceWraps {
 <4885AE62-78E8-11cf-8F52-0040333594A3>
 DWORD nFaceWrapValues;
 Boolean2d faceWrapValues;
}

template MeshTextureCoords {
 <F6F23F40-7686-11cf-8F52-0040333594A3>
 DWORD nTextureCoords;
 array Coords2d textureCoords[nTextureCoords];
}

template MeshMaterialList {
 <F6F23F42-7686-11cf-8F52-0040333594A3>
 DWORD nMaterials;
 DWORD nFaceIndexes;
 array DWORD faceIndexes[nFaceIndexes];
 [Material]
}

template MeshNormals {
 <F6F23F43-7686-11cf-8F52-0040333594A3>
 DWORD nNormals;
 array Vector normals[nNormals];
 DWORD nFaceNormals;
 array MeshFace faceNormals[nFaceNormals];
}

template MeshVertexColors {
 <1630B821-7842-11cf-8F52-0040333594A3>
 DWORD nVertexColors;
 array IndexedColor vertexColors[nVertexColors];
}

template Mesh {
 <3D82AB44-62DA-11cf-AB39-0020AF71E433>
 DWORD nVertices;
 array Vector vertices[nVertices];
 DWORD nFaces;
 array MeshFace faces[nFaces];
 [...]
}

Header{
1;
0;
1;
}

Mesh {
 387;
 924.09198;-69.87740;-574.46637;,
 924.09198;-69.87740;-751.90302;,
 1075.74097;-69.87740;-699.93219;,
 924.09198;-69.87740;-574.46637;,
 1138.55579;-69.87740;-574.46637;,
 924.09198;-69.87740;-574.46637;,
 1075.74097;-69.87740;-448.99860;,
 924.09198;-69.87740;-574.46637;,
 924.09198;-69.87740;-397.02841;,
 924.09198;-69.87740;-574.46637;,
 772.44299;-69.87740;-448.99860;,
 924.09198;-69.87740;-574.46637;,
 709.62781;-69.87740;-574.46637;,
 924.09198;-69.87740;-574.46637;,
 772.44299;-69.87740;-699.93219;,
 924.09198;-69.87740;-574.46637;,
 924.09198;-69.87740;-751.90302;,
 709.62781;89.01840;-751.90302;,
 1138.55579;89.01840;-751.90302;,
 1138.55579;-99.33960;-751.90302;,
 709.62781;-99.33960;-751.90302;,
 1138.55579;89.01840;-751.90302;,
 1138.55579;89.01840;-397.02841;,
 1138.55579;-99.33960;-397.02841;,
 1138.55579;-99.33960;-751.90302;,
 1138.55579;89.01840;-397.02841;,
 709.62781;89.01840;-397.02841;,
 709.62781;-99.33960;-397.02841;,
 1138.55579;-99.33960;-397.02841;,
 709.62781;89.01840;-397.02841;,
 709.62781;89.01840;-751.90302;,
 709.62781;-99.33960;-751.90302;,
 709.62781;-99.33960;-397.02841;,
 1138.55579;89.01840;-751.90302;,
 709.62781;89.01840;-751.90302;,
 709.62781;-99.33960;-751.90302;,
 1138.55579;-99.33960;-751.90302;,
 924.09198;2110.44482;-574.46637;,
 1075.74097;2110.44482;-699.93219;,
 924.09198;2110.44482;-751.90302;,
 924.09198;2110.44482;-574.46637;,
 1138.55579;2110.44482;-574.46637;,
 924.09198;2110.44482;-574.46637;,
 1075.74097;2110.44482;-448.99860;,
 924.09198;2110.44482;-574.46637;,
 924.09198;2110.44482;-397.02841;,
 924.09198;2110.44482;-574.46637;,
 772.44299;2110.44482;-448.99860;,
 924.09198;2110.44482;-574.46637;,
 709.62781;2110.44482;-574.46637;,
 924.09198;2110.44482;-574.46637;,
 772.44299;2110.44482;-699.93219;,
 924.09198;2110.44482;-574.46637;,
 924.09198;2110.44482;-751.90302;,
 709.62781;2175.50586;-751.90302;,
 1138.55579;2175.50586;-751.90302;,
 1138.55579;1987.15137;-751.90302;,
 709.62781;1987.15137;-751.90302;,
 1138.55579;2175.50586;-751.90302;,
 1138.55579;2175.50586;-397.02841;,
 1138.55579;1987.15137;-397.02841;,
 1138.55579;1987.15137;-751.90302;,
 1138.55579;2175.50586;-397.02841;,
 709.62781;2175.50586;-397.02841;,
 709.62781;1987.15137;-397.02841;,
 1138.55579;1987.15137;-397.02841;,
 709.62781;2175.50586;-397.02841;,
 709.62781;2175.50586;-751.90302;,
 709.62781;1987.15137;-751.90302;,
 709.62781;1987.15137;-397.02841;,
 1138.55579;2175.50586;-751.90302;,
 709.62781;2175.50586;-751.90302;,
 709.62781;1987.15137;-751.90302;,
 1138.55579;1987.15137;-751.90302;,
 924.09198;2088.81592;-710.68518;,
 1040.51440;2088.81592;-670.78821;,
 1040.51440;-80.65900;-670.78821;,
 924.09198;-80.65900;-710.68518;,
 1088.74023;2088.81592;-574.46637;,
 1088.74023;-80.65900;-574.46637;,
 1040.51440;2088.81592;-478.14261;,
 1040.51440;-80.65900;-478.14261;,
 924.09198;2088.81592;-438.24521;,
 924.09198;-80.65900;-438.24521;,
 807.66882;2088.81592;-478.14261;,
 807.66882;-80.65900;-478.14261;,
 759.44360;2088.81592;-574.46637;,
 759.44360;-80.65900;-574.46637;,
 807.66882;2088.81592;-670.78821;,
 807.66882;-80.65900;-670.78821;,
 924.09198;2088.81592;-710.68518;,
 924.09198;-80.65900;-710.68518;,
 924.09198;2088.81592;-574.46637;,
 924.09198;2088.81592;-574.46637;,
 924.09198;2088.81592;-574.46637;,
 924.09198;2088.81592;-574.46637;,
 924.09198;2088.81592;-574.46637;,
 924.09198;2088.81592;-574.46637;,
 924.09198;2088.81592;-574.46637;,
 924.09198;2088.81592;-574.46637;,
 924.09198;-80.65900;-574.46637;,
 924.09198;-80.65900;-574.46637;,
 924.09198;-80.65900;-574.46637;,
 924.09198;-80.65900;-574.46637;,
 924.09198;-80.65900;-574.46637;,
 924.09198;-80.65900;-574.46637;,
 924.09198;-80.65900;-574.46637;,
 924.09198;-80.65900;-574.46637;,
 924.09198;-69.87740;40.21940;,
 924.09198;-69.87740;-137.21761;,
 1075.74097;-69.87740;-85.24740;,
 924.09198;-69.87740;40.21940;,
 1138.55579;-69.87740;40.21940;,
 924.09198;-69.87740;40.21940;,
 1075.74097;-69.87740;165.68680;,
 924.09198;-69.87740;40.21940;,
 924.09198;-69.87740;217.65660;,
 924.09198;-69.87740;40.21940;,
 772.44299;-69.87740;165.68680;,
 924.09198;-69.87740;40.21940;,
 709.62781;-69.87740;40.21940;,
 924.09198;-69.87740;40.21940;,
 772.44299;-69.87740;-85.24740;,
 924.09198;-69.87740;40.21940;,
 924.09198;-69.87740;-137.21761;,
 709.62781;89.01840;-137.21761;,
 1138.55579;89.01840;-137.21761;,
 1138.55579;-99.33960;-137.21761;,
 709.62781;-99.33960;-137.21761;,
 1138.55579;89.01840;-137.21761;,
 1138.55579;89.01840;217.65660;,
 1138.55579;-99.33960;217.65660;,
 1138.55579;-99.33960;-137.21761;,
 1138.55579;89.01840;217.65660;,
 709.62781;89.01840;217.65660;,
 709.62781;-99.33960;217.65660;,
 1138.55579;-99.33960;217.65660;,
 709.62781;89.01840;217.65660;,
 709.62781;89.01840;-137.21761;,
 709.62781;-99.33960;-137.21761;,
 709.62781;-99.33960;217.65660;,
 1138.55579;89.01840;-137.21761;,
 709.62781;89.01840;-137.21761;,
 709.62781;-99.33960;-137.21761;,
 1138.55579;-99.33960;-137.21761;,
 924.09198;2110.44482;40.21940;,
 1075.74097;2110.44482;-85.24740;,
 924.09198;2110.44482;-137.21761;,
 924.09198;2110.44482;40.21940;,
 1138.55579;2110.44482;40.21940;,
 924.09198;2110.44482;40.21940;,
 1075.74097;2110.44482;165.68680;,
 924.09198;2110.44482;40.21940;,
 924.09198;2110.44482;217.65660;,
 924.09198;2110.44482;40.21940;,
 772.44299;2110.44482;165.68680;,
 924.09198;2110.44482;40.21940;,
 709.62781;2110.44482;40.21940;,
 924.09198;2110.44482;40.21940;,
 772.44299;2110.44482;-85.24740;,
 924.09198;2110.44482;40.21940;,
 924.09198;2110.44482;-137.21761;,
 709.62781;2175.50586;-137.21761;,
 1138.55579;2175.50586;-137.21761;,
 1138.55579;1987.15137;-137.21761;,
 709.62781;1987.15137;-137.21761;,
 1138.55579;2175.50586;-137.21761;,
 1138.55579;2175.50586;217.65660;,
 1138.55579;1987.15137;217.65660;,
 1138.55579;1987.15137;-137.21761;,
 1138.55579;2175.50586;217.65660;,
 709.62781;2175.50586;217.65660;,
 709.62781;1987.15137;217.65660;,
 1138.55579;1987.15137;217.65660;,
 709.62781;2175.50586;217.65660;,
 709.62781;2175.50586;-137.21761;,
 709.62781;1987.15137;-137.21761;,
 709.62781;1987.15137;217.65660;,
 1138.55579;2175.50586;-137.21761;,
 709.62781;2175.50586;-137.21761;,
 709.62781;1987.15137;-137.21761;,
 1138.55579;1987.15137;-137.21761;,
 924.09198;2088.81592;-96.00080;,
 1040.51440;2088.81592;-56.10300;,
 1040.51440;-80.65900;-56.10300;,
 924.09198;-80.65900;-96.00080;,
 1088.74023;2088.81592;40.21940;,
 1088.74023;-80.65900;40.21940;,
 1040.51440;2088.81592;136.54221;,
 1040.51440;-80.65900;136.54221;,
 924.09198;2088.81592;176.44020;,
 924.09198;-80.65900;176.44020;,
 807.66882;2088.81592;136.54221;,
 807.66882;-80.65900;136.54221;,
 759.44360;2088.81592;40.21940;,
 759.44360;-80.65900;40.21940;,
 807.66882;2088.81592;-56.10300;,
 807.66882;-80.65900;-56.10300;,
 924.09198;2088.81592;-96.00080;,
 924.09198;-80.65900;-96.00080;,
 924.09198;2088.81592;40.21940;,
 924.09198;2088.81592;40.21940;,
 924.09198;2088.81592;40.21940;,
 924.09198;2088.81592;40.21940;,
 924.09198;2088.81592;40.21940;,
 924.09198;2088.81592;40.21940;,
 924.09198;2088.81592;40.21940;,
 924.09198;2088.81592;40.21940;,
 924.09198;-80.65900;40.21940;,
 924.09198;-80.65900;40.21940;,
 924.09198;-80.65900;40.21940;,
 924.09198;-80.65900;40.21940;,
 924.09198;-80.65900;40.21940;,
 924.09198;-80.65900;40.21940;,
 924.09198;-80.65900;40.21940;,
 924.09198;-80.65900;40.21940;,
 924.09198;-69.87740;592.37097;,
 924.09198;-69.87740;414.93381;,
 1075.74097;-69.87740;466.90421;,
 924.09198;-69.87740;592.37097;,
 1138.55579;-69.87740;592.37097;,
 924.09198;-69.87740;592.37097;,
 1075.74097;-69.87740;717.83820;,
 924.09198;-69.87740;592.37097;,
 924.09198;-69.87740;769.80780;,
 924.09198;-69.87740;592.37097;,
 772.44299;-69.87740;717.83820;,
 924.09198;-69.87740;592.37097;,
 709.62781;-69.87740;592.37097;,
 924.09198;-69.87740;592.37097;,
 772.44299;-69.87740;466.90421;,
 924.09198;-69.87740;592.37097;,
 924.09198;-69.87740;414.93381;,
 709.62781;89.01840;414.93381;,
 1138.55579;89.01840;414.93381;,
 1138.55579;-99.33960;414.93381;,
 709.62781;-99.33960;414.93381;,
 1138.55579;89.01840;414.93381;,
 1138.55579;89.01840;769.80780;,
 1138.55579;-99.33960;769.80780;,
 1138.55579;-99.33960;414.93381;,
 1138.55579;89.01840;769.80780;,
 709.62781;89.01840;769.80780;,
 709.62781;-99.33960;769.80780;,
 1138.55579;-99.33960;769.80780;,
 709.62781;89.01840;769.80780;,
 709.62781;89.01840;414.93381;,
 709.62781;-99.33960;414.93381;,
 709.62781;-99.33960;769.80780;,
 1138.55579;89.01840;414.93381;,
 709.62781;89.01840;414.93381;,
 709.62781;-99.33960;414.93381;,
 1138.55579;-99.33960;414.93381;,
 924.09198;2110.44482;592.37097;,
 1075.74097;2110.44482;466.90421;,
 924.09198;2110.44482;414.93381;,
 924.09198;2110.44482;592.37097;,
 1138.55579;2110.44482;592.37097;,
 924.09198;2110.44482;592.37097;,
 1075.74097;2110.44482;717.83820;,
 924.09198;2110.44482;592.37097;,
 924.09198;2110.44482;769.80780;,
 924.09198;2110.44482;592.37097;,
 772.44299;2110.44482;717.83820;,
 924.09198;2110.44482;592.37097;,
 709.62781;2110.44482;592.37097;,
 924.09198;2110.44482;592.37097;,
 772.44299;2110.44482;466.90421;,
 924.09198;2110.44482;592.37097;,
 924.09198;2110.44482;414.93381;,
 709.62781;2175.50586;414.93381;,
 1138.55579;2175.50586;414.93381;,
 1138.55579;1987.15137;414.93381;,
 709.62781;1987.15137;414.93381;,
 1138.55579;2175.50586;414.93381;,
 1138.55579;2175.50586;769.80780;,
 1138.55579;1987.15137;769.80780;,
 1138.55579;1987.15137;414.93381;,
 1138.55579;2175.50586;769.80780;,
 709.62781;2175.50586;769.80780;,
 709.62781;1987.15137;769.80780;,
 1138.55579;1987.15137;769.80780;,
 709.62781;2175.50586;769.80780;,
 709.62781;2175.50586;414.93381;,
 709.62781;1987.15137;414.93381;,
 709.62781;1987.15137;769.80780;,
 1138.55579;2175.50586;414.93381;,
 709.62781;2175.50586;414.93381;,
 709.62781;1987.15137;414.93381;,
 1138.55579;1987.15137;414.93381;,
 924.09198;2088.81592;456.15079;,
 1040.51440;2088.81592;496.04861;,
 1040.51440;-80.65900;496.04861;,
 924.09198;-80.65900;456.15079;,
 1088.74023;2088.81592;592.37097;,
 1088.74023;-80.65900;592.37097;,
 1040.51440;2088.81592;688.69360;,
 1040.51440;-80.65900;688.69360;,
 924.09198;2088.81592;728.59137;,
 924.09198;-80.65900;728.59137;,
 807.66882;2088.81592;688.69360;,
 807.66882;-80.65900;688.69360;,
 759.44360;2088.81592;592.37097;,
 759.44360;-80.65900;592.37097;,
 807.66882;2088.81592;496.04861;,
 807.66882;-80.65900;496.04861;,
 924.09198;2088.81592;456.15079;,
 924.09198;-80.65900;456.15079;,
 924.09198;2088.81592;592.37097;,
 924.09198;2088.81592;592.37097;,
 924.09198;2088.81592;592.37097;,
 924.09198;2088.81592;592.37097;,
 924.09198;2088.81592;592.37097;,
 924.09198;2088.81592;592.37097;,
 924.09198;2088.81592;592.37097;,
 924.09198;2088.81592;592.37097;,
 924.09198;-80.65900;592.37097;,
 924.09198;-80.65900;592.37097;,
 924.09198;-80.65900;592.37097;,
 924.09198;-80.65900;592.37097;,
 924.09198;-80.65900;592.37097;,
 924.09198;-80.65900;592.37097;,
 924.09198;-80.65900;592.37097;,
 924.09198;-80.65900;592.37097;,
 924.09198;-69.87740;1186.19580;,
 924.09198;-69.87740;1008.75842;,
 1075.74097;-69.87740;1060.72705;,
 924.09198;-69.87740;1186.19580;,
 1138.55579;-69.87740;1186.19580;,
 924.09198;-69.87740;1186.19580;,
 1075.74097;-69.87740;1311.66284;,
 924.09198;-69.87740;1186.19580;,
 924.09198;-69.87740;1363.63184;,
 924.09198;-69.87740;1186.19580;,
 772.44299;-69.87740;1311.66284;,
 924.09198;-69.87740;1186.19580;,
 709.62781;-69.87740;1186.19580;,
 924.09198;-69.87740;1186.19580;,
 772.44299;-69.87740;1060.72705;,
 924.09198;-69.87740;1186.19580;,
 924.09198;-69.87740;1008.75842;,
 709.62781;89.01840;1008.75842;,
 1138.55579;89.01840;1008.75842;,
 1138.55579;-99.33960;1008.75842;,
 709.62781;-99.33960;1008.75842;,
 1138.55579;89.01840;1008.75842;,
 1138.55579;89.01840;1363.63184;,
 1138.55579;-99.33960;1363.63184;,
 1138.55579;-99.33960;1008.75842;,
 1138.55579;89.01840;1363.63184;,
 709.62781;89.01840;1363.63184;,
 709.62781;-99.33960;1363.63184;,
 1138.55579;-99.33960;1363.63184;,
 709.62781;89.01840;1363.63184;,
 709.62781;89.01840;1008.75842;,
 709.62781;-99.33960;1008.75842;,
 709.62781;-99.33960;1363.63184;,
 1138.55579;89.01840;1008.75842;,
 709.62781;89.01840;1008.75842;,
 709.62781;-99.33960;1008.75842;,
 1138.55579;-99.33960;1008.75842;,
 924.09198;-80.65900;1186.19580;,
 924.09198;-80.65900;1049.97498;,
 1040.51440;-80.65900;1089.87183;,
 924.09198;-80.65900;1186.19580;,
 1088.74023;-80.65900;1186.19580;,
 924.09198;-80.65900;1186.19580;,
 1040.51440;-80.65900;1282.51843;,
 924.09198;-80.65900;1186.19580;,
 924.09198;-80.65900;1322.41443;,
 924.09198;-80.65900;1186.19580;,
 807.66882;-80.65900;1282.51843;,
 924.09198;-80.65900;1186.19580;,
 759.44360;-80.65900;1186.19580;,
 924.09198;-80.65900;1186.19580;,
 807.66882;-80.65900;1089.87183;,
 924.09198;-80.65900;1186.19580;,
 924.09198;-80.65900;1049.97498;,
 1040.51440;1223.25183;1089.87183;,
 1088.74023;1097.11035;1186.19580;,
 924.09198;1223.25183;1049.97498;,
 1040.51440;1223.25183;1282.51843;,
 924.09198;1223.25183;1049.97498;,
 807.66882;1223.25183;1089.87183;,
 924.09198;1223.25183;1322.41443;,
 759.44360;1223.25183;1186.19580;,
 807.66882;1122.30664;1282.51843;;
 
 189;
 3;0,1,2;,
 3;3,2,4;,
 3;5,4,6;,
 3;7,6,8;,
 3;9,8,10;,
 3;11,10,12;,
 3;13,12,14;,
 3;15,14,16;,
 4;17,18,19,20;,
 4;21,22,23,24;,
 4;25,26,27,28;,
 4;29,30,31,32;,
 4;29,22,33,34;,
 4;35,36,23,32;,
 3;37,38,39;,
 3;40,41,38;,
 3;42,43,41;,
 3;44,45,43;,
 3;46,47,45;,
 3;48,49,47;,
 3;50,51,49;,
 3;52,53,51;,
 4;54,55,56,57;,
 4;58,59,60,61;,
 4;62,63,64,65;,
 4;66,67,68,69;,
 4;66,59,70,71;,
 4;72,73,60,69;,
 4;74,75,76,77;,
 4;75,78,79,76;,
 4;78,80,81,79;,
 4;80,82,83,81;,
 4;82,84,85,83;,
 4;84,86,87,85;,
 4;86,88,89,87;,
 4;88,90,91,89;,
 3;92,75,74;,
 3;93,78,75;,
 3;94,80,78;,
 3;95,82,80;,
 3;96,84,82;,
 3;97,86,84;,
 3;98,88,86;,
 3;99,90,88;,
 3;100,77,76;,
 3;101,76,79;,
 3;102,79,81;,
 3;103,81,83;,
 3;104,83,85;,
 3;105,85,87;,
 3;106,87,89;,
 3;107,89,91;,
 3;108,109,110;,
 3;111,110,112;,
 3;113,112,114;,
 3;115,114,116;,
 3;117,116,118;,
 3;119,118,120;,
 3;121,120,122;,
 3;123,122,124;,
 4;125,126,127,128;,
 4;129,130,131,132;,
 4;133,134,135,136;,
 4;137,138,139,140;,
 4;137,130,141,142;,
 4;143,144,131,140;,
 3;145,146,147;,
 3;148,149,146;,
 3;150,151,149;,
 3;152,153,151;,
 3;154,155,153;,
 3;156,157,155;,
 3;158,159,157;,
 3;160,161,159;,
 4;162,163,164,165;,
 4;166,167,168,169;,
 4;170,171,172,173;,
 4;174,175,176,177;,
 4;174,167,178,179;,
 4;180,181,168,177;,
 4;182,183,184,185;,
 4;183,186,187,184;,
 4;186,188,189,187;,
 4;188,190,191,189;,
 4;190,192,193,191;,
 4;192,194,195,193;,
 4;194,196,197,195;,
 4;196,198,199,197;,
 3;200,183,182;,
 3;201,186,183;,
 3;202,188,186;,
 3;203,190,188;,
 3;204,192,190;,
 3;205,194,192;,
 3;206,196,194;,
 3;207,198,196;,
 3;208,185,184;,
 3;209,184,187;,
 3;210,187,189;,
 3;211,189,191;,
 3;212,191,193;,
 3;213,193,195;,
 3;214,195,197;,
 3;215,197,199;,
 3;216,217,218;,
 3;219,218,220;,
 3;221,220,222;,
 3;223,222,224;,
 3;225,224,226;,
 3;227,226,228;,
 3;229,228,230;,
 3;231,230,232;,
 4;233,234,235,236;,
 4;237,238,239,240;,
 4;241,242,243,244;,
 4;245,246,247,248;,
 4;245,238,249,250;,
 4;251,252,239,248;,
 3;253,254,255;,
 3;256,257,254;,
 3;258,259,257;,
 3;260,261,259;,
 3;262,263,261;,
 3;264,265,263;,
 3;266,267,265;,
 3;268,269,267;,
 4;270,271,272,273;,
 4;274,275,276,277;,
 4;278,279,280,281;,
 4;282,283,284,285;,
 4;282,275,286,287;,
 4;288,289,276,285;,
 4;290,291,292,293;,
 4;291,294,295,292;,
 4;294,296,297,295;,
 4;296,298,299,297;,
 4;298,300,301,299;,
 4;300,302,303,301;,
 4;302,304,305,303;,
 4;304,306,307,305;,
 3;308,291,290;,
 3;309,294,291;,
 3;310,296,294;,
 3;311,298,296;,
 3;312,300,298;,
 3;313,302,300;,
 3;314,304,302;,
 3;315,306,304;,
 3;316,293,292;,
 3;317,292,295;,
 3;318,295,297;,
 3;319,297,299;,
 3;320,299,301;,
 3;321,301,303;,
 3;322,303,305;,
 3;323,305,307;,
 3;324,325,326;,
 3;327,326,328;,
 3;329,328,330;,
 3;331,330,332;,
 3;333,332,334;,
 3;335,334,336;,
 3;337,336,338;,
 3;339,338,340;,
 4;341,342,343,344;,
 4;345,346,347,348;,
 4;349,350,351,352;,
 4;353,354,355,356;,
 4;353,346,357,358;,
 4;359,360,347,356;,
 3;361,362,363;,
 3;364,363,365;,
 3;366,365,367;,
 3;368,367,369;,
 3;370,369,371;,
 3;372,371,373;,
 3;374,373,375;,
 3;376,375,377;,
 4;378,379,365,363;,
 4;378,363,362,380;,
 4;379,381,367,365;,
 4;382,377,375,383;,
 4;381,384,369,367;,
 4;383,375,373,385;,
 4;384,386,371,369;,
 4;385,373,371,386;,
 4;382,383,385,386;,
 4;384,381,379,378;,
 4;378,382,386,384;;
 
 MeshMaterialList {
  4;
  189;
  0,
  0,
  0,
  0,
  0,
  0,
  0,
  0,
  0,
  0,
  0,
  0,
  0,
  0,
  0,
  0,
  0,
  0,
  0,
  0,
  0,
  0,
  0,
  0,
  0,
  0,
  0,
  0,
  0,
  0,
  0,
  0,
  0,
  0,
  0,
  0,
  0,
  0,
  0,
  0,
  0,
  0,
  0,
  0,
  0,
  0,
  0,
  0,
  0,
  0,
  0,
  0,
  0,
  0,
  0,
  0,
  0,
  0,
  0,
  0,
  0,
  0,
  0,
  0,
  0,
  0,
  0,
  0,
  0,
  0,
  0,
  0,
  0,
  0,
  0,
  0,
  0,
  0,
  0,
  0,
  0,
  0,
  0,
  0,
  0,
  0,
  0,
  0,
  0,
  0,
  0,
  0,
  0,
  0,
  0,
  0,
  0,
  0,
  0,
  0,
  0,
  0,
  0,
  0,
  0,
  0,
  0,
  0,
  0,
  0,
  0,
  0,
  0,
  0,
  0,
  0,
  0,
  0,
  0,
  0,
  0,
  0,
  0,
  0,
  0,
  0,
  0,
  0,
  0,
  0,
  0,
  0,
  0,
  0,
  0,
  0,
  0,
  0,
  0,
  0,
  0,
  0,
  0,
  0,
  0,
  0,
  0,
  0,
  0,
  0,
  0,
  0,
  0,
  0,
  0,
  0,
  0,
  0,
  0,
  0,
  0,
  0,
  0,
  0,
  0,
  0,
  0,
  0,
  0,
  0,
  0,
  0,
  0,
  0,
  0,
  0,
  0,
  0,
  0,
  0,
  0,
  0,
  0,
  0,
  0,
  0,
  2,
  2,
  2;;
  Material {
   0.290000;0.290000;0.290000;1.000000;;
   5.000000;
   0.000000;0.000000;0.000000;;
   0.570000;0.570000;0.570000;;
   TextureFilename {
    "C:\\Users\\student\\Desktop\\GIT\\エディター受け取り用\\data\\TEXTURE\\mesh.jpg";
   }
  }
  Material {
   0.144314;0.552157;0.141176;1.000000;;
   5.000000;
   0.000000;0.000000;0.000000;;
   0.000000;0.000000;0.000000;;
   TextureFilename {
    "af18.jpg";
   }
  }
  Material {
   0.780800;0.762400;0.800000;1.000000;;
   5.000000;
   0.000000;0.000000;0.000000;;
   0.448960;0.438380;0.460000;;
  }
  Material {
   0.000000;0.800000;0.800000;1.000000;;
   5.000000;
   0.000000;0.000000;0.000000;;
   0.000000;0.000000;0.000000;;
   TextureFilename {
    "C:\\Users\\student\\Desktop\\GIT\\エディター受け取り用\\data\\TEXTURE\\icefloor.jpg";
   }
  }
 }
 MeshNormals {
  41;
  0.000000;-1.000000;0.000000;,
  0.000000;0.000000;-1.000000;,
  1.000000;0.000000;0.000000;,
  0.000000;0.000000;1.000000;,
  0.000000;1.000000;0.000000;,
  0.000001;0.000000;-1.000000;,
  0.658165;0.000000;-0.752873;,
  1.000000;0.000000;-0.000004;,
  0.658170;0.000000;0.752870;,
  0.000001;0.000000;1.000000;,
  -0.658171;0.000000;0.752869;,
  -1.000000;0.000000;-0.000004;,
  -0.658167;0.000000;-0.752872;,
  0.000001;0.000000;-1.000000;,
  0.658169;0.000000;-0.752870;,
  1.000000;0.000000;-0.000001;,
  0.658170;0.000000;0.752869;,
  0.000001;0.000000;1.000000;,
  -0.658171;0.000000;0.752868;,
  -1.000000;0.000000;-0.000001;,
  -0.658170;0.000000;-0.752869;,
  1.000000;0.000000;-0.000001;,
  0.658169;0.000000;0.752870;,
  0.000001;0.000000;1.000000;,
  -0.658170;0.000000;0.752869;,
  -1.000000;0.000000;-0.000001;,
  -0.658170;0.000000;-0.752869;,
  0.658168;0.000000;-0.752871;,
  0.943937;0.330127;0.000002;,
  0.000001;0.000000;-1.000000;,
  0.658164;0.000000;0.752875;,
  -0.658170;0.000000;-0.752870;,
  0.000001;0.000000;1.000000;,
  -1.000000;0.000000;0.000003;,
  -0.658165;0.000000;0.752874;,
  -1.000000;0.000000;0.000000;,
  1.000000;0.000000;0.000003;,
  0.049147;0.971039;0.233812;,
  0.437347;0.796562;0.417392;,
  0.122520;0.992466;0.000000;,
  0.566963;0.823744;0.000000;;
  189;
  3;0,0,0;,
  3;0,0,0;,
  3;0,0,0;,
  3;0,0,0;,
  3;0,0,0;,
  3;0,0,0;,
  3;0,0,0;,
  3;0,0,0;,
  4;1,1,1,1;,
  4;2,2,2,2;,
  4;3,3,3,3;,
  4;35,35,35,35;,
  4;4,4,4,4;,
  4;0,0,0,0;,
  3;4,4,4;,
  3;4,4,4;,
  3;4,4,4;,
  3;4,4,4;,
  3;4,4,4;,
  3;4,4,4;,
  3;4,4,4;,
  3;4,4,4;,
  4;1,1,1,1;,
  4;2,2,2,2;,
  4;3,3,3,3;,
  4;35,35,35,35;,
  4;4,4,4,4;,
  4;0,0,0,0;,
  4;5,6,6,5;,
  4;6,7,7,6;,
  4;7,8,8,7;,
  4;8,9,9,8;,
  4;9,10,10,9;,
  4;10,11,11,10;,
  4;11,12,12,11;,
  4;12,5,5,12;,
  3;4,4,4;,
  3;4,4,4;,
  3;4,4,4;,
  3;4,4,4;,
  3;4,4,4;,
  3;4,4,4;,
  3;4,4,4;,
  3;4,4,4;,
  3;0,0,0;,
  3;0,0,0;,
  3;0,0,0;,
  3;0,0,0;,
  3;0,0,0;,
  3;0,0,0;,
  3;0,0,0;,
  3;0,0,0;,
  3;0,0,0;,
  3;0,0,0;,
  3;0,0,0;,
  3;0,0,0;,
  3;0,0,0;,
  3;0,0,0;,
  3;0,0,0;,
  3;0,0,0;,
  4;1,1,1,1;,
  4;2,2,2,2;,
  4;3,3,3,3;,
  4;35,35,35,35;,
  4;4,4,4,4;,
  4;0,0,0,0;,
  3;4,4,4;,
  3;4,4,4;,
  3;4,4,4;,
  3;4,4,4;,
  3;4,4,4;,
  3;4,4,4;,
  3;4,4,4;,
  3;4,4,4;,
  4;1,1,1,1;,
  4;2,2,2,2;,
  4;3,3,3,3;,
  4;35,35,35,35;,
  4;4,4,4,4;,
  4;0,0,0,0;,
  4;13,14,14,13;,
  4;14,15,15,14;,
  4;15,16,16,15;,
  4;16,17,17,16;,
  4;17,18,18,17;,
  4;18,19,19,18;,
  4;19,20,20,19;,
  4;20,13,13,20;,
  3;4,4,4;,
  3;4,4,4;,
  3;4,4,4;,
  3;4,4,4;,
  3;4,4,4;,
  3;4,4,4;,
  3;4,4,4;,
  3;4,4,4;,
  3;0,0,0;,
  3;0,0,0;,
  3;0,0,0;,
  3;0,0,0;,
  3;0,0,0;,
  3;0,0,0;,
  3;0,0,0;,
  3;0,0,0;,
  3;0,0,0;,
  3;0,0,0;,
  3;0,0,0;,
  3;0,0,0;,
  3;0,0,0;,
  3;0,0,0;,
  3;0,0,0;,
  3;0,0,0;,
  4;1,1,1,1;,
  4;2,2,2,2;,
  4;3,3,3,3;,
  4;35,35,35,35;,
  4;4,4,4,4;,
  4;0,0,0,0;,
  3;4,4,4;,
  3;4,4,4;,
  3;4,4,4;,
  3;4,4,4;,
  3;4,4,4;,
  3;4,4,4;,
  3;4,4,4;,
  3;4,4,4;,
  4;1,1,1,1;,
  4;2,2,2,2;,
  4;3,3,3,3;,
  4;35,35,35,35;,
  4;4,4,4,4;,
  4;0,0,0,0;,
  4;13,14,14,13;,
  4;14,21,21,14;,
  4;21,22,22,21;,
  4;22,23,23,22;,
  4;23,24,24,23;,
  4;24,25,25,24;,
  4;25,26,26,25;,
  4;26,13,13,26;,
  3;4,4,4;,
  3;4,4,4;,
  3;4,4,4;,
  3;4,4,4;,
  3;4,4,4;,
  3;4,4,4;,
  3;4,4,4;,
  3;4,4,4;,
  3;0,0,0;,
  3;0,0,0;,
  3;0,0,0;,
  3;0,0,0;,
  3;0,0,0;,
  3;0,0,0;,
  3;0,0,0;,
  3;0,0,0;,
  3;0,0,0;,
  3;0,0,0;,
  3;0,0,0;,
  3;0,0,0;,
  3;0,0,0;,
  3;0,0,0;,
  3;0,0,0;,
  3;0,0,0;,
  4;1,1,1,1;,
  4;2,2,2,2;,
  4;3,3,3,3;,
  4;35,35,35,35;,
  4;4,4,4,4;,
  4;0,0,0,0;,
  3;0,0,0;,
  3;0,0,0;,
  3;0,0,0;,
  3;0,0,0;,
  3;0,0,0;,
  3;0,0,0;,
  3;0,0,0;,
  3;0,0,0;,
  4;27,28,36,27;,
  4;27,27,29,29;,
  4;28,30,30,36;,
  4;29,29,31,31;,
  4;30,32,32,30;,
  4;31,31,33,33;,
  4;32,34,34,32;,
  4;33,33,34,34;,
  4;37,38,38,37;,
  4;39,40,28,39;,
  4;39,37,37,39;;
 }
 MeshTextureCoords {
  387;
  0.062500;1.000000;,
  0.000000;1.000000;,
  0.125000;1.000000;,
  0.187500;1.000000;,
  0.250000;1.000000;,
  0.312500;1.000000;,
  0.375000;1.000000;,
  0.437500;1.000000;,
  0.500000;1.000000;,
  0.562500;1.000000;,
  0.625000;1.000000;,
  0.687500;1.000000;,
  0.750000;1.000000;,
  0.812500;1.000000;,
  0.875000;1.000000;,
  0.937500;1.000000;,
  1.000000;1.000000;,
  0.000000;0.000000;,
  1.000000;0.000000;,
  1.000000;1.000000;,
  0.000000;1.000000;,
  0.000000;0.000000;,
  1.000000;0.000000;,
  1.000000;1.000000;,
  0.000000;1.000000;,
  0.000000;0.000000;,
  1.000000;0.000000;,
  1.000000;1.000000;,
  0.000000;1.000000;,
  0.000000;0.000000;,
  1.000000;0.000000;,
  1.000000;1.000000;,
  0.000000;1.000000;,
  1.000000;1.000000;,
  0.000000;1.000000;,
  0.000000;0.000000;,
  1.000000;0.000000;,
  0.062500;0.000000;,
  0.125000;0.000000;,
  0.000000;0.000000;,
  0.187500;0.000000;,
  0.250000;0.000000;,
  0.312500;0.000000;,
  0.375000;0.000000;,
  0.437500;0.000000;,
  0.500000;0.000000;,
  0.562500;0.000000;,
  0.625000;0.000000;,
  0.687500;0.000000;,
  0.750000;0.000000;,
  0.812500;0.000000;,
  0.875000;0.000000;,
  0.937500;0.000000;,
  1.000000;0.000000;,
  0.000000;0.000000;,
  1.000000;0.000000;,
  1.000000;1.000000;,
  0.000000;1.000000;,
  0.000000;0.000000;,
  1.000000;0.000000;,
  1.000000;1.000000;,
  0.000000;1.000000;,
  0.000000;0.000000;,
  1.000000;0.000000;,
  1.000000;1.000000;,
  0.000000;1.000000;,
  0.000000;0.000000;,
  1.000000;0.000000;,
  1.000000;1.000000;,
  0.000000;1.000000;,
  1.000000;1.000000;,
  0.000000;1.000000;,
  0.000000;0.000000;,
  1.000000;0.000000;,
  0.000000;0.000000;,
  0.125000;0.000000;,
  0.125000;1.000000;,
  0.000000;1.000000;,
  0.250000;0.000000;,
  0.250000;1.000000;,
  0.375000;0.000000;,
  0.375000;1.000000;,
  0.500000;0.000000;,
  0.500000;1.000000;,
  0.625000;0.000000;,
  0.625000;1.000000;,
  0.750000;0.000000;,
  0.750000;1.000000;,
  0.875000;0.000000;,
  0.875000;1.000000;,
  1.000000;0.000000;,
  1.000000;1.000000;,
  0.062500;0.000000;,
  0.187500;0.000000;,
  0.312500;0.000000;,
  0.437500;0.000000;,
  0.562500;0.000000;,
  0.687500;0.000000;,
  0.812500;0.000000;,
  0.937500;0.000000;,
  0.062500;1.000000;,
  0.187500;1.000000;,
  0.312500;1.000000;,
  0.437500;1.000000;,
  0.562500;1.000000;,
  0.687500;1.000000;,
  0.812500;1.000000;,
  0.937500;1.000000;,
  0.062500;1.000000;,
  0.000000;1.000000;,
  0.125000;1.000000;,
  0.187500;1.000000;,
  0.250000;1.000000;,
  0.312500;1.000000;,
  0.375000;1.000000;,
  0.437500;1.000000;,
  0.500000;1.000000;,
  0.562500;1.000000;,
  0.625000;1.000000;,
  0.687500;1.000000;,
  0.750000;1.000000;,
  0.812500;1.000000;,
  0.875000;1.000000;,
  0.937500;1.000000;,
  1.000000;1.000000;,
  0.000000;0.000000;,
  1.000000;0.000000;,
  1.000000;1.000000;,
  0.000000;1.000000;,
  0.000000;0.000000;,
  1.000000;0.000000;,
  1.000000;1.000000;,
  0.000000;1.000000;,
  0.000000;0.000000;,
  1.000000;0.000000;,
  1.000000;1.000000;,
  0.000000;1.000000;,
  0.000000;0.000000;,
  1.000000;0.000000;,
  1.000000;1.000000;,
  0.000000;1.000000;,
  1.000000;1.000000;,
  0.000000;1.000000;,
  0.000000;0.000000;,
  1.000000;0.000000;,
  0.062500;0.000000;,
  0.125000;0.000000;,
  0.000000;0.000000;,
  0.187500;0.000000;,
  0.250000;0.000000;,
  0.312500;0.000000;,
  0.375000;0.000000;,
  0.437500;0.000000;,
  0.500000;0.000000;,
  0.562500;0.000000;,
  0.625000;0.000000;,
  0.687500;0.000000;,
  0.750000;0.000000;,
  0.812500;0.000000;,
  0.875000;0.000000;,
  0.937500;0.000000;,
  1.000000;0.000000;,
  0.000000;0.000000;,
  1.000000;0.000000;,
  1.000000;1.000000;,
  0.000000;1.000000;,
  0.000000;0.000000;,
  1.000000;0.000000;,
  1.000000;1.000000;,
  0.000000;1.000000;,
  0.000000;0.000000;,
  1.000000;0.000000;,
  1.000000;1.000000;,
  0.000000;1.000000;,
  0.000000;0.000000;,
  1.000000;0.000000;,
  1.000000;1.000000;,
  0.000000;1.000000;,
  1.000000;1.000000;,
  0.000000;1.000000;,
  0.000000;0.000000;,
  1.000000;0.000000;,
  0.000000;0.000000;,
  0.125000;0.000000;,
  0.125000;1.000000;,
  0.000000;1.000000;,
  0.250000;0.000000;,
  0.250000;1.000000;,
  0.375000;0.000000;,
  0.375000;1.000000;,
  0.500000;0.000000;,
  0.500000;1.000000;,
  0.625000;0.000000;,
  0.625000;1.000000;,
  0.750000;0.000000;,
  0.750000;1.000000;,
  0.875000;0.000000;,
  0.875000;1.000000;,
  1.000000;0.000000;,
  1.000000;1.000000;,
  0.062500;0.000000;,
  0.187500;0.000000;,
  0.312500;0.000000;,
  0.437500;0.000000;,
  0.562500;0.000000;,
  0.687500;0.000000;,
  0.812500;0.000000;,
  0.937500;0.000000;,
  0.062500;1.000000;,
  0.187500;1.000000;,
  0.312500;1.000000;,
  0.437500;1.000000;,
  0.562500;1.000000;,
  0.687500;1.000000;,
  0.812500;1.000000;,
  0.937500;1.000000;,
  0.062500;1.000000;,
  0.000000;1.000000;,
  0.125000;1.000000;,
  0.187500;1.000000;,
  0.250000;1.000000;,
  0.312500;1.000000;,
  0.375000;1.000000;,
  0.437500;1.000000;,
  0.500000;1.000000;,
  0.562500;1.000000;,
  0.625000;1.000000;,
  0.687500;1.000000;,
  0.750000;1.000000;,
  0.812500;1.000000;,
  0.875000;1.000000;,
  0.937500;1.000000;,
  1.000000;1.000000;,
  0.000000;0.000000;,
  1.000000;0.000000;,
  1.000000;1.000000;,
  0.000000;1.000000;,
  0.000000;0.000000;,
  1.000000;0.000000;,
  1.000000;1.000000;,
  0.000000;1.000000;,
  0.000000;0.000000;,
  1.000000;0.000000;,
  1.000000;1.000000;,
  0.000000;1.000000;,
  0.000000;0.000000;,
  1.000000;0.000000;,
  1.000000;1.000000;,
  0.000000;1.000000;,
  1.000000;1.000000;,
  0.000000;1.000000;,
  0.000000;0.000000;,
  1.000000;0.000000;,
  0.062500;0.000000;,
  0.125000;0.000000;,
  0.000000;0.000000;,
  0.187500;0.000000;,
  0.250000;0.000000;,
  0.312500;0.000000;,
  0.375000;0.000000;,
  0.437500;0.000000;,
  0.500000;0.000000;,
  0.562500;0.000000;,
  0.625000;0.000000;,
  0.687500;0.000000;,
  0.750000;0.000000;,
  0.812500;0.000000;,
  0.875000;0.000000;,
  0.937500;0.000000;,
  1.000000;0.000000;,
  0.000000;0.000000;,
  1.000000;0.000000;,
  1.000000;1.000000;,
  0.000000;1.000000;,
  0.000000;0.000000;,
  1.000000;0.000000;,
  1.000000;1.000000;,
  0.000000;1.000000;,
  0.000000;0.000000;,
  1.000000;0.000000;,
  1.000000;1.000000;,
  0.000000;1.000000;,
  0.000000;0.000000;,
  1.000000;0.000000;,
  1.000000;1.000000;,
  0.000000;1.000000;,
  1.000000;1.000000;,
  0.000000;1.000000;,
  0.000000;0.000000;,
  1.000000;0.000000;,
  0.000000;0.000000;,
  0.125000;0.000000;,
  0.125000;1.000000;,
  0.000000;1.000000;,
  0.250000;0.000000;,
  0.250000;1.000000;,
  0.375000;0.000000;,
  0.375000;1.000000;,
  0.500000;0.000000;,
  0.500000;1.000000;,
  0.625000;0.000000;,
  0.625000;1.000000;,
  0.750000;0.000000;,
  0.750000;1.000000;,
  0.875000;0.000000;,
  0.875000;1.000000;,
  1.000000;0.000000;,
  1.000000;1.000000;,
  0.062500;0.000000;,
  0.187500;0.000000;,
  0.312500;0.000000;,
  0.437500;0.000000;,
  0.562500;0.000000;,
  0.687500;0.000000;,
  0.812500;0.000000;,
  0.937500;0.000000;,
  0.062500;1.000000;,
  0.187500;1.000000;,
  0.312500;1.000000;,
  0.437500;1.000000;,
  0.562500;1.000000;,
  0.687500;1.000000;,
  0.812500;1.000000;,
  0.937500;1.000000;,
  0.062500;1.000000;,
  0.000000;1.000000;,
  0.125000;1.000000;,
  0.187500;1.000000;,
  0.250000;1.000000;,
  0.312500;1.000000;,
  0.375000;1.000000;,
  0.437500;1.000000;,
  0.500000;1.000000;,
  0.562500;1.000000;,
  0.625000;1.000000;,
  0.687500;1.000000;,
  0.750000;1.000000;,
  0.812500;1.000000;,
  0.875000;1.000000;,
  0.937500;1.000000;,
  1.000000;1.000000;,
  0.000000;0.000000;,
  1.000000;0.000000;,
  1.000000;1.000000;,
  0.000000;1.000000;,
  0.000000;0.000000;,
  1.000000;0.000000;,
  1.000000;1.000000;,
  0.000000;1.000000;,
  0.000000;0.000000;,
  1.000000;0.000000;,
  1.000000;1.000000;,
  0.000000;1.000000;,
  0.000000;0.000000;,
  1.000000;0.000000;,
  1.000000;1.000000;,
  0.000000;1.000000;,
  1.000000;1.000000;,
  0.000000;1.000000;,
  0.000000;0.000000;,
  1.000000;0.000000;,
  0.062500;1.000000;,
  0.000000;1.000000;,
  0.125000;1.000000;,
  0.187500;1.000000;,
  0.250000;1.000000;,
  0.312500;1.000000;,
  0.375000;1.000000;,
  0.437500;1.000000;,
  0.500000;1.000000;,
  0.562500;1.000000;,
  0.625000;1.000000;,
  0.687500;1.000000;,
  0.750000;1.000000;,
  0.812500;1.000000;,
  0.875000;1.000000;,
  0.937500;1.000000;,
  1.000000;1.000000;,
  0.125000;0.403830;,
  0.250000;0.403830;,
  0.000000;0.403830;,
  0.375000;0.403830;,
  1.000000;0.403830;,
  0.875000;0.403830;,
  0.500000;0.403830;,
  0.750000;0.403830;,
  0.625000;0.403830;;
 }
}
