xof 0302txt 0064
template Header {
 <3D82AB43-62DA-11cf-AB39-0020AF71E433>
 WORD major;
 WORD minor;
 DWORD flags;
}

template Vector {
 <3D82AB5E-62DA-11cf-AB39-0020AF71E433>
 FLOAT x;
 FLOAT y;
 FLOAT z;
}

template Coords2d {
 <F6F23F44-7686-11cf-8F52-0040333594A3>
 FLOAT u;
 FLOAT v;
}

template Matrix4x4 {
 <F6F23F45-7686-11cf-8F52-0040333594A3>
 array FLOAT matrix[16];
}

template ColorRGBA {
 <35FF44E0-6C7C-11cf-8F52-0040333594A3>
 FLOAT red;
 FLOAT green;
 FLOAT blue;
 FLOAT alpha;
}

template ColorRGB {
 <D3E16E81-7835-11cf-8F52-0040333594A3>
 FLOAT red;
 FLOAT green;
 FLOAT blue;
}

template IndexedColor {
 <1630B820-7842-11cf-8F52-0040333594A3>
 DWORD index;
 ColorRGBA indexColor;
}

template Boolean {
 <4885AE61-78E8-11cf-8F52-0040333594A3>
 WORD truefalse;
}

template Boolean2d {
 <4885AE63-78E8-11cf-8F52-0040333594A3>
 Boolean u;
 Boolean v;
}

template MaterialWrap {
 <4885AE60-78E8-11cf-8F52-0040333594A3>
 Boolean u;
 Boolean v;
}

template TextureFilename {
 <A42790E1-7810-11cf-8F52-0040333594A3>
 STRING filename;
}

template Material {
 <3D82AB4D-62DA-11cf-AB39-0020AF71E433>
 ColorRGBA faceColor;
 FLOAT power;
 ColorRGB specularColor;
 ColorRGB emissiveColor;
 [...]
}

template MeshFace {
 <3D82AB5F-62DA-11cf-AB39-0020AF71E433>
 DWORD nFaceVertexIndices;
 array DWORD faceVertexIndices[nFaceVertexIndices];
}

template MeshFaceWraps {
 <4885AE62-78E8-11cf-8F52-0040333594A3>
 DWORD nFaceWrapValues;
 Boolean2d faceWrapValues;
}

template MeshTextureCoords {
 <F6F23F40-7686-11cf-8F52-0040333594A3>
 DWORD nTextureCoords;
 array Coords2d textureCoords[nTextureCoords];
}

template MeshMaterialList {
 <F6F23F42-7686-11cf-8F52-0040333594A3>
 DWORD nMaterials;
 DWORD nFaceIndexes;
 array DWORD faceIndexes[nFaceIndexes];
 [Material]
}

template MeshNormals {
 <F6F23F43-7686-11cf-8F52-0040333594A3>
 DWORD nNormals;
 array Vector normals[nNormals];
 DWORD nFaceNormals;
 array MeshFace faceNormals[nFaceNormals];
}

template MeshVertexColors {
 <1630B821-7842-11cf-8F52-0040333594A3>
 DWORD nVertexColors;
 array IndexedColor vertexColors[nVertexColors];
}

template Mesh {
 <3D82AB44-62DA-11cf-AB39-0020AF71E433>
 DWORD nVertices;
 array Vector vertices[nVertices];
 DWORD nFaces;
 array MeshFace faces[nFaces];
 [...]
}

Header{
1;
0;
1;
}

Mesh {
 435;
 -14.66000;316.00488;0.00000;,
 30.56480;303.34656;-39.13460;,
 -14.66000;303.34656;-55.34460;,
 -14.66000;316.00488;0.00000;,
 49.29760;303.34656;0.00000;,
 -14.66000;316.00488;0.00000;,
 30.56480;303.34656;39.13460;,
 -14.66000;316.00488;0.00000;,
 -14.66000;303.34656;55.34460;,
 -14.66000;316.00488;0.00000;,
 -59.88480;303.34656;39.13460;,
 -14.66000;316.00488;0.00000;,
 -78.61740;303.34656;0.00000;,
 -14.66000;316.00488;0.00000;,
 -59.88480;303.34656;-39.13460;,
 -14.66000;316.00488;0.00000;,
 -14.66000;303.34656;-55.34460;,
 68.90440;267.29736;-72.31120;,
 -14.66000;267.29736;-102.26360;,
 103.51800;267.29736;0.00000;,
 68.90440;267.29736;72.31120;,
 -14.66000;267.29736;102.26360;,
 -98.22440;267.29736;72.31120;,
 -132.83800;267.29736;0.00000;,
 -98.22440;267.29736;-72.31120;,
 -14.66000;267.29736;-102.26360;,
 94.52220;213.34656;-94.47920;,
 -14.66000;213.34656;-133.61380;,
 139.74699;213.34656;0.00000;,
 94.52220;213.34656;94.47920;,
 -14.66000;213.34656;133.61380;,
 -123.84220;213.34656;94.47920;,
 -169.06700;213.34656;0.00000;,
 -123.84220;213.34656;-94.47920;,
 -14.66000;213.34656;-133.61380;,
 103.51800;149.70728;-102.26360;,
 -14.66000;149.70728;-144.62241;,
 152.46899;149.70728;0.00000;,
 103.51800;149.70728;102.26360;,
 -14.66000;149.70728;144.62241;,
 -132.83800;149.70728;102.26360;,
 -181.78900;149.70728;0.00000;,
 -132.83800;149.70728;-102.26360;,
 -14.66000;149.70728;-144.62241;,
 94.52220;86.06836;-94.47920;,
 -14.66000;86.06836;-133.61380;,
 139.74699;86.06836;0.00000;,
 94.52220;86.06836;94.47920;,
 -14.66000;86.06836;133.61380;,
 -123.84220;86.06836;94.47920;,
 -169.06700;86.06836;0.00000;,
 -123.84220;86.06836;-94.47920;,
 -14.66000;86.06836;-133.61380;,
 68.90440;32.11731;-72.31120;,
 -14.66000;32.11731;-102.26360;,
 103.51800;32.11731;0.00000;,
 68.90440;32.11731;72.31120;,
 -14.66000;32.11731;102.26360;,
 -98.22440;32.11731;72.31120;,
 -132.83800;32.11731;0.00000;,
 -98.22440;32.11731;-72.31120;,
 -14.66000;32.11731;-102.26360;,
 30.56480;-3.93146;-39.13460;,
 -14.66000;-3.93146;-55.34460;,
 49.29760;-3.93146;-0.00000;,
 30.56480;-3.93146;39.13460;,
 -14.66000;-3.93146;55.34460;,
 -59.88480;-3.93146;39.13460;,
 -78.61760;-3.93146;0.00000;,
 -59.88480;-3.93146;-39.13460;,
 -14.66000;-3.93146;-55.34460;,
 -14.66000;-16.59009;0.00000;,
 -14.66000;-16.59009;0.00000;,
 -14.66000;-16.59009;0.00000;,
 -14.66000;-16.59009;0.00000;,
 -14.66000;-16.59009;0.00000;,
 -14.66000;-16.59009;0.00000;,
 -14.66000;-16.59009;0.00000;,
 -14.66000;-16.59009;0.00000;,
 -14.53980;231.08813;-82.51120;,
 11.07240;223.88306;-104.67420;,
 -14.53980;223.88306;-113.85440;,
 -14.53980;231.08813;-82.51120;,
 21.68120;223.88306;-82.51120;,
 -14.53980;231.08813;-82.51120;,
 11.07240;223.88306;-60.34820;,
 -14.53980;231.08813;-82.51120;,
 -14.53980;223.88306;-51.16800;,
 -14.53980;231.08813;-82.51120;,
 -40.15180;223.88306;-60.34820;,
 -14.53980;231.08813;-82.51120;,
 -50.76060;223.88306;-82.51120;,
 -14.53980;231.08813;-82.51120;,
 -40.15180;223.88306;-104.67420;,
 -14.53980;231.08813;-82.51120;,
 -14.53980;223.88306;-113.85440;,
 32.78540;203.36597;-123.46320;,
 -14.53980;203.36597;-140.42619;,
 52.38800;203.36597;-82.51120;,
 32.78540;203.36597;-41.55920;,
 -14.53980;203.36597;-24.59640;,
 -61.86480;203.36597;-41.55920;,
 -81.46740;203.36597;-82.51120;,
 -61.86480;203.36597;-123.46320;,
 -14.53980;203.36597;-140.42619;,
 47.29340;172.65955;-136.01759;,
 -14.53980;172.65955;-158.18060;,
 72.90560;172.65955;-82.51120;,
 47.29340;172.65955;-29.00500;,
 -14.53980;172.65955;-6.84180;,
 -76.37280;172.65955;-29.00500;,
 -101.98500;172.65955;-82.51120;,
 -76.37280;172.65955;-136.01759;,
 -14.53980;172.65955;-158.18060;,
 52.38800;136.43811;-140.42619;,
 -14.53980;136.43811;-164.41499;,
 80.11040;136.43811;-82.51120;,
 52.38800;136.43811;-24.59640;,
 -14.53980;136.43811;-0.60740;,
 -81.46740;136.43811;-24.59640;,
 -109.18980;136.43811;-82.51120;,
 -81.46740;136.43811;-140.42619;,
 -14.53980;136.43811;-164.41499;,
 47.29340;100.21667;-136.01759;,
 -14.53980;100.21667;-158.18060;,
 72.90560;100.21667;-82.51120;,
 47.29340;100.21667;-29.00500;,
 -14.53980;100.21667;-6.84180;,
 -76.37280;100.21667;-29.00500;,
 -101.98500;100.21667;-82.51120;,
 -76.37280;100.21667;-136.01759;,
 -14.53980;100.21667;-158.18060;,
 32.78540;69.51013;-123.46320;,
 -14.53980;69.51013;-140.42619;,
 52.38800;69.51013;-82.51120;,
 32.78540;69.51013;-41.55920;,
 -14.53980;69.51013;-24.59640;,
 -61.86480;69.51013;-41.55920;,
 -81.46740;69.51013;-82.51120;,
 -61.86480;69.51013;-123.46320;,
 -14.53980;69.51013;-140.42619;,
 11.07240;48.99292;-104.67420;,
 -14.53980;48.99292;-113.85440;,
 21.68120;48.99292;-82.51120;,
 11.07240;48.99292;-60.34820;,
 -14.53980;48.99292;-51.16800;,
 -40.15180;48.99292;-60.34820;,
 -50.76060;48.99292;-82.51120;,
 -40.15180;48.99292;-104.67420;,
 -14.53980;48.99292;-113.85440;,
 -14.53980;41.78790;-82.51120;,
 -14.53980;41.78790;-82.51120;,
 -14.53980;41.78790;-82.51120;,
 -14.53980;41.78790;-82.51120;,
 -14.53980;41.78790;-82.51120;,
 -14.53980;41.78790;-82.51120;,
 -14.53980;41.78790;-82.51120;,
 -14.53980;41.78790;-82.51120;,
 88.50260;380.63708;-25.62200;,
 152.14661;350.28052;-25.62200;,
 101.65800;244.42908;-25.62200;,
 38.01400;274.78589;-25.62200;,
 152.14661;350.28052;-25.62200;,
 152.14661;350.28052;25.62200;,
 101.65800;244.42908;25.62200;,
 101.65800;244.42908;-25.62200;,
 152.14661;350.28052;25.62200;,
 88.50260;380.63708;25.62200;,
 38.01400;274.78589;25.62200;,
 101.65800;244.42908;25.62200;,
 88.50260;380.63708;25.62200;,
 88.50260;380.63708;-25.62200;,
 38.01400;274.78589;-25.62200;,
 38.01400;274.78589;25.62200;,
 152.14661;350.28052;-25.62200;,
 88.50260;380.63708;-25.62200;,
 38.01400;274.78589;-25.62200;,
 101.65800;244.42908;-25.62200;,
 -58.50460;268.85449;-88.80200;,
 -49.99820;266.46155;-99.93760;,
 -58.50460;266.46155;-104.55000;,
 -58.50460;268.85449;-88.80200;,
 -46.47480;266.46155;-88.80200;,
 -58.50460;268.85449;-88.80200;,
 -49.99820;266.46155;-77.66640;,
 -58.50460;268.85449;-88.80200;,
 -58.50460;266.46155;-73.05380;,
 -58.50460;268.85449;-88.80200;,
 -67.01100;266.46155;-77.66640;,
 -58.50460;268.85449;-88.80200;,
 -70.53440;266.46155;-88.80200;,
 -58.50460;268.85449;-88.80200;,
 -67.01100;266.46155;-99.93760;,
 -58.50460;268.85449;-88.80200;,
 -58.50460;266.46155;-104.55000;,
 -42.78680;259.64734;-109.37780;,
 -58.50460;259.64734;-117.90060;,
 -36.27640;259.64734;-88.80200;,
 -42.78680;259.64734;-68.22600;,
 -58.50460;259.64734;-59.70340;,
 -74.22240;259.64734;-68.22600;,
 -80.73280;259.64734;-88.80200;,
 -74.22240;259.64734;-109.37780;,
 -58.50460;259.64734;-117.90060;,
 -37.96840;249.44873;-115.68560;,
 -58.50460;249.44873;-126.82120;,
 -29.46200;249.44873;-88.80200;,
 -37.96840;249.44873;-61.91840;,
 -58.50460;249.44873;-50.78280;,
 -79.04080;249.44873;-61.91840;,
 -87.54720;249.44873;-88.80200;,
 -79.04080;249.44873;-115.68560;,
 -58.50460;249.44873;-126.82120;,
 -36.27640;237.41870;-117.90060;,
 -58.50460;237.41870;-129.95380;,
 -27.06900;237.41870;-88.80200;,
 -36.27640;237.41870;-59.70340;,
 -58.50460;237.41870;-47.65020;,
 -80.73280;237.41870;-59.70340;,
 -89.94020;237.41870;-88.80200;,
 -80.73280;237.41870;-117.90060;,
 -58.50460;237.41870;-129.95380;,
 -37.96840;225.38867;-115.68560;,
 -58.50460;225.38867;-126.82120;,
 -29.46200;225.38867;-88.80200;,
 -37.96840;225.38867;-61.91840;,
 -58.50460;225.38867;-50.78280;,
 -79.04080;225.38867;-61.91840;,
 -87.54720;225.38867;-88.80200;,
 -79.04080;225.38867;-115.68560;,
 -58.50460;225.38867;-126.82120;,
 -42.78680;215.19055;-109.37780;,
 -58.50460;215.19055;-117.90060;,
 -36.27640;215.19055;-88.80200;,
 -42.78680;215.19055;-68.22600;,
 -58.50460;215.19055;-59.70340;,
 -74.22240;215.19055;-68.22600;,
 -80.73280;215.19055;-88.80200;,
 -74.22240;215.19055;-109.37780;,
 -58.50460;215.19055;-117.90060;,
 -49.99820;208.37585;-99.93760;,
 -58.50460;208.37585;-104.55000;,
 -46.47480;208.37585;-88.80200;,
 -49.99820;208.37585;-77.66640;,
 -58.50460;208.37585;-73.05380;,
 -67.01100;208.37585;-77.66640;,
 -70.53440;208.37585;-88.80200;,
 -67.01100;208.37585;-99.93760;,
 -58.50460;208.37585;-104.55000;,
 -58.50460;205.98291;-88.80200;,
 -58.50460;205.98291;-88.80200;,
 -58.50460;205.98291;-88.80200;,
 -58.50460;205.98291;-88.80200;,
 -58.50460;205.98291;-88.80200;,
 -58.50460;205.98291;-88.80200;,
 -58.50460;205.98291;-88.80200;,
 -58.50460;205.98291;-88.80200;,
 -161.27620;355.67651;-19.86460;,
 -96.94800;382.81934;-6.95720;,
 -49.57880;277.02466;-30.27520;,
 -113.90720;249.88196;-43.18280;,
 -96.94800;382.81934;-6.95720;,
 -99.59720;375.18433;43.18280;,
 -52.22820;269.38989;19.86460;,
 -49.57880;277.02466;-30.27520;,
 -99.59720;375.18433;43.18280;,
 -163.92560;348.04150;30.27520;,
 -116.55640;242.24707;6.95720;,
 -52.22820;269.38989;19.86460;,
 -163.92560;348.04150;30.27520;,
 -161.27620;355.67651;-19.86460;,
 -113.90720;249.88196;-43.18280;,
 -116.55640;242.24707;6.95720;,
 -96.94800;382.81934;-6.95720;,
 -161.27620;355.67651;-19.86460;,
 -113.90720;249.88196;-43.18280;,
 -49.57880;277.02466;-30.27520;,
 35.60220;268.85449;-88.80200;,
 44.10860;266.46155;-99.93760;,
 35.60220;266.46155;-104.55000;,
 35.60220;268.85449;-88.80200;,
 47.63200;266.46155;-88.80200;,
 35.60220;268.85449;-88.80200;,
 44.10860;266.46155;-77.66640;,
 35.60220;268.85449;-88.80200;,
 35.60220;266.46155;-73.05380;,
 35.60220;268.85449;-88.80200;,
 27.09580;266.46155;-77.66640;,
 35.60220;268.85449;-88.80200;,
 23.57220;266.46155;-88.80200;,
 35.60220;268.85449;-88.80200;,
 27.09580;266.46155;-99.93760;,
 35.60220;268.85449;-88.80200;,
 35.60220;266.46155;-104.55000;,
 51.32000;259.64734;-109.37780;,
 35.60220;259.64734;-117.90060;,
 57.83040;259.64734;-88.80200;,
 51.32000;259.64734;-68.22600;,
 35.60220;259.64734;-59.70340;,
 19.88440;259.64734;-68.22600;,
 13.37380;259.64734;-88.80200;,
 19.88440;259.64734;-109.37780;,
 35.60220;259.64734;-117.90060;,
 56.13840;249.44873;-115.68560;,
 35.60220;249.44873;-126.82120;,
 64.64480;249.44873;-88.80200;,
 56.13840;249.44873;-61.91840;,
 35.60220;249.44873;-50.78280;,
 15.06580;249.44873;-61.91840;,
 6.55940;249.44873;-88.80200;,
 15.06580;249.44873;-115.68560;,
 35.60220;249.44873;-126.82120;,
 57.83040;237.41870;-117.90060;,
 35.60220;237.41870;-129.95380;,
 67.03760;237.41870;-88.80200;,
 57.83040;237.41870;-59.70340;,
 35.60220;237.41870;-47.65020;,
 13.37380;237.41870;-59.70340;,
 4.16660;237.41870;-88.80200;,
 13.37380;237.41870;-117.90060;,
 35.60220;237.41870;-129.95380;,
 56.13840;225.38867;-115.68560;,
 35.60220;225.38867;-126.82120;,
 64.64480;225.38867;-88.80200;,
 56.13840;225.38867;-61.91840;,
 35.60220;225.38867;-50.78280;,
 15.06580;225.38867;-61.91840;,
 6.55940;225.38867;-88.80200;,
 15.06580;225.38867;-115.68560;,
 35.60220;225.38867;-126.82120;,
 51.32000;215.19055;-109.37780;,
 35.60220;215.19055;-117.90060;,
 57.83040;215.19055;-88.80200;,
 51.32000;215.19055;-68.22600;,
 35.60220;215.19055;-59.70340;,
 19.88440;215.19055;-68.22600;,
 13.37380;215.19055;-88.80200;,
 19.88440;215.19055;-109.37780;,
 35.60220;215.19055;-117.90060;,
 44.10860;208.37585;-99.93760;,
 35.60220;208.37585;-104.55000;,
 47.63200;208.37585;-88.80200;,
 44.10860;208.37585;-77.66640;,
 35.60220;208.37585;-73.05380;,
 27.09580;208.37585;-77.66640;,
 23.57220;208.37585;-88.80200;,
 27.09580;208.37585;-99.93760;,
 35.60220;208.37585;-104.55000;,
 35.60220;205.98291;-88.80200;,
 35.60220;205.98291;-88.80200;,
 35.60220;205.98291;-88.80200;,
 35.60220;205.98291;-88.80200;,
 35.60220;205.98291;-88.80200;,
 35.60220;205.98291;-88.80200;,
 35.60220;205.98291;-88.80200;,
 35.60220;205.98291;-88.80200;,
 -15.84000;194.41614;-141.93880;,
 -7.33360;192.02295;-153.07420;,
 -15.84000;192.02295;-157.68680;,
 -15.84000;194.41614;-141.93880;,
 -3.81020;192.02295;-141.93880;,
 -15.84000;194.41614;-141.93880;,
 -7.33360;192.02295;-130.80321;,
 -15.84000;194.41614;-141.93880;,
 -15.84000;192.02295;-126.19060;,
 -15.84000;194.41614;-141.93880;,
 -24.34640;192.02295;-130.80321;,
 -15.84000;194.41614;-141.93880;,
 -27.86980;192.02295;-141.93880;,
 -15.84000;194.41614;-141.93880;,
 -24.34640;192.02295;-153.07420;,
 -15.84000;194.41614;-141.93880;,
 -15.84000;192.02295;-157.68680;,
 -0.12220;185.20874;-162.51460;,
 -15.84000;185.20874;-171.03740;,
 6.38820;185.20874;-141.93880;,
 -0.12220;185.20874;-121.36280;,
 -15.84000;185.20874;-112.84000;,
 -31.55780;185.20874;-121.36280;,
 -38.06820;185.20874;-141.93880;,
 -31.55780;185.20874;-162.51460;,
 -15.84000;185.20874;-171.03740;,
 4.69620;175.01025;-168.82240;,
 -15.84000;175.01025;-179.95799;,
 13.20260;175.01025;-141.93880;,
 4.69620;175.01025;-115.05500;,
 -15.84000;175.01025;-103.91940;,
 -36.37620;175.01025;-115.05500;,
 -44.88260;175.01025;-141.93880;,
 -36.37620;175.01025;-168.82240;,
 -15.84000;175.01025;-179.95799;,
 6.38820;162.98035;-171.03740;,
 -15.84000;162.98035;-183.09039;,
 15.59560;162.98035;-141.93880;,
 6.38820;162.98035;-112.84000;,
 -15.84000;162.98035;-100.78700;,
 -38.06820;162.98035;-112.84000;,
 -47.27560;162.98035;-141.93880;,
 -38.06820;162.98035;-171.03740;,
 -15.84000;162.98035;-183.09039;,
 4.69620;150.95007;-168.82240;,
 -15.84000;150.95007;-179.95799;,
 13.20260;150.95007;-141.93880;,
 4.69620;150.95007;-115.05500;,
 -15.84000;150.95007;-103.91940;,
 -36.37620;150.95007;-115.05500;,
 -44.88260;150.95007;-141.93880;,
 -36.37620;150.95007;-168.82240;,
 -15.84000;150.95007;-179.95799;,
 -0.12220;140.75195;-162.51460;,
 -15.84000;140.75195;-171.03740;,
 6.38820;140.75195;-141.93880;,
 -0.12220;140.75195;-121.36280;,
 -15.84000;140.75195;-112.84000;,
 -31.55780;140.75195;-121.36280;,
 -38.06820;140.75195;-141.93880;,
 -31.55780;140.75195;-162.51460;,
 -15.84000;140.75195;-171.03740;,
 -7.33360;133.93750;-153.07420;,
 -15.84000;133.93750;-157.68680;,
 -3.81020;133.93750;-141.93880;,
 -7.33360;133.93750;-130.80321;,
 -15.84000;133.93750;-126.19060;,
 -24.34640;133.93750;-130.80321;,
 -27.86980;133.93750;-141.93880;,
 -24.34640;133.93750;-153.07420;,
 -15.84000;133.93750;-157.68680;,
 -15.84000;131.54456;-141.93880;,
 -15.84000;131.54456;-141.93880;,
 -15.84000;131.54456;-141.93880;,
 -15.84000;131.54456;-141.93880;,
 -15.84000;131.54456;-141.93880;,
 -15.84000;131.54456;-141.93880;,
 -15.84000;131.54456;-141.93880;,
 -15.84000;131.54456;-141.93880;;
 
 332;
 3;0,1,2;,
 3;3,4,1;,
 3;5,6,4;,
 3;7,8,6;,
 3;9,10,8;,
 3;11,12,10;,
 3;13,14,12;,
 3;15,16,14;,
 4;2,1,17,18;,
 4;1,4,19,17;,
 4;4,6,20,19;,
 4;6,8,21,20;,
 4;8,10,22,21;,
 4;10,12,23,22;,
 4;12,14,24,23;,
 4;14,16,25,24;,
 4;18,17,26,27;,
 4;17,19,28,26;,
 4;19,20,29,28;,
 4;20,21,30,29;,
 4;21,22,31,30;,
 4;22,23,32,31;,
 4;23,24,33,32;,
 4;24,25,34,33;,
 4;27,26,35,36;,
 4;26,28,37,35;,
 4;28,29,38,37;,
 4;29,30,39,38;,
 4;30,31,40,39;,
 4;31,32,41,40;,
 4;32,33,42,41;,
 4;33,34,43,42;,
 4;36,35,44,45;,
 4;35,37,46,44;,
 4;37,38,47,46;,
 4;38,39,48,47;,
 4;39,40,49,48;,
 4;40,41,50,49;,
 4;41,42,51,50;,
 4;42,43,52,51;,
 4;45,44,53,54;,
 4;44,46,55,53;,
 4;46,47,56,55;,
 4;47,48,57,56;,
 4;48,49,58,57;,
 4;49,50,59,58;,
 4;50,51,60,59;,
 4;51,52,61,60;,
 4;54,53,62,63;,
 4;53,55,64,62;,
 4;55,56,65,64;,
 4;56,57,66,65;,
 4;57,58,67,66;,
 4;58,59,68,67;,
 4;59,60,69,68;,
 4;60,61,70,69;,
 3;63,62,71;,
 3;62,64,72;,
 3;64,65,73;,
 3;65,66,74;,
 3;66,67,75;,
 3;67,68,76;,
 3;68,69,77;,
 3;69,70,78;,
 3;79,80,81;,
 3;82,83,80;,
 3;84,85,83;,
 3;86,87,85;,
 3;88,89,87;,
 3;90,91,89;,
 3;92,93,91;,
 3;94,95,93;,
 4;81,80,96,97;,
 4;80,83,98,96;,
 4;83,85,99,98;,
 4;85,87,100,99;,
 4;87,89,101,100;,
 4;89,91,102,101;,
 4;91,93,103,102;,
 4;93,95,104,103;,
 4;97,96,105,106;,
 4;96,98,107,105;,
 4;98,99,108,107;,
 4;99,100,109,108;,
 4;100,101,110,109;,
 4;101,102,111,110;,
 4;102,103,112,111;,
 4;103,104,113,112;,
 4;106,105,114,115;,
 4;105,107,116,114;,
 4;107,108,117,116;,
 4;108,109,118,117;,
 4;109,110,119,118;,
 4;110,111,120,119;,
 4;111,112,121,120;,
 4;112,113,122,121;,
 4;115,114,123,124;,
 4;114,116,125,123;,
 4;116,117,126,125;,
 4;117,118,127,126;,
 4;118,119,128,127;,
 4;119,120,129,128;,
 4;120,121,130,129;,
 4;121,122,131,130;,
 4;124,123,132,133;,
 4;123,125,134,132;,
 4;125,126,135,134;,
 4;126,127,136,135;,
 4;127,128,137,136;,
 4;128,129,138,137;,
 4;129,130,139,138;,
 4;130,131,140,139;,
 4;133,132,141,142;,
 4;132,134,143,141;,
 4;134,135,144,143;,
 4;135,136,145,144;,
 4;136,137,146,145;,
 4;137,138,147,146;,
 4;138,139,148,147;,
 4;139,140,149,148;,
 3;142,141,150;,
 3;141,143,151;,
 3;143,144,152;,
 3;144,145,153;,
 3;145,146,154;,
 3;146,147,155;,
 3;147,148,156;,
 3;148,149,157;,
 4;158,159,160,161;,
 4;162,163,164,165;,
 4;166,167,168,169;,
 4;170,171,172,173;,
 4;170,163,174,175;,
 4;176,177,164,173;,
 3;178,179,180;,
 3;181,182,179;,
 3;183,184,182;,
 3;185,186,184;,
 3;187,188,186;,
 3;189,190,188;,
 3;191,192,190;,
 3;193,194,192;,
 4;180,179,195,196;,
 4;179,182,197,195;,
 4;182,184,198,197;,
 4;184,186,199,198;,
 4;186,188,200,199;,
 4;188,190,201,200;,
 4;190,192,202,201;,
 4;192,194,203,202;,
 4;196,195,204,205;,
 4;195,197,206,204;,
 4;197,198,207,206;,
 4;198,199,208,207;,
 4;199,200,209,208;,
 4;200,201,210,209;,
 4;201,202,211,210;,
 4;202,203,212,211;,
 4;205,204,213,214;,
 4;204,206,215,213;,
 4;206,207,216,215;,
 4;207,208,217,216;,
 4;208,209,218,217;,
 4;209,210,219,218;,
 4;210,211,220,219;,
 4;211,212,221,220;,
 4;214,213,222,223;,
 4;213,215,224,222;,
 4;215,216,225,224;,
 4;216,217,226,225;,
 4;217,218,227,226;,
 4;218,219,228,227;,
 4;219,220,229,228;,
 4;220,221,230,229;,
 4;223,222,231,232;,
 4;222,224,233,231;,
 4;224,225,234,233;,
 4;225,226,235,234;,
 4;226,227,236,235;,
 4;227,228,237,236;,
 4;228,229,238,237;,
 4;229,230,239,238;,
 4;232,231,240,241;,
 4;231,233,242,240;,
 4;233,234,243,242;,
 4;234,235,244,243;,
 4;235,236,245,244;,
 4;236,237,246,245;,
 4;237,238,247,246;,
 4;238,239,248,247;,
 3;241,240,249;,
 3;240,242,250;,
 3;242,243,251;,
 3;243,244,252;,
 3;244,245,253;,
 3;245,246,254;,
 3;246,247,255;,
 3;247,248,256;,
 4;257,258,259,260;,
 4;261,262,263,264;,
 4;265,266,267,268;,
 4;269,270,271,272;,
 4;269,262,273,274;,
 4;275,276,263,272;,
 3;277,278,279;,
 3;280,281,278;,
 3;282,283,281;,
 3;284,285,283;,
 3;286,287,285;,
 3;288,289,287;,
 3;290,291,289;,
 3;292,293,291;,
 4;279,278,294,295;,
 4;278,281,296,294;,
 4;281,283,297,296;,
 4;283,285,298,297;,
 4;285,287,299,298;,
 4;287,289,300,299;,
 4;289,291,301,300;,
 4;291,293,302,301;,
 4;295,294,303,304;,
 4;294,296,305,303;,
 4;296,297,306,305;,
 4;297,298,307,306;,
 4;298,299,308,307;,
 4;299,300,309,308;,
 4;300,301,310,309;,
 4;301,302,311,310;,
 4;304,303,312,313;,
 4;303,305,314,312;,
 4;305,306,315,314;,
 4;306,307,316,315;,
 4;307,308,317,316;,
 4;308,309,318,317;,
 4;309,310,319,318;,
 4;310,311,320,319;,
 4;313,312,321,322;,
 4;312,314,323,321;,
 4;314,315,324,323;,
 4;315,316,325,324;,
 4;316,317,326,325;,
 4;317,318,327,326;,
 4;318,319,328,327;,
 4;319,320,329,328;,
 4;322,321,330,331;,
 4;321,323,332,330;,
 4;323,324,333,332;,
 4;324,325,334,333;,
 4;325,326,335,334;,
 4;326,327,336,335;,
 4;327,328,337,336;,
 4;328,329,338,337;,
 4;331,330,339,340;,
 4;330,332,341,339;,
 4;332,333,342,341;,
 4;333,334,343,342;,
 4;334,335,344,343;,
 4;335,336,345,344;,
 4;336,337,346,345;,
 4;337,338,347,346;,
 3;340,339,348;,
 3;339,341,349;,
 3;341,342,350;,
 3;342,343,351;,
 3;343,344,352;,
 3;344,345,353;,
 3;345,346,354;,
 3;346,347,355;,
 3;356,357,358;,
 3;359,360,357;,
 3;361,362,360;,
 3;363,364,362;,
 3;365,366,364;,
 3;367,368,366;,
 3;369,370,368;,
 3;371,372,370;,
 4;358,357,373,374;,
 4;357,360,375,373;,
 4;360,362,376,375;,
 4;362,364,377,376;,
 4;364,366,378,377;,
 4;366,368,379,378;,
 4;368,370,380,379;,
 4;370,372,381,380;,
 4;374,373,382,383;,
 4;373,375,384,382;,
 4;375,376,385,384;,
 4;376,377,386,385;,
 4;377,378,387,386;,
 4;378,379,388,387;,
 4;379,380,389,388;,
 4;380,381,390,389;,
 4;383,382,391,392;,
 4;382,384,393,391;,
 4;384,385,394,393;,
 4;385,386,395,394;,
 4;386,387,396,395;,
 4;387,388,397,396;,
 4;388,389,398,397;,
 4;389,390,399,398;,
 4;392,391,400,401;,
 4;391,393,402,400;,
 4;393,394,403,402;,
 4;394,395,404,403;,
 4;395,396,405,404;,
 4;396,397,406,405;,
 4;397,398,407,406;,
 4;398,399,408,407;,
 4;401,400,409,410;,
 4;400,402,411,409;,
 4;402,403,412,411;,
 4;403,404,413,412;,
 4;404,405,414,413;,
 4;405,406,415,414;,
 4;406,407,416,415;,
 4;407,408,417,416;,
 4;410,409,418,419;,
 4;409,411,420,418;,
 4;411,412,421,420;,
 4;412,413,422,421;,
 4;413,414,423,422;,
 4;414,415,424,423;,
 4;415,416,425,424;,
 4;416,417,426,425;,
 3;419,418,427;,
 3;418,420,428;,
 3;420,421,429;,
 3;421,422,430;,
 3;422,423,431;,
 3;423,424,432;,
 3;424,425,433;,
 3;425,426,434;;
 
 MeshMaterialList {
  9;
  332;
  0,
  0,
  0,
  0,
  0,
  0,
  0,
  0,
  0,
  0,
  0,
  0,
  0,
  0,
  0,
  0,
  0,
  0,
  0,
  0,
  0,
  0,
  0,
  0,
  0,
  0,
  0,
  0,
  0,
  0,
  0,
  0,
  0,
  0,
  0,
  0,
  0,
  0,
  0,
  0,
  0,
  0,
  0,
  0,
  0,
  0,
  0,
  0,
  0,
  0,
  0,
  0,
  0,
  0,
  0,
  0,
  0,
  0,
  0,
  0,
  0,
  0,
  0,
  0,
  2,
  2,
  2,
  2,
  2,
  2,
  2,
  2,
  2,
  2,
  2,
  2,
  2,
  2,
  2,
  2,
  2,
  2,
  2,
  2,
  2,
  2,
  2,
  2,
  2,
  2,
  2,
  2,
  2,
  2,
  2,
  2,
  2,
  2,
  2,
  2,
  2,
  2,
  2,
  2,
  2,
  2,
  2,
  2,
  2,
  2,
  2,
  2,
  2,
  2,
  2,
  2,
  2,
  2,
  2,
  2,
  2,
  2,
  2,
  2,
  2,
  2,
  2,
  2,
  0,
  0,
  0,
  0,
  0,
  0,
  3,
  3,
  3,
  3,
  3,
  3,
  3,
  3,
  3,
  3,
  3,
  3,
  3,
  3,
  3,
  3,
  3,
  3,
  3,
  3,
  3,
  3,
  3,
  3,
  3,
  3,
  3,
  3,
  3,
  3,
  3,
  3,
  3,
  3,
  3,
  3,
  3,
  3,
  3,
  3,
  3,
  3,
  3,
  3,
  3,
  3,
  3,
  3,
  3,
  3,
  3,
  3,
  3,
  3,
  3,
  3,
  3,
  3,
  3,
  3,
  3,
  3,
  3,
  3,
  0,
  0,
  0,
  0,
  0,
  0,
  3,
  3,
  3,
  3,
  3,
  3,
  3,
  3,
  3,
  3,
  3,
  3,
  3,
  3,
  3,
  3,
  3,
  3,
  3,
  3,
  3,
  3,
  3,
  3,
  3,
  3,
  3,
  3,
  3,
  3,
  3,
  3,
  3,
  3,
  3,
  3,
  3,
  3,
  3,
  3,
  3,
  3,
  3,
  3,
  3,
  3,
  3,
  3,
  3,
  3,
  3,
  3,
  3,
  3,
  3,
  3,
  3,
  3,
  3,
  3,
  3,
  3,
  3,
  3,
  3,
  3,
  3,
  3,
  3,
  3,
  3,
  3,
  3,
  3,
  3,
  3,
  3,
  3,
  3,
  3,
  3,
  3,
  3,
  3,
  3,
  3,
  3,
  3,
  3,
  3,
  3,
  3,
  3,
  3,
  3,
  3,
  3,
  3,
  3,
  3,
  3,
  3,
  3,
  3,
  3,
  3,
  3,
  3,
  3,
  3,
  3,
  3,
  3,
  3,
  3,
  3,
  3,
  3,
  3,
  3,
  3,
  3,
  3,
  3,
  3,
  3,
  3,
  3;;
  Material {
   0.228800;0.140800;0.050400;1.000000;;
   5.000000;
   0.000000;0.000000;0.000000;;
   0.000000;0.000000;0.000000;;
  }
  Material {
   0.800000;0.238400;0.065600;1.000000;;
   5.000000;
   0.000000;0.000000;0.000000;;
   0.000000;0.000000;0.000000;;
  }
  Material {
   0.800000;0.530400;0.100000;1.000000;;
   5.000000;
   0.000000;0.000000;0.000000;;
   0.000000;0.000000;0.000000;;
  }
  Material {
   0.536800;0.091200;0.060000;1.000000;;
   5.000000;
   0.000000;0.000000;0.000000;;
   0.000000;0.000000;0.000000;;
  }
  Material {
   0.640000;0.392000;0.000000;1.000000;;
   5.000000;
   0.000000;0.000000;0.000000;;
   0.000000;0.000000;0.000000;;
  }
  Material {
   0.241600;0.432800;0.800000;1.000000;;
   5.000000;
   0.000000;0.000000;0.000000;;
   0.000000;0.000000;0.000000;;
  }
  Material {
   0.800000;0.800000;0.800000;1.000000;;
   5.000000;
   0.000000;0.000000;0.000000;;
   0.000000;0.000000;0.000000;;
  }
  Material {
   0.800000;0.800000;0.800000;1.000000;;
   5.000000;
   0.000000;0.000000;0.000000;;
   0.000000;0.000000;0.000000;;
  }
  Material {
   1.000000;1.000000;1.000000;1.000000;;
   0.000000;
   0.000000;0.000000;0.000000;;
   0.000000;0.000000;0.000000;;
  }
 }
 MeshNormals {
  294;
  -0.000000;1.000000;0.000000;,
  0.000000;0.905689;-0.423942;,
  0.265071;0.915512;-0.302615;,
  0.378463;0.925616;0.000000;,
  0.265071;0.915512;0.302615;,
  0.000000;0.905689;0.423942;,
  -0.265071;0.915512;0.302614;,
  -0.378463;0.925616;0.000000;,
  -0.265071;0.915512;-0.302614;,
  0.000000;0.661829;-0.749655;,
  0.483110;0.685709;-0.544434;,
  0.702698;0.711488;0.000000;,
  0.483110;0.685709;0.544434;,
  0.000000;0.661829;0.749655;,
  -0.483110;0.685709;0.544434;,
  -0.702698;0.711488;0.000000;,
  -0.483110;0.685709;-0.544434;,
  0.000000;0.342902;-0.939371;,
  0.622322;0.363392;-0.693298;,
  0.922244;0.386608;0.000000;,
  0.622322;0.363392;0.693298;,
  0.000000;0.342902;0.939371;,
  -0.622322;0.363392;0.693298;,
  -0.922244;0.386608;0.000000;,
  -0.622322;0.363392;-0.693298;,
  0.000000;-0.000000;-1.000000;,
  0.669594;-0.000001;-0.742727;,
  1.000000;-0.000001;-0.000000;,
  0.669594;-0.000001;0.742727;,
  0.000000;-0.000000;1.000000;,
  -0.669594;-0.000001;0.742727;,
  -1.000000;-0.000001;0.000000;,
  -0.669594;-0.000001;-0.742727;,
  0.000000;-0.342901;-0.939371;,
  0.622322;-0.363392;-0.693298;,
  0.922244;-0.386607;-0.000000;,
  0.622322;-0.363392;0.693298;,
  0.000000;-0.342901;0.939371;,
  -0.622322;-0.363392;0.693298;,
  -0.922245;-0.386607;0.000000;,
  -0.622322;-0.363392;-0.693298;,
  0.000000;-0.661831;-0.749653;,
  0.483109;-0.685710;-0.544433;,
  0.702697;-0.711490;-0.000000;,
  0.483109;-0.685710;0.544433;,
  0.000000;-0.661831;0.749653;,
  -0.483109;-0.685710;0.544433;,
  -0.702697;-0.711490;0.000000;,
  -0.483109;-0.685710;-0.544433;,
  0.000000;-0.905690;-0.423941;,
  0.265070;-0.915512;-0.302615;,
  0.378463;-0.925616;-0.000000;,
  0.265070;-0.915512;0.302615;,
  0.000000;-0.905690;0.423941;,
  -0.265070;-0.915512;0.302615;,
  -0.378463;-0.925616;0.000000;,
  -0.265070;-0.915512;-0.302615;,
  -0.000000;-1.000000;-0.000000;,
  -0.000000;1.000000;0.000000;,
  -0.000000;0.904956;-0.425505;,
  0.266086;0.914841;-0.303751;,
  0.379940;0.925011;0.000000;,
  0.266086;0.914841;0.303752;,
  -0.000000;0.904956;0.425506;,
  -0.266086;0.914840;0.303752;,
  -0.379940;0.925011;0.000000;,
  -0.266086;0.914841;-0.303751;,
  -0.000001;0.660117;-0.751162;,
  0.484172;0.684040;-0.545588;,
  0.704329;0.709874;0.000000;,
  0.484172;0.684040;0.545589;,
  -0.000001;0.660117;0.751163;,
  -0.484172;0.684040;0.545588;,
  -0.704328;0.709874;0.000000;,
  -0.484173;0.684040;-0.545588;,
  -0.000000;0.341480;-0.939889;,
  0.622718;0.361919;-0.693713;,
  0.922884;0.385078;0.000001;,
  0.622718;0.361919;0.693712;,
  -0.000001;0.341480;0.939889;,
  -0.622719;0.361919;0.693712;,
  -0.922884;0.385078;0.000001;,
  -0.622718;0.361919;-0.693712;,
  -0.000000;0.000000;-1.000000;,
  0.669597;0.000000;-0.742724;,
  1.000000;0.000000;0.000001;,
  0.669598;0.000000;0.742724;,
  -0.000000;0.000000;1.000000;,
  -0.669598;0.000000;0.742723;,
  -1.000000;0.000000;0.000001;,
  -0.669598;-0.000000;-0.742724;,
  -0.000000;-0.341479;-0.939889;,
  0.622718;-0.361918;-0.693713;,
  0.922884;-0.385077;0.000001;,
  0.622718;-0.361918;0.693713;,
  -0.000001;-0.341480;0.939889;,
  -0.622719;-0.361918;0.693712;,
  -0.922884;-0.385077;0.000001;,
  -0.622719;-0.361918;-0.693712;,
  -0.000001;-0.660116;-0.751164;,
  0.484173;-0.684039;-0.545589;,
  0.704330;-0.709872;0.000000;,
  0.484173;-0.684038;0.545590;,
  -0.000001;-0.660115;0.751164;,
  -0.484174;-0.684038;0.545589;,
  -0.704330;-0.709872;0.000000;,
  -0.484174;-0.684039;-0.545589;,
  -0.000000;-0.904956;-0.425506;,
  0.266086;-0.914841;-0.303751;,
  0.379940;-0.925011;0.000000;,
  0.266086;-0.914840;0.303752;,
  -0.000000;-0.904955;0.425506;,
  -0.266087;-0.914840;0.303752;,
  -0.379941;-0.925011;0.000000;,
  -0.266087;-0.914840;-0.303751;,
  -0.000000;-1.000000;0.000000;,
  0.000000;0.000000;-1.000000;,
  0.902585;-0.430512;-0.000000;,
  0.000000;0.000000;1.000000;,
  -0.000000;1.000000;-0.000000;,
  -0.000000;0.952563;-0.304342;,
  0.273237;0.938205;-0.212400;,
  0.381458;0.924386;-0.000000;,
  0.273238;0.938205;0.212399;,
  -0.000000;0.952563;0.304342;,
  -0.273238;0.938205;0.212399;,
  -0.381458;0.924386;-0.000000;,
  -0.273237;0.938205;-0.212400;,
  -0.000000;0.791542;-0.611115;,
  0.519851;0.747503;-0.413515;,
  0.705823;0.708388;-0.000000;,
  0.519852;0.747501;0.413516;,
  0.000000;0.791540;0.611118;,
  -0.519851;0.747502;0.413516;,
  -0.705823;0.708388;-0.000000;,
  -0.519850;0.747503;-0.413515;,
  0.000000;0.472352;-0.881410;,
  0.702446;0.423173;-0.572271;,
  0.923405;0.383827;-0.000000;,
  0.702446;0.423171;0.572273;,
  0.000000;0.472349;0.881411;,
  -0.702446;0.423172;0.572272;,
  -0.923405;0.383828;-0.000000;,
  -0.702445;0.423174;-0.572271;,
  0.000000;0.000000;-1.000000;,
  0.772136;0.000000;-0.635457;,
  1.000000;0.000000;-0.000000;,
  0.772136;0.000000;0.635457;,
  0.000000;-0.000000;1.000000;,
  -0.772136;0.000000;0.635457;,
  -1.000000;0.000000;-0.000000;,
  -0.772136;0.000000;-0.635457;,
  0.000000;-0.472363;-0.881404;,
  0.702442;-0.423184;-0.572268;,
  0.923400;-0.383838;-0.000000;,
  0.702442;-0.423183;0.572269;,
  0.000000;-0.472361;0.881405;,
  -0.702442;-0.423183;0.572269;,
  -0.923400;-0.383838;-0.000000;,
  -0.702442;-0.423184;-0.572268;,
  0.000000;-0.791539;-0.611118;,
  0.519854;-0.747499;-0.413518;,
  0.705827;-0.708384;-0.000001;,
  0.519854;-0.747499;0.413518;,
  -0.000000;-0.791538;0.611121;,
  -0.519854;-0.747499;0.413518;,
  -0.705827;-0.708384;-0.000001;,
  -0.519854;-0.747499;-0.413518;,
  -0.000000;-0.952558;-0.304356;,
  0.273248;-0.938199;-0.212409;,
  0.381473;-0.924380;-0.000000;,
  0.273249;-0.938199;0.212408;,
  -0.000000;-0.952559;0.304355;,
  -0.273249;-0.938199;0.212408;,
  -0.381473;-0.924380;-0.000000;,
  -0.273248;-0.938199;-0.212409;,
  -0.000000;-1.000000;-0.000000;,
  0.087277;0.251531;-0.963906;,
  0.916028;0.386508;0.107255;,
  -0.087276;-0.251532;0.963906;,
  0.000001;1.000000;-0.000000;,
  -0.000000;0.952563;-0.304342;,
  -0.000000;0.952563;0.304342;,
  -0.273236;0.938205;0.212401;,
  -0.381455;0.924388;-0.000000;,
  -0.273235;0.938205;-0.212402;,
  0.000001;0.791542;-0.611114;,
  0.519850;0.747503;-0.413515;,
  0.705823;0.708388;-0.000000;,
  0.000001;0.791540;0.611118;,
  -0.519848;0.747503;0.413518;,
  -0.705819;0.708392;-0.000001;,
  -0.519847;0.747505;-0.413517;,
  0.000002;0.472353;-0.881410;,
  0.702447;0.423172;-0.572271;,
  0.923406;0.383824;-0.000000;,
  0.702447;0.423170;0.572272;,
  0.000002;0.472349;0.881411;,
  -0.702444;0.423173;0.572273;,
  -0.923405;0.383828;-0.000000;,
  -0.702444;0.423174;-0.572272;,
  0.000002;0.000000;-1.000000;,
  0.772138;0.000000;-0.635455;,
  1.000000;0.000000;-0.000000;,
  0.772138;0.000000;0.635455;,
  0.000002;0.000000;1.000000;,
  -0.772136;-0.000000;0.635457;,
  -1.000000;0.000000;-0.000000;,
  -0.772136;0.000000;-0.635457;,
  0.000002;-0.472364;-0.881404;,
  0.702443;-0.423182;-0.572268;,
  0.923402;-0.383834;-0.000000;,
  0.702443;-0.423181;0.572269;,
  0.000001;-0.472361;0.881405;,
  -0.702441;-0.423183;0.572270;,
  -0.923401;-0.383838;-0.000000;,
  -0.702441;-0.423185;-0.572269;,
  0.000001;-0.791539;-0.611118;,
  0.705828;-0.708384;-0.000001;,
  0.519854;-0.747499;0.413518;,
  0.000001;-0.791538;0.611120;,
  -0.519851;-0.747500;0.413520;,
  -0.705824;-0.708388;-0.000001;,
  -0.519851;-0.747501;-0.413519;,
  -0.000000;-0.952558;-0.304356;,
  0.000000;-0.952559;0.304355;,
  -0.273247;-0.938200;0.212410;,
  -0.381470;-0.924381;-0.000000;,
  -0.273247;-0.938199;-0.212411;,
  0.000001;-1.000000;-0.000000;,
  0.000000;1.000000;-0.000001;,
  -0.000000;0.952561;-0.304348;,
  0.273244;0.938201;-0.212404;,
  0.381466;0.924383;-0.000001;,
  0.273245;0.938202;0.212403;,
  -0.000000;0.952561;0.304347;,
  -0.273245;0.938202;0.212403;,
  -0.381467;0.924383;-0.000001;,
  -0.273245;0.938201;-0.212405;,
  -0.000000;0.791545;-0.611111;,
  0.519849;0.747505;-0.413513;,
  0.705821;0.708391;-0.000001;,
  0.519850;0.747505;0.413512;,
  -0.000000;0.791544;0.611112;,
  -0.519850;0.747505;0.413512;,
  -0.705821;0.708391;-0.000001;,
  -0.519849;0.747505;-0.413513;,
  0.000000;0.472352;-0.881410;,
  0.702444;0.423176;-0.572271;,
  0.923403;0.383832;-0.000001;,
  0.702445;0.423176;0.572271;,
  -0.000000;0.472352;0.881410;,
  -0.702445;0.423176;0.572271;,
  -0.923403;0.383832;-0.000001;,
  -0.702444;0.423175;-0.572271;,
  0.000000;0.000004;-1.000000;,
  0.772135;0.000003;-0.635458;,
  1.000000;0.000003;-0.000001;,
  0.772136;0.000003;0.635458;,
  -0.000000;0.000004;1.000000;,
  -0.772136;0.000003;0.635458;,
  -1.000000;0.000003;-0.000001;,
  -0.772135;0.000003;-0.635458;,
  0.000000;-0.472357;-0.881407;,
  0.702443;-0.423180;-0.572270;,
  0.923401;-0.383836;-0.000001;,
  0.702443;-0.423181;0.572269;,
  -0.000000;-0.472358;0.881407;,
  -0.702443;-0.423181;0.572269;,
  -0.923401;-0.383836;-0.000001;,
  -0.702442;-0.423180;-0.572270;,
  -0.000000;-0.791545;-0.611111;,
  0.519849;-0.747505;-0.413513;,
  0.705821;-0.708390;-0.000001;,
  0.519850;-0.747505;0.413512;,
  -0.000000;-0.791546;0.611110;,
  -0.519850;-0.747505;0.413512;,
  -0.705821;-0.708390;-0.000001;,
  -0.519849;-0.747505;-0.413513;,
  -0.000000;-0.952561;-0.304347;,
  0.273243;-0.938202;-0.212404;,
  0.381465;-0.924383;-0.000001;,
  0.273243;-0.938202;0.212402;,
  -0.000000;-0.952562;0.304346;,
  -0.273243;-0.938202;0.212402;,
  -0.381465;-0.924383;-0.000001;,
  -0.273243;-0.938202;-0.212404;,
  -0.000000;-1.000000;-0.000001;,
  -0.902585;0.430512;0.000000;,
  0.430510;0.902586;0.000000;,
  -0.430513;-0.902584;0.000000;,
  -0.916028;-0.386508;-0.107256;,
  -0.405869;0.906465;0.116586;,
  0.405868;-0.906466;-0.116583;;
  332;
  3;0,2,1;,
  3;0,3,2;,
  3;0,4,3;,
  3;0,5,4;,
  3;0,6,5;,
  3;0,7,6;,
  3;0,8,7;,
  3;0,1,8;,
  4;1,2,10,9;,
  4;2,3,11,10;,
  4;3,4,12,11;,
  4;4,5,13,12;,
  4;5,6,14,13;,
  4;6,7,15,14;,
  4;7,8,16,15;,
  4;8,1,9,16;,
  4;9,10,18,17;,
  4;10,11,19,18;,
  4;11,12,20,19;,
  4;12,13,21,20;,
  4;13,14,22,21;,
  4;14,15,23,22;,
  4;15,16,24,23;,
  4;16,9,17,24;,
  4;17,18,26,25;,
  4;18,19,27,26;,
  4;19,20,28,27;,
  4;20,21,29,28;,
  4;21,22,30,29;,
  4;22,23,31,30;,
  4;23,24,32,31;,
  4;24,17,25,32;,
  4;25,26,34,33;,
  4;26,27,35,34;,
  4;27,28,36,35;,
  4;28,29,37,36;,
  4;29,30,38,37;,
  4;30,31,39,38;,
  4;31,32,40,39;,
  4;32,25,33,40;,
  4;33,34,42,41;,
  4;34,35,43,42;,
  4;35,36,44,43;,
  4;36,37,45,44;,
  4;37,38,46,45;,
  4;38,39,47,46;,
  4;39,40,48,47;,
  4;40,33,41,48;,
  4;41,42,50,49;,
  4;42,43,51,50;,
  4;43,44,52,51;,
  4;44,45,53,52;,
  4;45,46,54,53;,
  4;46,47,55,54;,
  4;47,48,56,55;,
  4;48,41,49,56;,
  3;49,50,57;,
  3;50,51,57;,
  3;51,52,57;,
  3;52,53,57;,
  3;53,54,57;,
  3;54,55,57;,
  3;55,56,57;,
  3;56,49,57;,
  3;58,60,59;,
  3;58,61,60;,
  3;58,62,61;,
  3;58,63,62;,
  3;58,64,63;,
  3;58,65,64;,
  3;58,66,65;,
  3;58,59,66;,
  4;59,60,68,67;,
  4;60,61,69,68;,
  4;61,62,70,69;,
  4;62,63,71,70;,
  4;63,64,72,71;,
  4;64,65,73,72;,
  4;65,66,74,73;,
  4;66,59,67,74;,
  4;67,68,76,75;,
  4;68,69,77,76;,
  4;69,70,78,77;,
  4;70,71,79,78;,
  4;71,72,80,79;,
  4;72,73,81,80;,
  4;73,74,82,81;,
  4;74,67,75,82;,
  4;75,76,84,83;,
  4;76,77,85,84;,
  4;77,78,86,85;,
  4;78,79,87,86;,
  4;79,80,88,87;,
  4;80,81,89,88;,
  4;81,82,90,89;,
  4;82,75,83,90;,
  4;83,84,92,91;,
  4;84,85,93,92;,
  4;85,86,94,93;,
  4;86,87,95,94;,
  4;87,88,96,95;,
  4;88,89,97,96;,
  4;89,90,98,97;,
  4;90,83,91,98;,
  4;91,92,100,99;,
  4;92,93,101,100;,
  4;93,94,102,101;,
  4;94,95,103,102;,
  4;95,96,104,103;,
  4;96,97,105,104;,
  4;97,98,106,105;,
  4;98,91,99,106;,
  4;99,100,108,107;,
  4;100,101,109,108;,
  4;101,102,110,109;,
  4;102,103,111,110;,
  4;103,104,112,111;,
  4;104,105,113,112;,
  4;105,106,114,113;,
  4;106,99,107,114;,
  3;107,108,115;,
  3;108,109,115;,
  3;109,110,115;,
  3;110,111,115;,
  3;111,112,115;,
  3;112,113,115;,
  3;113,114,115;,
  3;114,107,115;,
  4;116,116,116,116;,
  4;117,117,117,117;,
  4;118,118,118,118;,
  4;288,288,288,288;,
  4;289,289,289,289;,
  4;290,290,290,290;,
  3;119,121,120;,
  3;119,122,121;,
  3;119,123,122;,
  3;119,124,123;,
  3;119,125,124;,
  3;119,126,125;,
  3;119,127,126;,
  3;119,120,127;,
  4;120,121,129,128;,
  4;121,122,130,129;,
  4;122,123,131,130;,
  4;123,124,132,131;,
  4;124,125,133,132;,
  4;125,126,134,133;,
  4;126,127,135,134;,
  4;127,120,128,135;,
  4;128,129,137,136;,
  4;129,130,138,137;,
  4;130,131,139,138;,
  4;131,132,140,139;,
  4;132,133,141,140;,
  4;133,134,142,141;,
  4;134,135,143,142;,
  4;135,128,136,143;,
  4;136,137,145,144;,
  4;137,138,146,145;,
  4;138,139,147,146;,
  4;139,140,148,147;,
  4;140,141,149,148;,
  4;141,142,150,149;,
  4;142,143,151,150;,
  4;143,136,144,151;,
  4;144,145,153,152;,
  4;145,146,154,153;,
  4;146,147,155,154;,
  4;147,148,156,155;,
  4;148,149,157,156;,
  4;149,150,158,157;,
  4;150,151,159,158;,
  4;151,144,152,159;,
  4;152,153,161,160;,
  4;153,154,162,161;,
  4;154,155,163,162;,
  4;155,156,164,163;,
  4;156,157,165,164;,
  4;157,158,166,165;,
  4;158,159,167,166;,
  4;159,152,160,167;,
  4;160,161,169,168;,
  4;161,162,170,169;,
  4;162,163,171,170;,
  4;163,164,172,171;,
  4;164,165,173,172;,
  4;165,166,174,173;,
  4;166,167,175,174;,
  4;167,160,168,175;,
  3;168,169,176;,
  3;169,170,176;,
  3;170,171,176;,
  3;171,172,176;,
  3;172,173,176;,
  3;173,174,176;,
  3;174,175,176;,
  3;175,168,176;,
  4;177,177,177,177;,
  4;178,178,178,178;,
  4;179,179,179,179;,
  4;291,291,291,291;,
  4;292,292,292,292;,
  4;293,293,293,293;,
  3;180,121,181;,
  3;180,122,121;,
  3;180,123,122;,
  3;180,182,123;,
  3;180,183,182;,
  3;180,184,183;,
  3;180,185,184;,
  3;180,181,185;,
  4;181,121,187,186;,
  4;121,122,188,187;,
  4;122,123,131,188;,
  4;123,182,189,131;,
  4;182,183,190,189;,
  4;183,184,191,190;,
  4;184,185,192,191;,
  4;185,181,186,192;,
  4;186,187,194,193;,
  4;187,188,195,194;,
  4;188,131,196,195;,
  4;131,189,197,196;,
  4;189,190,198,197;,
  4;190,191,199,198;,
  4;191,192,200,199;,
  4;192,186,193,200;,
  4;193,194,202,201;,
  4;194,195,203,202;,
  4;195,196,204,203;,
  4;196,197,205,204;,
  4;197,198,206,205;,
  4;198,199,207,206;,
  4;199,200,208,207;,
  4;200,193,201,208;,
  4;201,202,210,209;,
  4;202,203,211,210;,
  4;203,204,212,211;,
  4;204,205,213,212;,
  4;205,206,214,213;,
  4;206,207,215,214;,
  4;207,208,216,215;,
  4;208,201,209,216;,
  4;209,210,161,217;,
  4;210,211,218,161;,
  4;211,212,219,218;,
  4;212,213,220,219;,
  4;213,214,221,220;,
  4;214,215,222,221;,
  4;215,216,223,222;,
  4;216,209,217,223;,
  4;217,161,169,224;,
  4;161,218,170,169;,
  4;218,219,171,170;,
  4;219,220,225,171;,
  4;220,221,226,225;,
  4;221,222,227,226;,
  4;222,223,228,227;,
  4;223,217,224,228;,
  3;224,169,229;,
  3;169,170,229;,
  3;170,171,229;,
  3;171,225,229;,
  3;225,226,229;,
  3;226,227,229;,
  3;227,228,229;,
  3;228,224,229;,
  3;230,232,231;,
  3;230,233,232;,
  3;230,234,233;,
  3;230,235,234;,
  3;230,236,235;,
  3;230,237,236;,
  3;230,238,237;,
  3;230,231,238;,
  4;231,232,240,239;,
  4;232,233,241,240;,
  4;233,234,242,241;,
  4;234,235,243,242;,
  4;235,236,244,243;,
  4;236,237,245,244;,
  4;237,238,246,245;,
  4;238,231,239,246;,
  4;239,240,248,247;,
  4;240,241,249,248;,
  4;241,242,250,249;,
  4;242,243,251,250;,
  4;243,244,252,251;,
  4;244,245,253,252;,
  4;245,246,254,253;,
  4;246,239,247,254;,
  4;247,248,256,255;,
  4;248,249,257,256;,
  4;249,250,258,257;,
  4;250,251,259,258;,
  4;251,252,260,259;,
  4;252,253,261,260;,
  4;253,254,262,261;,
  4;254,247,255,262;,
  4;255,256,264,263;,
  4;256,257,265,264;,
  4;257,258,266,265;,
  4;258,259,267,266;,
  4;259,260,268,267;,
  4;260,261,269,268;,
  4;261,262,270,269;,
  4;262,255,263,270;,
  4;263,264,272,271;,
  4;264,265,273,272;,
  4;265,266,274,273;,
  4;266,267,275,274;,
  4;267,268,276,275;,
  4;268,269,277,276;,
  4;269,270,278,277;,
  4;270,263,271,278;,
  4;271,272,280,279;,
  4;272,273,281,280;,
  4;273,274,282,281;,
  4;274,275,283,282;,
  4;275,276,284,283;,
  4;276,277,285,284;,
  4;277,278,286,285;,
  4;278,271,279,286;,
  3;279,280,287;,
  3;280,281,287;,
  3;281,282,287;,
  3;282,283,287;,
  3;283,284,287;,
  3;284,285,287;,
  3;285,286,287;,
  3;286,279,287;;
 }
 MeshTextureCoords {
  435;
  0.062500;0.000000;,
  0.125000;0.125000;,
  0.000000;0.125000;,
  0.187500;0.000000;,
  0.250000;0.125000;,
  0.312500;0.000000;,
  0.375000;0.125000;,
  0.437500;0.000000;,
  0.500000;0.125000;,
  0.562500;0.000000;,
  0.625000;0.125000;,
  0.687500;0.000000;,
  0.750000;0.125000;,
  0.812500;0.000000;,
  0.875000;0.125000;,
  0.937500;0.000000;,
  1.000000;0.125000;,
  0.125000;0.250000;,
  0.000000;0.250000;,
  0.250000;0.250000;,
  0.375000;0.250000;,
  0.500000;0.250000;,
  0.625000;0.250000;,
  0.750000;0.250000;,
  0.875000;0.250000;,
  1.000000;0.250000;,
  0.125000;0.375000;,
  0.000000;0.375000;,
  0.250000;0.375000;,
  0.375000;0.375000;,
  0.500000;0.375000;,
  0.625000;0.375000;,
  0.750000;0.375000;,
  0.875000;0.375000;,
  1.000000;0.375000;,
  0.125000;0.500000;,
  0.000000;0.500000;,
  0.250000;0.500000;,
  0.375000;0.500000;,
  0.500000;0.500000;,
  0.625000;0.500000;,
  0.750000;0.500000;,
  0.875000;0.500000;,
  1.000000;0.500000;,
  0.125000;0.625000;,
  0.000000;0.625000;,
  0.250000;0.625000;,
  0.375000;0.625000;,
  0.500000;0.625000;,
  0.625000;0.625000;,
  0.750000;0.625000;,
  0.875000;0.625000;,
  1.000000;0.625000;,
  0.125000;0.750000;,
  0.000000;0.750000;,
  0.250000;0.750000;,
  0.375000;0.750000;,
  0.500000;0.750000;,
  0.625000;0.750000;,
  0.750000;0.750000;,
  0.875000;0.750000;,
  1.000000;0.750000;,
  0.125000;0.875000;,
  0.000000;0.875000;,
  0.250000;0.875000;,
  0.375000;0.875000;,
  0.500000;0.875000;,
  0.625000;0.875000;,
  0.750000;0.875000;,
  0.875000;0.875000;,
  1.000000;0.875000;,
  0.062500;1.000000;,
  0.187500;1.000000;,
  0.312500;1.000000;,
  0.437500;1.000000;,
  0.562500;1.000000;,
  0.687500;1.000000;,
  0.812500;1.000000;,
  0.937500;1.000000;,
  0.062500;0.000000;,
  0.125000;0.125000;,
  0.000000;0.125000;,
  0.187500;0.000000;,
  0.250000;0.125000;,
  0.312500;0.000000;,
  0.375000;0.125000;,
  0.437500;0.000000;,
  0.500000;0.125000;,
  0.562500;0.000000;,
  0.625000;0.125000;,
  0.687500;0.000000;,
  0.750000;0.125000;,
  0.812500;0.000000;,
  0.875000;0.125000;,
  0.937500;0.000000;,
  1.000000;0.125000;,
  0.125000;0.250000;,
  0.000000;0.250000;,
  0.250000;0.250000;,
  0.375000;0.250000;,
  0.500000;0.250000;,
  0.625000;0.250000;,
  0.750000;0.250000;,
  0.875000;0.250000;,
  1.000000;0.250000;,
  0.125000;0.375000;,
  0.000000;0.375000;,
  0.250000;0.375000;,
  0.375000;0.375000;,
  0.500000;0.375000;,
  0.625000;0.375000;,
  0.750000;0.375000;,
  0.875000;0.375000;,
  1.000000;0.375000;,
  0.125000;0.500000;,
  0.000000;0.500000;,
  0.250000;0.500000;,
  0.375000;0.500000;,
  0.500000;0.500000;,
  0.625000;0.500000;,
  0.750000;0.500000;,
  0.875000;0.500000;,
  1.000000;0.500000;,
  0.125000;0.625000;,
  0.000000;0.625000;,
  0.250000;0.625000;,
  0.375000;0.625000;,
  0.500000;0.625000;,
  0.625000;0.625000;,
  0.750000;0.625000;,
  0.875000;0.625000;,
  1.000000;0.625000;,
  0.125000;0.750000;,
  0.000000;0.750000;,
  0.250000;0.750000;,
  0.375000;0.750000;,
  0.500000;0.750000;,
  0.625000;0.750000;,
  0.750000;0.750000;,
  0.875000;0.750000;,
  1.000000;0.750000;,
  0.125000;0.875000;,
  0.000000;0.875000;,
  0.250000;0.875000;,
  0.375000;0.875000;,
  0.500000;0.875000;,
  0.625000;0.875000;,
  0.750000;0.875000;,
  0.875000;0.875000;,
  1.000000;0.875000;,
  0.062500;1.000000;,
  0.187500;1.000000;,
  0.312500;1.000000;,
  0.437500;1.000000;,
  0.562500;1.000000;,
  0.687500;1.000000;,
  0.812500;1.000000;,
  0.937500;1.000000;,
  0.000000;0.000000;,
  1.000000;0.000000;,
  1.000000;1.000000;,
  0.000000;1.000000;,
  0.000000;0.000000;,
  1.000000;0.000000;,
  1.000000;1.000000;,
  0.000000;1.000000;,
  0.000000;0.000000;,
  1.000000;0.000000;,
  1.000000;1.000000;,
  0.000000;1.000000;,
  0.000000;0.000000;,
  1.000000;0.000000;,
  1.000000;1.000000;,
  0.000000;1.000000;,
  1.000000;1.000000;,
  0.000000;1.000000;,
  0.000000;0.000000;,
  1.000000;0.000000;,
  0.062500;0.000000;,
  0.125000;0.125000;,
  0.000000;0.125000;,
  0.187500;0.000000;,
  0.250000;0.125000;,
  0.312500;0.000000;,
  0.375000;0.125000;,
  0.437500;0.000000;,
  0.500000;0.125000;,
  0.562500;0.000000;,
  0.625000;0.125000;,
  0.687500;0.000000;,
  0.750000;0.125000;,
  0.812500;0.000000;,
  0.875000;0.125000;,
  0.937500;0.000000;,
  1.000000;0.125000;,
  0.125000;0.250000;,
  0.000000;0.250000;,
  0.250000;0.250000;,
  0.375000;0.250000;,
  0.500000;0.250000;,
  0.625000;0.250000;,
  0.750000;0.250000;,
  0.875000;0.250000;,
  1.000000;0.250000;,
  0.125000;0.375000;,
  0.000000;0.375000;,
  0.250000;0.375000;,
  0.375000;0.375000;,
  0.500000;0.375000;,
  0.625000;0.375000;,
  0.750000;0.375000;,
  0.875000;0.375000;,
  1.000000;0.375000;,
  0.125000;0.500000;,
  0.000000;0.500000;,
  0.250000;0.500000;,
  0.375000;0.500000;,
  0.500000;0.500000;,
  0.625000;0.500000;,
  0.750000;0.500000;,
  0.875000;0.500000;,
  1.000000;0.500000;,
  0.125000;0.625000;,
  0.000000;0.625000;,
  0.250000;0.625000;,
  0.375000;0.625000;,
  0.500000;0.625000;,
  0.625000;0.625000;,
  0.750000;0.625000;,
  0.875000;0.625000;,
  1.000000;0.625000;,
  0.125000;0.750000;,
  0.000000;0.750000;,
  0.250000;0.750000;,
  0.375000;0.750000;,
  0.500000;0.750000;,
  0.625000;0.750000;,
  0.750000;0.750000;,
  0.875000;0.750000;,
  1.000000;0.750000;,
  0.125000;0.875000;,
  0.000000;0.875000;,
  0.250000;0.875000;,
  0.375000;0.875000;,
  0.500000;0.875000;,
  0.625000;0.875000;,
  0.750000;0.875000;,
  0.875000;0.875000;,
  1.000000;0.875000;,
  0.062500;1.000000;,
  0.187500;1.000000;,
  0.312500;1.000000;,
  0.437500;1.000000;,
  0.562500;1.000000;,
  0.687500;1.000000;,
  0.812500;1.000000;,
  0.937500;1.000000;,
  0.000000;0.000000;,
  1.000000;0.000000;,
  1.000000;1.000000;,
  0.000000;1.000000;,
  0.000000;0.000000;,
  1.000000;0.000000;,
  1.000000;1.000000;,
  0.000000;1.000000;,
  0.000000;0.000000;,
  1.000000;0.000000;,
  1.000000;1.000000;,
  0.000000;1.000000;,
  0.000000;0.000000;,
  1.000000;0.000000;,
  1.000000;1.000000;,
  0.000000;1.000000;,
  1.000000;1.000000;,
  0.000000;1.000000;,
  0.000000;0.000000;,
  1.000000;0.000000;,
  0.062500;0.000000;,
  0.125000;0.125000;,
  0.000000;0.125000;,
  0.187500;0.000000;,
  0.250000;0.125000;,
  0.312500;0.000000;,
  0.375000;0.125000;,
  0.437500;0.000000;,
  0.500000;0.125000;,
  0.562500;0.000000;,
  0.625000;0.125000;,
  0.687500;0.000000;,
  0.750000;0.125000;,
  0.812500;0.000000;,
  0.875000;0.125000;,
  0.937500;0.000000;,
  1.000000;0.125000;,
  0.125000;0.250000;,
  0.000000;0.250000;,
  0.250000;0.250000;,
  0.375000;0.250000;,
  0.500000;0.250000;,
  0.625000;0.250000;,
  0.750000;0.250000;,
  0.875000;0.250000;,
  1.000000;0.250000;,
  0.125000;0.375000;,
  0.000000;0.375000;,
  0.250000;0.375000;,
  0.375000;0.375000;,
  0.500000;0.375000;,
  0.625000;0.375000;,
  0.750000;0.375000;,
  0.875000;0.375000;,
  1.000000;0.375000;,
  0.125000;0.500000;,
  0.000000;0.500000;,
  0.250000;0.500000;,
  0.375000;0.500000;,
  0.500000;0.500000;,
  0.625000;0.500000;,
  0.750000;0.500000;,
  0.875000;0.500000;,
  1.000000;0.500000;,
  0.125000;0.625000;,
  0.000000;0.625000;,
  0.250000;0.625000;,
  0.375000;0.625000;,
  0.500000;0.625000;,
  0.625000;0.625000;,
  0.750000;0.625000;,
  0.875000;0.625000;,
  1.000000;0.625000;,
  0.125000;0.750000;,
  0.000000;0.750000;,
  0.250000;0.750000;,
  0.375000;0.750000;,
  0.500000;0.750000;,
  0.625000;0.750000;,
  0.750000;0.750000;,
  0.875000;0.750000;,
  1.000000;0.750000;,
  0.125000;0.875000;,
  0.000000;0.875000;,
  0.250000;0.875000;,
  0.375000;0.875000;,
  0.500000;0.875000;,
  0.625000;0.875000;,
  0.750000;0.875000;,
  0.875000;0.875000;,
  1.000000;0.875000;,
  0.062500;1.000000;,
  0.187500;1.000000;,
  0.312500;1.000000;,
  0.437500;1.000000;,
  0.562500;1.000000;,
  0.687500;1.000000;,
  0.812500;1.000000;,
  0.937500;1.000000;,
  0.062500;0.000000;,
  0.125000;0.125000;,
  0.000000;0.125000;,
  0.187500;0.000000;,
  0.250000;0.125000;,
  0.312500;0.000000;,
  0.375000;0.125000;,
  0.437500;0.000000;,
  0.500000;0.125000;,
  0.562500;0.000000;,
  0.625000;0.125000;,
  0.687500;0.000000;,
  0.750000;0.125000;,
  0.812500;0.000000;,
  0.875000;0.125000;,
  0.937500;0.000000;,
  1.000000;0.125000;,
  0.125000;0.250000;,
  0.000000;0.250000;,
  0.250000;0.250000;,
  0.375000;0.250000;,
  0.500000;0.250000;,
  0.625000;0.250000;,
  0.750000;0.250000;,
  0.875000;0.250000;,
  1.000000;0.250000;,
  0.125000;0.375000;,
  0.000000;0.375000;,
  0.250000;0.375000;,
  0.375000;0.375000;,
  0.500000;0.375000;,
  0.625000;0.375000;,
  0.750000;0.375000;,
  0.875000;0.375000;,
  1.000000;0.375000;,
  0.125000;0.500000;,
  0.000000;0.500000;,
  0.250000;0.500000;,
  0.375000;0.500000;,
  0.500000;0.500000;,
  0.625000;0.500000;,
  0.750000;0.500000;,
  0.875000;0.500000;,
  1.000000;0.500000;,
  0.125000;0.625000;,
  0.000000;0.625000;,
  0.250000;0.625000;,
  0.375000;0.625000;,
  0.500000;0.625000;,
  0.625000;0.625000;,
  0.750000;0.625000;,
  0.875000;0.625000;,
  1.000000;0.625000;,
  0.125000;0.750000;,
  0.000000;0.750000;,
  0.250000;0.750000;,
  0.375000;0.750000;,
  0.500000;0.750000;,
  0.625000;0.750000;,
  0.750000;0.750000;,
  0.875000;0.750000;,
  1.000000;0.750000;,
  0.125000;0.875000;,
  0.000000;0.875000;,
  0.250000;0.875000;,
  0.375000;0.875000;,
  0.500000;0.875000;,
  0.625000;0.875000;,
  0.750000;0.875000;,
  0.875000;0.875000;,
  1.000000;0.875000;,
  0.062500;1.000000;,
  0.187500;1.000000;,
  0.312500;1.000000;,
  0.437500;1.000000;,
  0.562500;1.000000;,
  0.687500;1.000000;,
  0.812500;1.000000;,
  0.937500;1.000000;;
 }
}
