xof 0302txt 0064
template Header {
 <3D82AB43-62DA-11cf-AB39-0020AF71E433>
 WORD major;
 WORD minor;
 DWORD flags;
}

template Vector {
 <3D82AB5E-62DA-11cf-AB39-0020AF71E433>
 FLOAT x;
 FLOAT y;
 FLOAT z;
}

template Coords2d {
 <F6F23F44-7686-11cf-8F52-0040333594A3>
 FLOAT u;
 FLOAT v;
}

template Matrix4x4 {
 <F6F23F45-7686-11cf-8F52-0040333594A3>
 array FLOAT matrix[16];
}

template ColorRGBA {
 <35FF44E0-6C7C-11cf-8F52-0040333594A3>
 FLOAT red;
 FLOAT green;
 FLOAT blue;
 FLOAT alpha;
}

template ColorRGB {
 <D3E16E81-7835-11cf-8F52-0040333594A3>
 FLOAT red;
 FLOAT green;
 FLOAT blue;
}

template IndexedColor {
 <1630B820-7842-11cf-8F52-0040333594A3>
 DWORD index;
 ColorRGBA indexColor;
}

template Boolean {
 <4885AE61-78E8-11cf-8F52-0040333594A3>
 WORD truefalse;
}

template Boolean2d {
 <4885AE63-78E8-11cf-8F52-0040333594A3>
 Boolean u;
 Boolean v;
}

template MaterialWrap {
 <4885AE60-78E8-11cf-8F52-0040333594A3>
 Boolean u;
 Boolean v;
}

template TextureFilename {
 <A42790E1-7810-11cf-8F52-0040333594A3>
 STRING filename;
}

template Material {
 <3D82AB4D-62DA-11cf-AB39-0020AF71E433>
 ColorRGBA faceColor;
 FLOAT power;
 ColorRGB specularColor;
 ColorRGB emissiveColor;
 [...]
}

template MeshFace {
 <3D82AB5F-62DA-11cf-AB39-0020AF71E433>
 DWORD nFaceVertexIndices;
 array DWORD faceVertexIndices[nFaceVertexIndices];
}

template MeshFaceWraps {
 <4885AE62-78E8-11cf-8F52-0040333594A3>
 DWORD nFaceWrapValues;
 Boolean2d faceWrapValues;
}

template MeshTextureCoords {
 <F6F23F40-7686-11cf-8F52-0040333594A3>
 DWORD nTextureCoords;
 array Coords2d textureCoords[nTextureCoords];
}

template MeshMaterialList {
 <F6F23F42-7686-11cf-8F52-0040333594A3>
 DWORD nMaterials;
 DWORD nFaceIndexes;
 array DWORD faceIndexes[nFaceIndexes];
 [Material]
}

template MeshNormals {
 <F6F23F43-7686-11cf-8F52-0040333594A3>
 DWORD nNormals;
 array Vector normals[nNormals];
 DWORD nFaceNormals;
 array MeshFace faceNormals[nFaceNormals];
}

template MeshVertexColors {
 <1630B821-7842-11cf-8F52-0040333594A3>
 DWORD nVertexColors;
 array IndexedColor vertexColors[nVertexColors];
}

template Mesh {
 <3D82AB44-62DA-11cf-AB39-0020AF71E433>
 DWORD nVertices;
 array Vector vertices[nVertices];
 DWORD nFaces;
 array MeshFace faces[nFaces];
 [...]
}

Header{
1;
0;
1;
}

Mesh {
 352;
 -30.01930;53.92930;-24.13930;,
 18.25930;53.92930;-24.13930;,
 18.25930;5.65070;-24.13930;,
 -30.01930;5.65070;-24.13930;,
 18.25930;53.92930;24.13930;,
 18.25930;5.65070;24.13930;,
 -30.01930;53.92930;24.13930;,
 -30.01930;5.65070;24.13930;,
 -35.05660;43.01705;-29.17665;,
 23.29660;43.01705;-29.17665;,
 23.29660;27.45530;-29.17665;,
 -35.05660;27.45530;-29.17665;,
 23.29660;43.01705;29.17665;,
 23.29660;27.45530;29.17665;,
 -35.05660;43.01705;29.17665;,
 -35.05660;27.45530;29.17665;,
 -7.41835;18.16810;-24.74885;,
 -4.34165;18.16810;-24.74885;,
 -4.34165;5.16400;-24.74885;,
 -7.41835;5.16400;-24.74885;,
 -4.34165;18.16810;24.74885;,
 -4.34165;5.16400;24.74885;,
 -7.41835;18.16810;24.74885;,
 -7.41835;5.16400;24.74885;,
 -7.90385;21.50730;-24.30635;,
 -6.99750;21.25235;-24.49100;,
 -7.90385;21.25235;-24.56745;,
 -6.62210;21.25235;-24.30635;,
 -6.99750;21.25235;-24.12170;,
 -7.90385;21.25235;-24.04525;,
 -8.81020;21.25235;-24.12170;,
 -9.18560;21.25235;-24.30635;,
 -8.81020;21.25235;-24.49100;,
 -6.22915;20.52630;-24.64750;,
 -7.90385;20.52630;-24.78880;,
 -5.53550;20.52630;-24.30635;,
 -6.22915;20.52630;-23.96520;,
 -7.90385;20.52630;-23.82390;,
 -9.57855;20.52630;-23.96520;,
 -10.27220;20.52630;-24.30635;,
 -9.57855;20.52630;-24.64750;,
 -5.71575;19.43970;-24.75210;,
 -7.90385;19.43970;-24.93675;,
 -4.80940;19.43970;-24.30635;,
 -5.71575;19.43970;-23.86060;,
 -7.90385;19.43970;-23.67595;,
 -10.09195;19.43970;-23.86060;,
 -10.99830;19.43970;-24.30635;,
 -10.09195;19.43970;-24.75210;,
 -5.53550;18.15795;-24.78880;,
 -7.90385;18.15795;-24.98865;,
 -4.55445;18.15795;-24.30635;,
 -5.53550;18.15795;-23.82390;,
 -7.90385;18.15795;-23.62405;,
 -10.27220;18.15795;-23.82390;,
 -11.25325;18.15795;-24.30635;,
 -10.27220;18.15795;-24.78880;,
 -5.71575;16.87620;-24.75210;,
 -7.90385;16.87620;-24.93675;,
 -4.80940;16.87620;-24.30635;,
 -5.71575;16.87620;-23.86060;,
 -7.90385;16.87620;-23.67595;,
 -10.09195;16.87620;-23.86060;,
 -10.99830;16.87620;-24.30635;,
 -10.09195;16.87620;-24.75210;,
 -6.22915;15.78955;-24.64750;,
 -7.90385;15.78955;-24.78880;,
 -5.53550;15.78955;-24.30635;,
 -6.22915;15.78955;-23.96520;,
 -7.90385;15.78955;-23.82390;,
 -9.57855;15.78955;-23.96520;,
 -10.27220;15.78955;-24.30635;,
 -9.57855;15.78955;-24.64750;,
 -6.99750;15.06350;-24.49100;,
 -7.90385;15.06350;-24.56745;,
 -6.62210;15.06350;-24.30635;,
 -6.99750;15.06350;-24.12170;,
 -7.90385;15.06350;-24.04525;,
 -8.81020;15.06350;-24.12170;,
 -9.18560;15.06350;-24.30635;,
 -8.81020;15.06350;-24.49100;,
 -7.90385;14.80855;-24.30635;,
 -3.26940;21.50730;-24.30635;,
 -2.36305;21.25235;-24.49100;,
 -3.26940;21.25235;-24.56745;,
 -1.98760;21.25235;-24.30635;,
 -2.36305;21.25235;-24.12170;,
 -3.26940;21.25235;-24.04525;,
 -4.17570;21.25235;-24.12170;,
 -4.55110;21.25235;-24.30635;,
 -4.17570;21.25235;-24.49100;,
 -1.59470;20.52630;-24.64750;,
 -3.26940;20.52630;-24.78880;,
 -0.90100;20.52630;-24.30635;,
 -1.59470;20.52630;-23.96520;,
 -3.26940;20.52630;-23.82390;,
 -4.94405;20.52630;-23.96520;,
 -5.63775;20.52630;-24.30635;,
 -4.94405;20.52630;-24.64750;,
 -1.08130;19.43970;-24.75210;,
 -3.26940;19.43970;-24.93675;,
 -0.17495;19.43970;-24.30635;,
 -1.08130;19.43970;-23.86060;,
 -3.26940;19.43970;-23.67595;,
 -5.45745;19.43970;-23.86060;,
 -6.36380;19.43970;-24.30635;,
 -5.45745;19.43970;-24.75210;,
 -0.90100;18.15795;-24.78880;,
 -3.26940;18.15795;-24.98865;,
 0.08000;18.15795;-24.30635;,
 -0.90100;18.15795;-23.82390;,
 -3.26940;18.15795;-23.62405;,
 -5.63775;18.15795;-23.82390;,
 -6.61875;18.15795;-24.30635;,
 -5.63775;18.15795;-24.78880;,
 -1.08130;16.87620;-24.75210;,
 -3.26940;16.87620;-24.93675;,
 -0.17495;16.87620;-24.30635;,
 -1.08130;16.87620;-23.86060;,
 -3.26940;16.87620;-23.67595;,
 -5.45745;16.87620;-23.86060;,
 -6.36380;16.87620;-24.30635;,
 -5.45745;16.87620;-24.75210;,
 -1.59470;15.78955;-24.64750;,
 -3.26940;15.78955;-24.78880;,
 -0.90100;15.78955;-24.30635;,
 -1.59470;15.78955;-23.96520;,
 -3.26940;15.78955;-23.82390;,
 -4.94405;15.78955;-23.96520;,
 -5.63775;15.78955;-24.30635;,
 -4.94405;15.78955;-24.64750;,
 -2.36305;15.06350;-24.49100;,
 -3.26940;15.06350;-24.56745;,
 -1.98760;15.06350;-24.30635;,
 -2.36305;15.06350;-24.12170;,
 -3.26940;15.06350;-24.04525;,
 -4.17570;15.06350;-24.12170;,
 -4.55110;15.06350;-24.30635;,
 -4.17570;15.06350;-24.49100;,
 -3.26940;14.80855;-24.30635;,
 -7.90385;21.50730;24.45925;,
 -6.99750;21.25235;24.27460;,
 -7.90385;21.25235;24.19815;,
 -6.62210;21.25235;24.45925;,
 -6.99750;21.25235;24.64390;,
 -7.90385;21.25235;24.72035;,
 -8.81020;21.25235;24.64390;,
 -9.18560;21.25235;24.45925;,
 -8.81020;21.25235;24.27460;,
 -6.22915;20.52630;24.11810;,
 -7.90385;20.52630;23.97675;,
 -5.53550;20.52630;24.45925;,
 -6.22915;20.52630;24.80040;,
 -7.90385;20.52630;24.94170;,
 -9.57855;20.52630;24.80040;,
 -10.27220;20.52630;24.45925;,
 -9.57855;20.52630;24.11810;,
 -5.71575;19.43970;24.01350;,
 -7.90385;19.43970;23.82885;,
 -4.80940;19.43970;24.45925;,
 -5.71575;19.43970;24.90500;,
 -7.90385;19.43970;25.08965;,
 -10.09195;19.43970;24.90500;,
 -10.99830;19.43970;24.45925;,
 -10.09195;19.43970;24.01350;,
 -5.53550;18.15795;23.97675;,
 -7.90385;18.15795;23.77695;,
 -4.55445;18.15795;24.45925;,
 -5.53550;18.15795;24.94170;,
 -7.90385;18.15795;25.14155;,
 -10.27220;18.15795;24.94170;,
 -11.25325;18.15795;24.45925;,
 -10.27220;18.15795;23.97675;,
 -5.71575;16.87620;24.01350;,
 -7.90385;16.87620;23.82885;,
 -4.80940;16.87620;24.45925;,
 -5.71575;16.87620;24.90500;,
 -7.90385;16.87620;25.08965;,
 -10.09195;16.87620;24.90500;,
 -10.99830;16.87620;24.45925;,
 -10.09195;16.87620;24.01350;,
 -6.22915;15.78955;24.11810;,
 -7.90385;15.78955;23.97675;,
 -5.53550;15.78955;24.45925;,
 -6.22915;15.78955;24.80040;,
 -7.90385;15.78955;24.94170;,
 -9.57855;15.78955;24.80040;,
 -10.27220;15.78955;24.45925;,
 -9.57855;15.78955;24.11810;,
 -6.99750;15.06350;24.27460;,
 -7.90385;15.06350;24.19815;,
 -6.62210;15.06350;24.45925;,
 -6.99750;15.06350;24.64390;,
 -7.90385;15.06350;24.72035;,
 -8.81020;15.06350;24.64390;,
 -9.18560;15.06350;24.45925;,
 -8.81020;15.06350;24.27460;,
 -7.90385;14.80855;24.45925;,
 -4.05630;21.50730;24.45925;,
 -3.14995;21.25235;24.27460;,
 -4.05630;21.25235;24.19815;,
 -2.77455;21.25235;24.45925;,
 -3.14995;21.25235;24.64390;,
 -4.05630;21.25235;24.72035;,
 -4.96265;21.25235;24.64390;,
 -5.33805;21.25235;24.45925;,
 -4.96265;21.25235;24.27460;,
 -2.38160;20.52630;24.11810;,
 -4.05630;20.52630;23.97675;,
 -1.68795;20.52630;24.45925;,
 -2.38160;20.52630;24.80040;,
 -4.05630;20.52630;24.94170;,
 -5.73100;20.52630;24.80040;,
 -6.42470;20.52630;24.45925;,
 -5.73100;20.52630;24.11810;,
 -1.86820;19.43970;24.01350;,
 -4.05630;19.43970;23.82885;,
 -0.96190;19.43970;24.45925;,
 -1.86820;19.43970;24.90500;,
 -4.05630;19.43970;25.08965;,
 -6.24440;19.43970;24.90500;,
 -7.15075;19.43970;24.45925;,
 -6.24440;19.43970;24.01350;,
 -1.68795;18.15795;23.97675;,
 -4.05630;18.15795;23.77695;,
 -0.70690;18.15795;24.45925;,
 -1.68795;18.15795;24.94170;,
 -4.05630;18.15795;25.14155;,
 -6.42470;18.15795;24.94170;,
 -7.40570;18.15795;24.45925;,
 -6.42470;18.15795;23.97675;,
 -1.86820;16.87620;24.01350;,
 -4.05630;16.87620;23.82885;,
 -0.96190;16.87620;24.45925;,
 -1.86820;16.87620;24.90500;,
 -4.05630;16.87620;25.08965;,
 -6.24440;16.87620;24.90500;,
 -7.15075;16.87620;24.45925;,
 -6.24440;16.87620;24.01350;,
 -2.38160;15.78955;24.11810;,
 -4.05630;15.78955;23.97675;,
 -1.68795;15.78955;24.45925;,
 -2.38160;15.78955;24.80040;,
 -4.05630;15.78955;24.94170;,
 -5.73100;15.78955;24.80040;,
 -6.42470;15.78955;24.45925;,
 -5.73100;15.78955;24.11810;,
 -3.14995;15.06350;24.27460;,
 -4.05630;15.06350;24.19815;,
 -2.77455;15.06350;24.45925;,
 -3.14995;15.06350;24.64390;,
 -4.05630;15.06350;24.72035;,
 -4.96265;15.06350;24.64390;,
 -5.33805;15.06350;24.45925;,
 -4.96265;15.06350;24.27460;,
 -4.05630;14.80855;24.45925;,
 -11.47845;64.91140;-7.32885;,
 -0.28155;64.91140;-7.32885;,
 -0.28155;53.71450;-7.32885;,
 -11.47845;53.71450;-7.32885;,
 -0.28155;64.91140;7.32885;,
 -0.28155;53.71450;7.32885;,
 -11.47845;64.91140;7.32885;,
 -11.47845;53.71450;7.32885;,
 -34.11170;64.91140;-7.32885;,
 -22.91475;64.91140;-7.32885;,
 -22.91475;53.71450;-7.32885;,
 -34.11170;53.71450;-7.32885;,
 -22.91475;64.91140;7.32885;,
 -22.91475;53.71450;7.32885;,
 -34.11170;64.91140;7.32885;,
 -34.11170;53.71450;7.32885;,
 -34.11170;89.43035;-7.32885;,
 -22.91475;89.43035;-7.32885;,
 -22.91475;78.23345;-7.32885;,
 -34.11170;78.23345;-7.32885;,
 -22.91475;89.43035;7.32885;,
 -22.91475;78.23345;7.32885;,
 -34.11170;89.43035;7.32885;,
 -34.11170;78.23345;7.32885;,
 13.07435;64.91140;-7.32885;,
 24.27130;64.91140;-7.32885;,
 24.27130;53.71450;-7.32885;,
 13.07435;53.71450;-7.32885;,
 24.27130;64.91140;7.32885;,
 24.27130;53.71450;7.32885;,
 13.07435;64.91140;7.32885;,
 13.07435;53.71450;7.32885;,
 13.17130;88.42320;-7.32885;,
 24.36825;88.42320;-7.32885;,
 24.36825;77.22625;-7.32885;,
 13.17130;77.22625;-7.32885;,
 24.36825;88.42320;7.32885;,
 24.36825;77.22625;7.32885;,
 13.17130;88.42320;7.32885;,
 13.17130;77.22625;7.32885;,
 -34.11170;64.91140;-7.32885;,
 -22.91475;64.91140;-7.32885;,
 -22.91475;53.71450;-7.32885;,
 -34.11170;53.71450;-7.32885;,
 -22.91475;64.91140;7.32885;,
 -22.91475;53.71450;7.32885;,
 -34.11170;64.91140;7.32885;,
 -34.11170;53.71450;7.32885;,
 -10.15165;63.80815;-5.54290;,
 22.40465;63.80815;-5.54290;,
 22.40465;54.86225;-5.54290;,
 -10.15165;54.86225;-5.54290;,
 22.40465;63.80815;5.54290;,
 22.40465;54.86225;5.54290;,
 -10.15165;63.80815;5.54290;,
 -10.15165;54.86225;5.54290;,
 -25.53570;63.80815;-5.54290;,
 7.02060;63.80815;-5.54290;,
 7.02060;54.86225;-5.54290;,
 -25.53570;54.86225;-5.54290;,
 7.02060;63.80815;5.54290;,
 7.02060;54.86225;5.54290;,
 -25.53570;63.80815;5.54290;,
 -25.53570;54.86225;5.54290;,
 13.24410;78.65710;-5.54290;,
 23.03030;78.65710;-5.54290;,
 23.03030;62.29955;-5.54290;,
 13.24410;62.29955;-5.54290;,
 23.03030;78.65710;5.54290;,
 23.03030;62.29955;5.54290;,
 13.24410;78.65710;5.54290;,
 13.24410;62.29955;5.54290;,
 -32.83195;78.65710;-5.54290;,
 -23.04570;78.65710;-5.54290;,
 -23.04570;62.29955;-5.54290;,
 -32.83195;62.29955;-5.54290;,
 -23.04570;78.65710;5.54290;,
 -23.04570;62.29955;5.54290;,
 -32.83195;78.65710;5.54290;,
 -32.83195;62.29955;5.54290;,
 12.42605;85.85765;-5.54290;,
 19.34595;78.93775;-5.54290;,
 -4.49275;55.09900;-5.54290;,
 -11.41265;62.01890;-5.54290;,
 19.34595;78.93775;5.54290;,
 -4.49275;55.09900;5.54290;,
 12.42605;85.85765;5.54290;,
 -11.41265;62.01890;5.54290;,
 1.05735;62.01890;-5.54290;,
 -5.86255;55.09900;-5.54290;,
 -29.70125;78.93775;-5.54290;,
 -22.78135;85.85765;-5.54290;,
 -5.86255;55.09900;5.54290;,
 -29.70125;78.93775;5.54290;,
 1.05735;62.01890;5.54290;,
 -22.78135;85.85765;5.54290;;
 
 358;
 4;0,1,2,3;,
 4;1,4,5,2;,
 4;4,6,7,5;,
 4;6,0,3,7;,
 4;6,4,1,0;,
 4;3,2,5,7;,
 4;3,2,1,0;,
 4;2,5,4,1;,
 4;5,7,6,4;,
 4;7,3,0,6;,
 4;0,1,4,6;,
 4;7,5,2,3;,
 4;8,9,10,11;,
 4;9,12,13,10;,
 4;12,14,15,13;,
 4;14,8,11,15;,
 4;14,12,9,8;,
 4;11,10,13,15;,
 4;11,10,9,8;,
 4;10,13,12,9;,
 4;13,15,14,12;,
 4;15,11,8,14;,
 4;8,9,12,14;,
 4;15,13,10,11;,
 4;16,17,18,19;,
 4;17,20,21,18;,
 4;20,22,23,21;,
 4;22,16,19,23;,
 4;22,20,17,16;,
 4;19,18,21,23;,
 3;24,25,26;,
 3;24,27,25;,
 3;24,28,27;,
 3;24,29,28;,
 3;24,30,29;,
 3;24,31,30;,
 3;24,32,31;,
 3;24,26,32;,
 4;26,25,33,34;,
 4;25,27,35,33;,
 4;27,28,36,35;,
 4;28,29,37,36;,
 4;29,30,38,37;,
 4;30,31,39,38;,
 4;31,32,40,39;,
 4;32,26,34,40;,
 4;34,33,41,42;,
 4;33,35,43,41;,
 4;35,36,44,43;,
 4;36,37,45,44;,
 4;37,38,46,45;,
 4;38,39,47,46;,
 4;39,40,48,47;,
 4;40,34,42,48;,
 4;42,41,49,50;,
 4;41,43,51,49;,
 4;43,44,52,51;,
 4;44,45,53,52;,
 4;45,46,54,53;,
 4;46,47,55,54;,
 4;47,48,56,55;,
 4;48,42,50,56;,
 4;50,49,57,58;,
 4;49,51,59,57;,
 4;51,52,60,59;,
 4;52,53,61,60;,
 4;53,54,62,61;,
 4;54,55,63,62;,
 4;55,56,64,63;,
 4;56,50,58,64;,
 4;58,57,65,66;,
 4;57,59,67,65;,
 4;59,60,68,67;,
 4;60,61,69,68;,
 4;61,62,70,69;,
 4;62,63,71,70;,
 4;63,64,72,71;,
 4;64,58,66,72;,
 4;66,65,73,74;,
 4;65,67,75,73;,
 4;67,68,76,75;,
 4;68,69,77,76;,
 4;69,70,78,77;,
 4;70,71,79,78;,
 4;71,72,80,79;,
 4;72,66,74,80;,
 3;74,73,81;,
 3;73,75,81;,
 3;75,76,81;,
 3;76,77,81;,
 3;77,78,81;,
 3;78,79,81;,
 3;79,80,81;,
 3;80,74,81;,
 3;82,83,84;,
 3;82,85,83;,
 3;82,86,85;,
 3;82,87,86;,
 3;82,88,87;,
 3;82,89,88;,
 3;82,90,89;,
 3;82,84,90;,
 4;84,83,91,92;,
 4;83,85,93,91;,
 4;85,86,94,93;,
 4;86,87,95,94;,
 4;87,88,96,95;,
 4;88,89,97,96;,
 4;89,90,98,97;,
 4;90,84,92,98;,
 4;92,91,99,100;,
 4;91,93,101,99;,
 4;93,94,102,101;,
 4;94,95,103,102;,
 4;95,96,104,103;,
 4;96,97,105,104;,
 4;97,98,106,105;,
 4;98,92,100,106;,
 4;100,99,107,108;,
 4;99,101,109,107;,
 4;101,102,110,109;,
 4;102,103,111,110;,
 4;103,104,112,111;,
 4;104,105,113,112;,
 4;105,106,114,113;,
 4;106,100,108,114;,
 4;108,107,115,116;,
 4;107,109,117,115;,
 4;109,110,118,117;,
 4;110,111,119,118;,
 4;111,112,120,119;,
 4;112,113,121,120;,
 4;113,114,122,121;,
 4;114,108,116,122;,
 4;116,115,123,124;,
 4;115,117,125,123;,
 4;117,118,126,125;,
 4;118,119,127,126;,
 4;119,120,128,127;,
 4;120,121,129,128;,
 4;121,122,130,129;,
 4;122,116,124,130;,
 4;124,123,131,132;,
 4;123,125,133,131;,
 4;125,126,134,133;,
 4;126,127,135,134;,
 4;127,128,136,135;,
 4;128,129,137,136;,
 4;129,130,138,137;,
 4;130,124,132,138;,
 3;132,131,139;,
 3;131,133,139;,
 3;133,134,139;,
 3;134,135,139;,
 3;135,136,139;,
 3;136,137,139;,
 3;137,138,139;,
 3;138,132,139;,
 3;140,141,142;,
 3;140,143,141;,
 3;140,144,143;,
 3;140,145,144;,
 3;140,146,145;,
 3;140,147,146;,
 3;140,148,147;,
 3;140,142,148;,
 4;142,141,149,150;,
 4;141,143,151,149;,
 4;143,144,152,151;,
 4;144,145,153,152;,
 4;145,146,154,153;,
 4;146,147,155,154;,
 4;147,148,156,155;,
 4;148,142,150,156;,
 4;150,149,157,158;,
 4;149,151,159,157;,
 4;151,152,160,159;,
 4;152,153,161,160;,
 4;153,154,162,161;,
 4;154,155,163,162;,
 4;155,156,164,163;,
 4;156,150,158,164;,
 4;158,157,165,166;,
 4;157,159,167,165;,
 4;159,160,168,167;,
 4;160,161,169,168;,
 4;161,162,170,169;,
 4;162,163,171,170;,
 4;163,164,172,171;,
 4;164,158,166,172;,
 4;166,165,173,174;,
 4;165,167,175,173;,
 4;167,168,176,175;,
 4;168,169,177,176;,
 4;169,170,178,177;,
 4;170,171,179,178;,
 4;171,172,180,179;,
 4;172,166,174,180;,
 4;174,173,181,182;,
 4;173,175,183,181;,
 4;175,176,184,183;,
 4;176,177,185,184;,
 4;177,178,186,185;,
 4;178,179,187,186;,
 4;179,180,188,187;,
 4;180,174,182,188;,
 4;182,181,189,190;,
 4;181,183,191,189;,
 4;183,184,192,191;,
 4;184,185,193,192;,
 4;185,186,194,193;,
 4;186,187,195,194;,
 4;187,188,196,195;,
 4;188,182,190,196;,
 3;190,189,197;,
 3;189,191,197;,
 3;191,192,197;,
 3;192,193,197;,
 3;193,194,197;,
 3;194,195,197;,
 3;195,196,197;,
 3;196,190,197;,
 3;198,199,200;,
 3;198,201,199;,
 3;198,202,201;,
 3;198,203,202;,
 3;198,204,203;,
 3;198,205,204;,
 3;198,206,205;,
 3;198,200,206;,
 4;200,199,207,208;,
 4;199,201,209,207;,
 4;201,202,210,209;,
 4;202,203,211,210;,
 4;203,204,212,211;,
 4;204,205,213,212;,
 4;205,206,214,213;,
 4;206,200,208,214;,
 4;208,207,215,216;,
 4;207,209,217,215;,
 4;209,210,218,217;,
 4;210,211,219,218;,
 4;211,212,220,219;,
 4;212,213,221,220;,
 4;213,214,222,221;,
 4;214,208,216,222;,
 4;216,215,223,224;,
 4;215,217,225,223;,
 4;217,218,226,225;,
 4;218,219,227,226;,
 4;219,220,228,227;,
 4;220,221,229,228;,
 4;221,222,230,229;,
 4;222,216,224,230;,
 4;224,223,231,232;,
 4;223,225,233,231;,
 4;225,226,234,233;,
 4;226,227,235,234;,
 4;227,228,236,235;,
 4;228,229,237,236;,
 4;229,230,238,237;,
 4;230,224,232,238;,
 4;232,231,239,240;,
 4;231,233,241,239;,
 4;233,234,242,241;,
 4;234,235,243,242;,
 4;235,236,244,243;,
 4;236,237,245,244;,
 4;237,238,246,245;,
 4;238,232,240,246;,
 4;240,239,247,248;,
 4;239,241,249,247;,
 4;241,242,250,249;,
 4;242,243,251,250;,
 4;243,244,252,251;,
 4;244,245,253,252;,
 4;245,246,254,253;,
 4;246,240,248,254;,
 3;248,247,255;,
 3;247,249,255;,
 3;249,250,255;,
 3;250,251,255;,
 3;251,252,255;,
 3;252,253,255;,
 3;253,254,255;,
 3;254,248,255;,
 4;256,257,258,259;,
 4;257,260,261,258;,
 4;260,262,263,261;,
 4;262,256,259,263;,
 4;262,260,257,256;,
 4;259,258,261,263;,
 4;264,265,266,267;,
 4;265,268,269,266;,
 4;268,270,271,269;,
 4;270,264,267,271;,
 4;270,268,265,264;,
 4;267,266,269,271;,
 4;272,273,274,275;,
 4;273,276,277,274;,
 4;276,278,279,277;,
 4;278,272,275,279;,
 4;278,276,273,272;,
 4;275,274,277,279;,
 4;280,281,282,283;,
 4;281,284,285,282;,
 4;284,286,287,285;,
 4;286,280,283,287;,
 4;286,284,281,280;,
 4;283,282,285,287;,
 4;288,289,290,291;,
 4;289,292,293,290;,
 4;292,294,295,293;,
 4;294,288,291,295;,
 4;294,292,289,288;,
 4;291,290,293,295;,
 4;296,297,298,299;,
 4;297,300,301,298;,
 4;300,302,303,301;,
 4;302,296,299,303;,
 4;302,300,297,296;,
 4;299,298,301,303;,
 4;304,305,306,307;,
 4;305,308,309,306;,
 4;308,310,311,309;,
 4;310,304,307,311;,
 4;310,308,305,304;,
 4;307,306,309,311;,
 4;312,313,314,315;,
 4;313,316,317,314;,
 4;316,318,319,317;,
 4;318,312,315,319;,
 4;318,316,313,312;,
 4;315,314,317,319;,
 4;320,321,322,323;,
 4;321,324,325,322;,
 4;324,326,327,325;,
 4;326,320,323,327;,
 4;326,324,321,320;,
 4;323,322,325,327;,
 4;328,329,330,331;,
 4;329,332,333,330;,
 4;332,334,335,333;,
 4;334,328,331,335;,
 4;334,332,329,328;,
 4;331,330,333,335;,
 4;336,337,338,339;,
 4;337,340,341,338;,
 4;340,342,343,341;,
 4;342,336,339,343;,
 4;342,340,337,336;,
 4;339,338,341,343;,
 4;344,345,346,347;,
 4;345,348,349,346;,
 4;348,350,351,349;,
 4;350,344,347,351;,
 4;350,348,345,344;,
 4;347,346,349,351;;
 
 MeshMaterialList {
  5;
  358;
  1,
  1,
  1,
  1,
  1,
  1,
  4,
  4,
  4,
  4,
  4,
  4,
  1,
  1,
  1,
  1,
  1,
  1,
  4,
  4,
  4,
  4,
  4,
  4,
  0,
  0,
  0,
  0,
  0,
  0,
  0,
  0,
  0,
  0,
  0,
  0,
  0,
  0,
  0,
  0,
  0,
  0,
  0,
  0,
  0,
  0,
  0,
  0,
  0,
  0,
  0,
  0,
  0,
  0,
  0,
  0,
  0,
  0,
  0,
  0,
  0,
  0,
  0,
  0,
  0,
  0,
  0,
  0,
  0,
  0,
  0,
  0,
  0,
  0,
  0,
  0,
  0,
  0,
  0,
  0,
  0,
  0,
  0,
  0,
  0,
  0,
  0,
  0,
  0,
  0,
  0,
  0,
  0,
  0,
  0,
  0,
  0,
  0,
  0,
  0,
  0,
  0,
  0,
  0,
  0,
  0,
  0,
  0,
  0,
  0,
  0,
  0,
  0,
  0,
  0,
  0,
  0,
  0,
  0,
  0,
  0,
  0,
  0,
  0,
  0,
  0,
  0,
  0,
  0,
  0,
  0,
  0,
  0,
  0,
  0,
  0,
  0,
  0,
  0,
  0,
  0,
  0,
  0,
  0,
  0,
  0,
  0,
  0,
  0,
  0,
  0,
  0,
  0,
  0,
  0,
  0,
  0,
  0,
  0,
  0,
  0,
  0,
  0,
  0,
  0,
  0,
  0,
  0,
  0,
  0,
  0,
  0,
  0,
  0,
  0,
  0,
  0,
  0,
  0,
  0,
  0,
  0,
  0,
  0,
  0,
  0,
  0,
  0,
  0,
  0,
  0,
  0,
  0,
  0,
  0,
  0,
  0,
  0,
  0,
  0,
  0,
  0,
  0,
  0,
  0,
  0,
  0,
  0,
  0,
  0,
  0,
  0,
  0,
  0,
  0,
  0,
  0,
  0,
  0,
  0,
  0,
  0,
  0,
  0,
  0,
  0,
  0,
  0,
  0,
  0,
  0,
  0,
  0,
  0,
  0,
  0,
  0,
  0,
  0,
  0,
  0,
  0,
  0,
  0,
  0,
  0,
  0,
  0,
  0,
  0,
  0,
  0,
  0,
  0,
  0,
  0,
  0,
  0,
  0,
  0,
  0,
  0,
  0,
  0,
  0,
  0,
  0,
  0,
  0,
  0,
  0,
  0,
  0,
  0,
  0,
  0,
  0,
  0,
  0,
  0,
  0,
  0,
  0,
  0,
  0,
  0,
  2,
  2,
  2,
  2,
  2,
  2,
  2,
  2,
  2,
  2,
  2,
  2,
  2,
  2,
  2,
  2,
  2,
  2,
  2,
  2,
  2,
  2,
  2,
  2,
  2,
  2,
  2,
  2,
  2,
  2,
  2,
  2,
  2,
  2,
  2,
  2,
  3,
  3,
  3,
  3,
  3,
  3,
  3,
  3,
  3,
  3,
  3,
  3,
  3,
  3,
  3,
  3,
  3,
  3,
  3,
  3,
  3,
  3,
  3,
  3,
  3,
  3,
  3,
  3,
  3,
  3,
  3,
  3,
  3,
  3,
  3,
  3;;
  Material {
   0.000000;0.000000;0.000000;1.000000;;
   5.000000;
   0.000000;0.000000;0.000000;;
   0.000000;0.000000;0.000000;;
  }
  Material {
   0.800000;0.728000;0.166400;1.000000;;
   5.000000;
   0.000000;0.000000;0.000000;;
   0.000000;0.000000;0.000000;;
  }
  Material {
   0.800000;0.138400;0.112800;1.000000;;
   5.000000;
   0.000000;0.000000;0.000000;;
   0.000000;0.000000;0.000000;;
  }
  Material {
   0.800000;0.800000;0.800000;1.000000;;
   5.000000;
   0.000000;0.000000;0.000000;;
   0.000000;0.000000;0.000000;;
  }
  Material {
   1.000000;1.000000;1.000000;1.000000;;
   0.000000;
   0.000000;0.000000;0.000000;;
   0.000000;0.000000;0.000000;;
  }
 }
 MeshNormals {
  380;
  0.000000;0.000000;-1.000000;,
  1.000000;0.000000;0.000000;,
  0.000000;0.000000;1.000000;,
  -1.000000;0.000000;0.000000;,
  0.000000;1.000000;0.000000;,
  0.000000;-1.000000;-0.000000;,
  0.000000;0.000000;-1.000000;,
  1.000000;0.000000;0.000000;,
  0.000000;0.000000;1.000000;,
  -1.000000;0.000000;0.000000;,
  0.000000;1.000000;0.000000;,
  0.000000;-1.000000;-0.000000;,
  0.000000;0.964247;-0.265006;,
  -0.000000;0.519954;-0.854194;,
  0.182630;0.654229;-0.733914;,
  0.281693;0.915088;-0.288552;,
  0.182631;0.654231;0.733913;,
  -0.000000;0.519955;0.854194;,
  -0.182631;0.654231;0.733913;,
  -0.281694;0.915089;0.288549;,
  -0.182630;0.654229;-0.733915;,
  -0.000000;0.213945;-0.976846;,
  0.245824;0.323986;-0.913566;,
  0.400188;0.421638;-0.813677;,
  0.245825;0.323987;0.913566;,
  -0.000000;0.213945;0.976846;,
  -0.245825;0.323987;0.913566;,
  -0.400190;0.421639;0.813676;,
  -0.245824;0.323986;-0.913566;,
  0.000000;0.087781;-0.996140;,
  0.263143;0.139211;-0.954660;,
  0.433610;0.186068;-0.881681;,
  0.263144;0.139212;0.954660;,
  0.000000;0.087781;0.996140;,
  -0.263144;0.139212;0.954660;,
  -0.433612;0.186068;0.881680;,
  -0.263144;0.139212;-0.954660;,
  0.000000;0.000000;-1.000000;,
  0.267055;0.000000;-0.963681;,
  0.441308;0.000000;-0.897356;,
  0.267056;0.000000;0.963681;,
  0.000000;0.000000;1.000000;,
  -0.267056;-0.000000;0.963681;,
  -0.441310;0.000000;0.897355;,
  -0.267055;-0.000000;-0.963681;,
  0.000000;-0.087780;-0.996140;,
  0.263144;-0.139208;-0.954660;,
  0.433610;-0.186062;-0.881682;,
  0.263145;-0.139208;0.954660;,
  0.000000;-0.087780;0.996140;,
  -0.263145;-0.139208;0.954660;,
  -0.433612;-0.186062;0.881681;,
  -0.263144;-0.139208;-0.954660;,
  -0.000000;-0.213944;-0.976846;,
  0.245825;-0.323983;-0.913567;,
  0.400189;-0.421632;-0.813680;,
  0.245826;-0.323984;0.913567;,
  -0.000000;-0.213944;0.976846;,
  -0.245826;-0.323983;0.913567;,
  -0.400191;-0.421634;0.813678;,
  -0.245825;-0.323983;-0.913567;,
  -0.000000;-0.519953;-0.854195;,
  0.182630;-0.654229;-0.733915;,
  0.281693;-0.915088;-0.288552;,
  0.182631;-0.654230;0.733913;,
  -0.000000;-0.519954;0.854194;,
  -0.182631;-0.654230;0.733913;,
  -0.281694;-0.915089;0.288549;,
  -0.182630;-0.654228;-0.733915;,
  0.000000;-0.964247;-0.265007;,
  -0.000000;0.715485;0.698629;,
  0.368270;0.551139;0.748748;,
  0.400190;0.421639;0.813676;,
  -0.368268;0.551137;-0.748750;,
  -0.400188;0.421638;-0.813677;,
  0.433612;0.186069;0.881680;,
  -0.433610;0.186069;-0.881681;,
  0.441310;0.000000;0.897355;,
  -0.441308;0.000000;-0.897356;,
  0.433612;-0.186063;0.881681;,
  -0.433611;-0.186063;-0.881682;,
  0.400191;-0.421634;0.813678;,
  -0.400189;-0.421632;-0.813680;,
  0.368270;-0.551139;0.748748;,
  -0.368268;-0.551137;-0.748750;,
  -0.000000;-0.715483;0.698630;,
  -0.000006;0.964246;-0.265008;,
  -0.000002;0.519957;-0.854193;,
  0.182621;0.654219;-0.733926;,
  0.281682;0.915086;-0.288569;,
  0.182621;0.654220;0.733925;,
  -0.000002;0.519958;0.854192;,
  -0.182631;0.654226;0.733917;,
  -0.281697;0.915087;0.288554;,
  -0.182631;0.654224;-0.733918;,
  -0.000001;0.213949;-0.976845;,
  0.245815;0.323977;-0.913572;,
  0.400171;0.421616;-0.813697;,
  0.245816;0.323976;0.913572;,
  -0.000001;0.213949;0.976845;,
  -0.245821;0.323981;0.913569;,
  -0.400181;0.421628;0.813686;,
  -0.245820;0.323980;-0.913569;,
  -0.000001;0.087782;-0.996140;,
  0.263143;0.139211;-0.954660;,
  0.433609;0.186066;-0.881682;,
  0.263143;0.139211;0.954660;,
  -0.000001;0.087782;0.996140;,
  -0.263144;0.139211;0.954660;,
  -0.433610;0.186066;0.881681;,
  -0.263143;0.139211;-0.954660;,
  -0.000001;0.000000;-1.000000;,
  0.267060;0.000000;-0.963680;,
  0.441317;0.000000;-0.897351;,
  0.267061;-0.000000;0.963680;,
  -0.000001;0.000000;1.000000;,
  -0.267061;0.000000;0.963680;,
  -0.441319;0.000000;0.897350;,
  -0.267061;-0.000000;-0.963680;,
  -0.000001;-0.087780;-0.996140;,
  0.263143;-0.139206;-0.954661;,
  0.433609;-0.186060;-0.881683;,
  0.263144;-0.139207;0.954661;,
  -0.000001;-0.087780;0.996140;,
  -0.263145;-0.139208;0.954660;,
  -0.433611;-0.186060;0.881682;,
  -0.263144;-0.139207;-0.954660;,
  -0.000001;-0.213947;-0.976845;,
  0.245815;-0.323972;-0.913574;,
  0.400172;-0.421610;-0.813699;,
  0.245816;-0.323972;0.913573;,
  -0.000001;-0.213947;0.976845;,
  -0.245822;-0.323978;0.913570;,
  -0.400182;-0.421622;0.813689;,
  -0.245821;-0.323977;-0.913571;,
  -0.000002;-0.519956;-0.854193;,
  0.182621;-0.654218;-0.733927;,
  0.281683;-0.915086;-0.288569;,
  0.182622;-0.654219;0.733926;,
  -0.000002;-0.519957;0.854192;,
  -0.182632;-0.654226;0.733917;,
  -0.281697;-0.915086;0.288554;,
  -0.182631;-0.654224;-0.733919;,
  -0.000006;-0.964246;-0.265008;,
  -0.000002;0.715484;0.698629;,
  0.368248;0.551108;0.748781;,
  0.400173;0.421615;0.813697;,
  -0.368260;0.551128;-0.748761;,
  -0.400179;0.421626;-0.813688;,
  0.433610;0.186065;0.881681;,
  -0.433608;0.186066;-0.881682;,
  0.441319;0.000000;0.897350;,
  -0.441317;0.000000;-0.897351;,
  0.433611;-0.186060;0.881682;,
  -0.433609;-0.186060;-0.881683;,
  0.400174;-0.421610;0.813699;,
  -0.400180;-0.421621;-0.813690;,
  0.368248;-0.551108;0.748781;,
  -0.368260;-0.551128;-0.748761;,
  -0.000002;-0.715483;0.698630;,
  0.000000;0.964247;-0.265005;,
  -0.000000;0.519979;-0.854179;,
  0.182632;0.654241;-0.733904;,
  0.281693;0.915089;-0.288550;,
  0.182631;0.654231;0.733913;,
  -0.000000;0.519955;0.854194;,
  -0.182631;0.654231;0.733913;,
  -0.281693;0.915089;0.288550;,
  -0.182632;0.654240;-0.733904;,
  -0.000000;0.213965;-0.976841;,
  0.245832;0.323996;-0.913561;,
  0.400190;0.421639;-0.813676;,
  0.245825;0.323987;0.913566;,
  -0.000000;0.213945;0.976846;,
  -0.245825;0.323987;0.913566;,
  -0.400190;0.421639;0.813676;,
  -0.245832;0.323996;-0.913561;,
  0.000000;0.087782;-0.996140;,
  0.263149;0.139218;-0.954658;,
  0.433619;0.186078;-0.881674;,
  0.263144;0.139212;0.954660;,
  0.000000;0.087781;0.996140;,
  -0.263144;0.139212;0.954660;,
  -0.433612;0.186068;0.881680;,
  -0.263149;0.139218;-0.954657;,
  0.000000;0.000000;-1.000000;,
  0.267060;0.000000;-0.963680;,
  0.441327;0.000000;-0.897346;,
  0.267056;0.000000;0.963681;,
  0.000000;0.000000;1.000000;,
  -0.267056;-0.000000;0.963681;,
  -0.441310;0.000000;0.897355;,
  -0.267060;0.000000;-0.963680;,
  0.000000;-0.087778;-0.996140;,
  0.263150;-0.139212;-0.954658;,
  0.433620;-0.186072;-0.881675;,
  0.263144;-0.139208;0.954660;,
  0.000000;-0.087780;0.996140;,
  -0.263144;-0.139208;0.954660;,
  -0.433612;-0.186062;0.881681;,
  -0.263150;-0.139212;-0.954658;,
  -0.000000;-0.213961;-0.976842;,
  0.245832;-0.323991;-0.913562;,
  0.400191;-0.421633;-0.813678;,
  0.245825;-0.323983;0.913567;,
  -0.000000;-0.213944;0.976846;,
  -0.245826;-0.323983;0.913567;,
  -0.400191;-0.421634;0.813678;,
  -0.245832;-0.323991;-0.913563;,
  -0.000000;-0.519978;-0.854180;,
  0.182632;-0.654240;-0.733904;,
  0.281694;-0.915089;-0.288550;,
  0.182631;-0.654230;0.733913;,
  -0.000000;-0.519954;0.854194;,
  -0.182631;-0.654230;0.733913;,
  -0.281694;-0.915089;0.288550;,
  -0.182632;-0.654240;-0.733904;,
  0.000000;-0.964247;-0.265006;,
  -0.000000;0.715485;0.698629;,
  0.368270;0.551139;0.748748;,
  0.400190;0.421639;0.813676;,
  -0.368270;0.551139;-0.748748;,
  -0.400190;0.421638;-0.813676;,
  0.433612;0.186069;0.881680;,
  -0.433619;0.186078;-0.881674;,
  0.441310;0.000000;0.897355;,
  -0.441327;0.000000;-0.897346;,
  0.433612;-0.186063;0.881681;,
  -0.433620;-0.186072;-0.881675;,
  0.400191;-0.421634;0.813678;,
  -0.400191;-0.421633;-0.813679;,
  0.368270;-0.551139;0.748748;,
  -0.368270;-0.551139;-0.748748;,
  -0.000000;-0.715483;0.698630;,
  -0.000000;0.964247;-0.265005;,
  -0.000000;0.519979;-0.854179;,
  0.182632;0.654241;-0.733904;,
  0.281693;0.915089;-0.288550;,
  0.182631;0.654231;0.733913;,
  -0.000000;0.519955;0.854194;,
  -0.182627;0.654231;0.733913;,
  -0.281689;0.915090;0.288551;,
  -0.182629;0.654241;-0.733904;,
  -0.000000;0.213965;-0.976841;,
  0.245834;0.323995;-0.913560;,
  0.400195;0.421636;-0.813675;,
  0.245828;0.323986;0.913565;,
  -0.000000;0.213946;0.976846;,
  -0.245819;0.323984;0.913568;,
  -0.400180;0.421634;0.813684;,
  -0.245826;0.323993;-0.913564;,
  0.000000;0.087783;-0.996140;,
  0.263154;0.139219;-0.954656;,
  0.433628;0.186081;-0.881669;,
  0.263149;0.139214;0.954658;,
  0.000000;0.087782;0.996140;,
  -0.263143;0.139212;0.954660;,
  -0.433610;0.186066;0.881681;,
  -0.263148;0.139217;-0.954658;,
  0.000000;0.000000;-1.000000;,
  0.267065;0.000000;-0.963678;,
  0.441337;0.000000;-0.897341;,
  0.267061;-0.000000;0.963680;,
  0.000000;0.000000;1.000000;,
  -0.267060;0.000000;0.963680;,
  -0.441318;0.000000;0.897351;,
  -0.267065;-0.000000;-0.963679;,
  0.000000;-0.087778;-0.996140;,
  0.263155;-0.139214;-0.954657;,
  0.433629;-0.186075;-0.881670;,
  0.263149;-0.139210;0.954659;,
  0.000000;-0.087780;0.996140;,
  -0.263143;-0.139207;0.954661;,
  -0.433610;-0.186060;0.881682;,
  -0.263149;-0.139211;-0.954659;,
  -0.000000;-0.213961;-0.976842;,
  0.245835;-0.323990;-0.913562;,
  0.400196;-0.421631;-0.813677;,
  0.245828;-0.323983;0.913567;,
  -0.000000;-0.213944;0.976846;,
  -0.245820;-0.323980;0.913570;,
  -0.400181;-0.421628;0.813686;,
  -0.245826;-0.323988;-0.913565;,
  -0.000000;-0.519978;-0.854180;,
  0.182632;-0.654240;-0.733904;,
  0.281694;-0.915089;-0.288550;,
  0.182631;-0.654230;0.733913;,
  -0.000000;-0.519954;0.854194;,
  -0.182628;-0.654231;0.733914;,
  -0.281690;-0.915090;0.288551;,
  -0.182629;-0.654240;-0.733905;,
  -0.000000;-0.964247;-0.265006;,
  -0.000000;0.715485;0.698629;,
  0.368270;0.551139;0.748748;,
  0.400195;0.421637;0.813674;,
  -0.368259;0.551141;-0.748752;,
  -0.400179;0.421633;-0.813684;,
  0.433621;0.186072;0.881675;,
  -0.433618;0.186076;-0.881676;,
  0.441319;0.000000;0.897350;,
  -0.441336;0.000000;-0.897342;,
  0.433621;-0.186066;0.881676;,
  -0.433618;-0.186070;-0.881676;,
  0.400196;-0.421632;0.813676;,
  -0.400180;-0.421627;-0.813687;,
  0.368270;-0.551139;0.748748;,
  -0.368259;-0.551141;-0.748752;,
  -0.000000;-0.715483;0.698630;,
  0.000000;0.000000;-1.000000;,
  1.000000;0.000000;0.000000;,
  0.000000;0.000000;1.000000;,
  -1.000000;0.000000;0.000000;,
  0.000000;1.000000;0.000000;,
  0.000000;-1.000000;-0.000000;,
  0.000000;0.000000;-1.000000;,
  1.000000;0.000000;0.000000;,
  0.000000;0.000000;1.000000;,
  -1.000000;0.000000;0.000000;,
  0.000000;1.000000;0.000000;,
  0.000000;-1.000000;-0.000000;,
  0.000000;0.000000;-1.000000;,
  1.000000;0.000000;0.000000;,
  0.000000;0.000000;1.000000;,
  -1.000000;0.000000;0.000000;,
  0.000000;1.000000;0.000000;,
  0.000000;-1.000000;-0.000000;,
  0.000000;0.000000;-1.000000;,
  1.000000;0.000000;0.000000;,
  0.000000;0.000000;1.000000;,
  -1.000000;0.000000;0.000000;,
  0.000000;1.000000;0.000000;,
  0.000000;-1.000000;-0.000000;,
  0.000000;0.000000;-1.000000;,
  1.000000;0.000000;0.000000;,
  0.000000;0.000000;1.000000;,
  -1.000000;0.000000;0.000000;,
  0.000000;1.000000;0.000000;,
  0.000000;-1.000000;-0.000000;,
  0.000000;0.000000;-1.000000;,
  1.000000;0.000000;0.000000;,
  0.000000;0.000000;1.000000;,
  -1.000000;0.000000;0.000000;,
  0.000000;1.000000;0.000000;,
  0.000000;-1.000000;-0.000000;,
  0.000000;0.000000;-1.000000;,
  1.000000;0.000000;0.000000;,
  0.000000;0.000000;1.000000;,
  -1.000000;0.000000;0.000000;,
  0.000000;1.000000;0.000000;,
  0.000000;-1.000000;-0.000000;,
  0.000000;0.000000;-1.000000;,
  1.000000;0.000000;0.000000;,
  0.000000;0.000000;1.000000;,
  -1.000000;0.000000;0.000000;,
  0.000000;1.000000;0.000000;,
  0.000000;-1.000000;-0.000000;,
  0.000000;0.000000;-1.000000;,
  1.000000;0.000000;0.000000;,
  0.000000;0.000000;1.000000;,
  -1.000000;0.000000;0.000000;,
  0.000000;1.000000;0.000000;,
  0.000000;-1.000000;-0.000000;,
  0.000000;0.000000;-1.000000;,
  1.000000;0.000000;0.000000;,
  0.000000;0.000000;1.000000;,
  -1.000000;0.000000;0.000000;,
  0.000000;1.000000;0.000000;,
  0.000000;-1.000000;-0.000000;,
  0.000000;0.000000;-1.000000;,
  0.707108;-0.707106;-0.000000;,
  0.000000;0.000000;1.000000;,
  -0.707108;0.707106;0.000000;,
  0.707107;0.707107;0.000000;,
  -0.707107;-0.707107;0.000000;,
  0.000000;0.000000;-1.000000;,
  -0.707108;-0.707106;0.000000;,
  0.000000;0.000000;1.000000;,
  0.707108;0.707106;0.000000;,
  0.707107;-0.707107;-0.000000;,
  -0.707107;0.707107;0.000000;;
  358;
  4;0,0,0,0;,
  4;1,1,1,1;,
  4;2,2,2,2;,
  4;3,3,3,3;,
  4;4,4,4,4;,
  4;5,5,5,5;,
  4;2,2,2,2;,
  4;3,3,3,3;,
  4;0,0,0,0;,
  4;1,1,1,1;,
  4;5,5,5,5;,
  4;4,4,4,4;,
  4;6,6,6,6;,
  4;7,7,7,7;,
  4;8,8,8,8;,
  4;9,9,9,9;,
  4;10,10,10,10;,
  4;11,11,11,11;,
  4;8,8,8,8;,
  4;9,9,9,9;,
  4;6,6,6,6;,
  4;7,7,7,7;,
  4;11,11,11,11;,
  4;10,10,10,10;,
  4;6,6,6,6;,
  4;7,7,7,7;,
  4;8,8,8,8;,
  4;9,9,9,9;,
  4;10,10,10,10;,
  4;11,11,11,11;,
  3;12,14,13;,
  3;12,15,14;,
  3;12,16,15;,
  3;70,17,16;,
  3;70,18,17;,
  3;12,19,18;,
  3;12,20,19;,
  3;12,13,20;,
  4;13,14,22,21;,
  4;14,15,23,22;,
  4;71,16,24,72;,
  4;16,17,25,24;,
  4;17,18,26,25;,
  4;18,19,27,26;,
  4;73,20,28,74;,
  4;20,13,21,28;,
  4;21,22,30,29;,
  4;22,23,31,30;,
  4;72,24,32,75;,
  4;24,25,33,32;,
  4;25,26,34,33;,
  4;26,27,35,34;,
  4;74,28,36,76;,
  4;28,21,29,36;,
  4;29,30,38,37;,
  4;30,31,39,38;,
  4;75,32,40,77;,
  4;32,33,41,40;,
  4;33,34,42,41;,
  4;34,35,43,42;,
  4;76,36,44,78;,
  4;36,29,37,44;,
  4;37,38,46,45;,
  4;38,39,47,46;,
  4;77,40,48,79;,
  4;40,41,49,48;,
  4;41,42,50,49;,
  4;42,43,51,50;,
  4;78,44,52,80;,
  4;44,37,45,52;,
  4;45,46,54,53;,
  4;46,47,55,54;,
  4;79,48,56,81;,
  4;48,49,57,56;,
  4;49,50,58,57;,
  4;50,51,59,58;,
  4;80,52,60,82;,
  4;52,45,53,60;,
  4;53,54,62,61;,
  4;54,55,63,62;,
  4;81,56,64,83;,
  4;56,57,65,64;,
  4;57,58,66,65;,
  4;58,59,67,66;,
  4;82,60,68,84;,
  4;60,53,61,68;,
  3;61,62,69;,
  3;62,63,69;,
  3;63,64,69;,
  3;64,65,85;,
  3;65,66,85;,
  3;66,67,69;,
  3;67,68,69;,
  3;68,61,69;,
  3;86,88,87;,
  3;86,89,88;,
  3;86,90,89;,
  3;144,91,90;,
  3;144,92,91;,
  3;86,93,92;,
  3;86,94,93;,
  3;86,87,94;,
  4;87,88,96,95;,
  4;88,89,97,96;,
  4;145,90,98,146;,
  4;90,91,99,98;,
  4;91,92,100,99;,
  4;92,93,101,100;,
  4;147,94,102,148;,
  4;94,87,95,102;,
  4;95,96,104,103;,
  4;96,97,105,104;,
  4;146,98,106,149;,
  4;98,99,107,106;,
  4;99,100,108,107;,
  4;100,101,109,108;,
  4;148,102,110,150;,
  4;102,95,103,110;,
  4;103,104,112,111;,
  4;104,105,113,112;,
  4;149,106,114,151;,
  4;106,107,115,114;,
  4;107,108,116,115;,
  4;108,109,117,116;,
  4;150,110,118,152;,
  4;110,103,111,118;,
  4;111,112,120,119;,
  4;112,113,121,120;,
  4;151,114,122,153;,
  4;114,115,123,122;,
  4;115,116,124,123;,
  4;116,117,125,124;,
  4;152,118,126,154;,
  4;118,111,119,126;,
  4;119,120,128,127;,
  4;120,121,129,128;,
  4;153,122,130,155;,
  4;122,123,131,130;,
  4;123,124,132,131;,
  4;124,125,133,132;,
  4;154,126,134,156;,
  4;126,119,127,134;,
  4;127,128,136,135;,
  4;128,129,137,136;,
  4;155,130,138,157;,
  4;130,131,139,138;,
  4;131,132,140,139;,
  4;132,133,141,140;,
  4;156,134,142,158;,
  4;134,127,135,142;,
  3;135,136,143;,
  3;136,137,143;,
  3;137,138,143;,
  3;138,139,159;,
  3;139,140,159;,
  3;140,141,143;,
  3;141,142,143;,
  3;142,135,143;,
  3;160,162,161;,
  3;160,163,162;,
  3;160,164,163;,
  3;218,165,164;,
  3;218,166,165;,
  3;160,167,166;,
  3;160,168,167;,
  3;160,161,168;,
  4;161,162,170,169;,
  4;162,163,171,170;,
  4;219,164,172,220;,
  4;164,165,173,172;,
  4;165,166,174,173;,
  4;166,167,175,174;,
  4;221,168,176,222;,
  4;168,161,169,176;,
  4;169,170,178,177;,
  4;170,171,179,178;,
  4;220,172,180,223;,
  4;172,173,181,180;,
  4;173,174,182,181;,
  4;174,175,183,182;,
  4;222,176,184,224;,
  4;176,169,177,184;,
  4;177,178,186,185;,
  4;178,179,187,186;,
  4;223,180,188,225;,
  4;180,181,189,188;,
  4;181,182,190,189;,
  4;182,183,191,190;,
  4;224,184,192,226;,
  4;184,177,185,192;,
  4;185,186,194,193;,
  4;186,187,195,194;,
  4;225,188,196,227;,
  4;188,189,197,196;,
  4;189,190,198,197;,
  4;190,191,199,198;,
  4;226,192,200,228;,
  4;192,185,193,200;,
  4;193,194,202,201;,
  4;194,195,203,202;,
  4;227,196,204,229;,
  4;196,197,205,204;,
  4;197,198,206,205;,
  4;198,199,207,206;,
  4;228,200,208,230;,
  4;200,193,201,208;,
  4;201,202,210,209;,
  4;202,203,211,210;,
  4;229,204,212,231;,
  4;204,205,213,212;,
  4;205,206,214,213;,
  4;206,207,215,214;,
  4;230,208,216,232;,
  4;208,201,209,216;,
  3;209,210,217;,
  3;210,211,217;,
  3;211,212,217;,
  3;212,213,233;,
  3;213,214,233;,
  3;214,215,217;,
  3;215,216,217;,
  3;216,209,217;,
  3;234,236,235;,
  3;234,237,236;,
  3;234,238,237;,
  3;292,239,238;,
  3;292,240,239;,
  3;234,241,240;,
  3;234,242,241;,
  3;234,235,242;,
  4;235,236,244,243;,
  4;236,237,245,244;,
  4;293,238,246,294;,
  4;238,239,247,246;,
  4;239,240,248,247;,
  4;240,241,249,248;,
  4;295,242,250,296;,
  4;242,235,243,250;,
  4;243,244,252,251;,
  4;244,245,253,252;,
  4;294,246,254,297;,
  4;246,247,255,254;,
  4;247,248,256,255;,
  4;248,249,257,256;,
  4;296,250,258,298;,
  4;250,243,251,258;,
  4;251,252,260,259;,
  4;252,253,261,260;,
  4;297,254,262,299;,
  4;254,255,263,262;,
  4;255,256,264,263;,
  4;256,257,265,264;,
  4;298,258,266,300;,
  4;258,251,259,266;,
  4;259,260,268,267;,
  4;260,261,269,268;,
  4;299,262,270,301;,
  4;262,263,271,270;,
  4;263,264,272,271;,
  4;264,265,273,272;,
  4;300,266,274,302;,
  4;266,259,267,274;,
  4;267,268,276,275;,
  4;268,269,277,276;,
  4;301,270,278,303;,
  4;270,271,279,278;,
  4;271,272,280,279;,
  4;272,273,281,280;,
  4;302,274,282,304;,
  4;274,267,275,282;,
  4;275,276,284,283;,
  4;276,277,285,284;,
  4;303,278,286,305;,
  4;278,279,287,286;,
  4;279,280,288,287;,
  4;280,281,289,288;,
  4;304,282,290,306;,
  4;282,275,283,290;,
  3;283,284,291;,
  3;284,285,291;,
  3;285,286,291;,
  3;286,287,307;,
  3;287,288,307;,
  3;288,289,291;,
  3;289,290,291;,
  3;290,283,291;,
  4;308,308,308,308;,
  4;309,309,309,309;,
  4;310,310,310,310;,
  4;311,311,311,311;,
  4;312,312,312,312;,
  4;313,313,313,313;,
  4;314,314,314,314;,
  4;315,315,315,315;,
  4;316,316,316,316;,
  4;317,317,317,317;,
  4;318,318,318,318;,
  4;319,319,319,319;,
  4;320,320,320,320;,
  4;321,321,321,321;,
  4;322,322,322,322;,
  4;323,323,323,323;,
  4;324,324,324,324;,
  4;325,325,325,325;,
  4;326,326,326,326;,
  4;327,327,327,327;,
  4;328,328,328,328;,
  4;329,329,329,329;,
  4;330,330,330,330;,
  4;331,331,331,331;,
  4;332,332,332,332;,
  4;333,333,333,333;,
  4;334,334,334,334;,
  4;335,335,335,335;,
  4;336,336,336,336;,
  4;337,337,337,337;,
  4;338,338,338,338;,
  4;339,339,339,339;,
  4;340,340,340,340;,
  4;341,341,341,341;,
  4;342,342,342,342;,
  4;343,343,343,343;,
  4;344,344,344,344;,
  4;345,345,345,345;,
  4;346,346,346,346;,
  4;347,347,347,347;,
  4;348,348,348,348;,
  4;349,349,349,349;,
  4;350,350,350,350;,
  4;351,351,351,351;,
  4;352,352,352,352;,
  4;353,353,353,353;,
  4;354,354,354,354;,
  4;355,355,355,355;,
  4;356,356,356,356;,
  4;357,357,357,357;,
  4;358,358,358,358;,
  4;359,359,359,359;,
  4;360,360,360,360;,
  4;361,361,361,361;,
  4;362,362,362,362;,
  4;363,363,363,363;,
  4;364,364,364,364;,
  4;365,365,365,365;,
  4;366,366,366,366;,
  4;367,367,367,367;,
  4;368,368,368,368;,
  4;369,369,369,369;,
  4;370,370,370,370;,
  4;371,371,371,371;,
  4;372,372,372,372;,
  4;373,373,373,373;,
  4;374,374,374,374;,
  4;375,375,375,375;,
  4;376,376,376,376;,
  4;377,377,377,377;,
  4;378,378,378,378;,
  4;379,379,379,379;;
 }
}
