#-----------------------
#エネミーの設定スクリプト
#Author:hamada ryuuga
#-----------------------
SCRIPT #ここ消さない


# ここから敵の座標などの設定

SET
TYPE = 0
POS = 670.0000 -125.0000 0.0000
SIZE = 25.0000
END_SET

SET
TYPE = 0
POS = 777.0000 -151.0000 0.0000
SIZE = 25.0000
END_SET

SET
TYPE = 0
POS = 530.0000 -164.0000 0.0000
SIZE = 25.0000
END_SET

SET
TYPE = 0
POS = 710.0000 -376.0000 0.0000
SIZE = 25.0000
END_SET

SET
TYPE = 0
POS = 695.0000 -473.0000 0.0000
SIZE = 25.0000
END_SET

END_SCRIPT #ここ消さない