xof 0302txt 0064
template Header {
 <3D82AB43-62DA-11cf-AB39-0020AF71E433>
 WORD major;
 WORD minor;
 DWORD flags;
}

template Vector {
 <3D82AB5E-62DA-11cf-AB39-0020AF71E433>
 FLOAT x;
 FLOAT y;
 FLOAT z;
}

template Coords2d {
 <F6F23F44-7686-11cf-8F52-0040333594A3>
 FLOAT u;
 FLOAT v;
}

template Matrix4x4 {
 <F6F23F45-7686-11cf-8F52-0040333594A3>
 array FLOAT matrix[16];
}

template ColorRGBA {
 <35FF44E0-6C7C-11cf-8F52-0040333594A3>
 FLOAT red;
 FLOAT green;
 FLOAT blue;
 FLOAT alpha;
}

template ColorRGB {
 <D3E16E81-7835-11cf-8F52-0040333594A3>
 FLOAT red;
 FLOAT green;
 FLOAT blue;
}

template IndexedColor {
 <1630B820-7842-11cf-8F52-0040333594A3>
 DWORD index;
 ColorRGBA indexColor;
}

template Boolean {
 <4885AE61-78E8-11cf-8F52-0040333594A3>
 WORD truefalse;
}

template Boolean2d {
 <4885AE63-78E8-11cf-8F52-0040333594A3>
 Boolean u;
 Boolean v;
}

template MaterialWrap {
 <4885AE60-78E8-11cf-8F52-0040333594A3>
 Boolean u;
 Boolean v;
}

template TextureFilename {
 <A42790E1-7810-11cf-8F52-0040333594A3>
 STRING filename;
}

template Material {
 <3D82AB4D-62DA-11cf-AB39-0020AF71E433>
 ColorRGBA faceColor;
 FLOAT power;
 ColorRGB specularColor;
 ColorRGB emissiveColor;
 [...]
}

template MeshFace {
 <3D82AB5F-62DA-11cf-AB39-0020AF71E433>
 DWORD nFaceVertexIndices;
 array DWORD faceVertexIndices[nFaceVertexIndices];
}

template MeshFaceWraps {
 <4885AE62-78E8-11cf-8F52-0040333594A3>
 DWORD nFaceWrapValues;
 Boolean2d faceWrapValues;
}

template MeshTextureCoords {
 <F6F23F40-7686-11cf-8F52-0040333594A3>
 DWORD nTextureCoords;
 array Coords2d textureCoords[nTextureCoords];
}

template MeshMaterialList {
 <F6F23F42-7686-11cf-8F52-0040333594A3>
 DWORD nMaterials;
 DWORD nFaceIndexes;
 array DWORD faceIndexes[nFaceIndexes];
 [Material]
}

template MeshNormals {
 <F6F23F43-7686-11cf-8F52-0040333594A3>
 DWORD nNormals;
 array Vector normals[nNormals];
 DWORD nFaceNormals;
 array MeshFace faceNormals[nFaceNormals];
}

template MeshVertexColors {
 <1630B821-7842-11cf-8F52-0040333594A3>
 DWORD nVertexColors;
 array IndexedColor vertexColors[nVertexColors];
}

template Mesh {
 <3D82AB44-62DA-11cf-AB39-0020AF71E433>
 DWORD nVertices;
 array Vector vertices[nVertices];
 DWORD nFaces;
 array MeshFace faces[nFaces];
 [...]
}

Header{
1;
0;
1;
}

Mesh {
 81;
 0.00000;238.29140;-1.92696;,
 0.00000;242.50334;7.76040;,
 -80.93325;208.98520;8.34552;,
 -78.07482;205.95660;-1.36275;,
 0.00000;252.33191;11.63184;,
 -87.83419;215.95550;12.26667;,
 0.00000;262.01896;7.41963;,
 -94.73508;222.78484;8.10441;,
 0.00000;265.89081;-2.40867;,
 -97.59357;225.47238;-1.70331;,
 0.00000;261.67862;-12.09630;,
 -94.73508;222.44389;-11.41134;,
 0.00000;251.85054;-15.96753;,
 -87.83419;215.47373;-15.33252;,
 0.00000;242.16302;-11.75565;,
 -80.93325;208.64441;-11.17035;,
 0.00000;238.29140;-1.92696;,
 -78.07482;205.95660;-1.36275;,
 -114.45696;128.06427;9.75783;,
 -110.41443;127.89390;0.00000;,
 -124.21636;128.13469;13.79958;,
 -133.97562;128.06427;9.75783;,
 -138.01807;127.89390;0.00000;,
 -133.97562;127.72350;-9.75789;,
 -124.21636;127.65294;-13.79976;,
 -114.45696;127.72357;-9.75786;,
 -110.41443;127.89390;0.00000;,
 -80.93325;47.14302;11.17038;,
 -78.07482;49.83090;1.36266;,
 -87.83419;40.31400;15.33252;,
 -94.73508;33.34380;11.41125;,
 -97.59357;30.31524;1.70325;,
 -94.73508;33.00288;-8.10438;,
 -87.83419;39.83217;-12.26670;,
 -80.93325;46.80279;-8.34525;,
 -78.07482;49.83090;1.36266;,
 0.00000;13.62447;11.75544;,
 0.00000;17.49630;1.92705;,
 0.00000;3.93729;15.96753;,
 0.00000;-5.89089;12.09609;,
 0.00000;-10.10325;2.40870;,
 0.00000;-6.23184;-7.41960;,
 0.00000;3.45537;-11.63190;,
 0.00000;13.28409;-7.76034;,
 0.00000;17.49630;1.92705;,
 80.93325;47.14305;11.17035;,
 78.07488;49.83099;1.36260;,
 87.83419;40.31400;15.33252;,
 94.73511;33.34380;11.41125;,
 97.59357;30.31530;1.70325;,
 94.73511;33.00276;-8.10444;,
 87.83419;39.83217;-12.26670;,
 80.93325;46.80267;-8.34519;,
 78.07488;49.83099;1.36260;,
 114.45696;128.06427;9.75789;,
 110.41443;127.89390;0.00003;,
 124.21636;128.13471;13.79967;,
 133.97562;128.06427;9.75789;,
 138.01807;127.89390;0.00003;,
 133.97562;127.72353;-9.75786;,
 124.21636;127.65294;-13.79976;,
 114.45696;127.72353;-9.75786;,
 110.41443;127.89390;0.00003;,
 80.93325;208.98487;8.34543;,
 78.07486;205.95653;-1.36263;,
 87.83419;215.95540;12.26670;,
 94.73508;222.78484;8.10441;,
 97.59357;225.47238;-1.70322;,
 94.73508;222.44389;-11.41134;,
 87.83419;215.47373;-15.33249;,
 80.93325;208.64441;-11.17038;,
 78.07486;205.95653;-1.36263;,
 0.00000;242.50334;7.76040;,
 0.00000;238.29140;-1.92696;,
 0.00000;252.33191;11.63184;,
 0.00000;262.01896;7.41963;,
 0.00000;265.89081;-2.40867;,
 0.00000;261.67862;-12.09630;,
 0.00000;251.85054;-15.96753;,
 0.00000;242.16302;-11.75565;,
 0.00000;238.29140;-1.92696;;
 
 64;
 4;0,1,2,3;,
 4;1,4,5,2;,
 4;4,6,7,5;,
 4;6,8,9,7;,
 4;8,10,11,9;,
 4;10,12,13,11;,
 4;12,14,15,13;,
 4;14,16,17,15;,
 4;3,2,18,19;,
 4;2,5,20,18;,
 4;5,7,21,20;,
 4;7,9,22,21;,
 4;9,11,23,22;,
 4;11,13,24,23;,
 4;13,15,25,24;,
 4;15,17,26,25;,
 4;19,18,27,28;,
 4;18,20,29,27;,
 4;20,21,30,29;,
 4;21,22,31,30;,
 4;22,23,32,31;,
 4;23,24,33,32;,
 4;24,25,34,33;,
 4;25,26,35,34;,
 4;28,27,36,37;,
 4;27,29,38,36;,
 4;29,30,39,38;,
 4;30,31,40,39;,
 4;31,32,41,40;,
 4;32,33,42,41;,
 4;33,34,43,42;,
 4;34,35,44,43;,
 4;37,36,45,46;,
 4;36,38,47,45;,
 4;38,39,48,47;,
 4;39,40,49,48;,
 4;40,41,50,49;,
 4;41,42,51,50;,
 4;42,43,52,51;,
 4;43,44,53,52;,
 4;46,45,54,55;,
 4;45,47,56,54;,
 4;47,48,57,56;,
 4;48,49,58,57;,
 4;49,50,59,58;,
 4;50,51,60,59;,
 4;51,52,61,60;,
 4;52,53,62,61;,
 4;55,54,63,64;,
 4;54,56,65,63;,
 4;56,57,66,65;,
 4;57,58,67,66;,
 4;58,59,68,67;,
 4;59,60,69,68;,
 4;60,61,70,69;,
 4;61,62,71,70;,
 4;64,63,72,73;,
 4;63,65,74,72;,
 4;65,66,75,74;,
 4;66,67,76,75;,
 4;67,68,77,76;,
 4;68,69,78,77;,
 4;69,70,79,78;,
 4;70,71,80,79;;
 
 MeshMaterialList {
  1;
  64;
  0,
  0,
  0,
  0,
  0,
  0,
  0,
  0,
  0,
  0,
  0,
  0,
  0,
  0,
  0,
  0,
  0,
  0,
  0,
  0,
  0,
  0,
  0,
  0,
  0,
  0,
  0,
  0,
  0,
  0,
  0,
  0,
  0,
  0,
  0,
  0,
  0,
  0,
  0,
  0,
  0,
  0,
  0,
  0,
  0,
  0,
  0,
  0,
  0,
  0,
  0,
  0,
  0,
  0,
  0,
  0,
  0,
  0,
  0,
  0,
  0,
  0,
  0,
  0;;
  Material {
   0.511200;0.000000;0.047200;1.000000;;
   54.000000;
   0.980000;0.980000;0.980000;;
   0.198090;0.000000;0.018290;;
  }
 }
 MeshNormals {
  64;
  -0.000001;-0.999848;0.017444;,
  -0.000001;-0.686280;0.727337;,
  -0.000000;0.017462;0.999847;,
  -0.000000;0.711246;0.702943;,
  -0.000000;0.999848;-0.017446;,
  0.000000;0.686277;-0.727340;,
  0.000000;-0.017448;-0.999848;,
  0.000000;-0.711238;-0.702952;,
  0.707106;-0.707000;0.012337;,
  0.494172;-0.481616;0.723768;,
  -0.000005;0.017458;0.999848;,
  -0.494175;0.506584;0.706515;,
  -0.707107;0.706999;-0.012339;,
  -0.494175;0.481615;-0.723767;,
  -0.000001;-0.017451;-0.999848;,
  0.494173;-0.506579;-0.706520;,
  1.000000;-0.000000;0.000001;,
  0.698865;0.012483;0.715144;,
  -0.000004;0.017453;0.999848;,
  -0.698869;0.012483;0.715141;,
  -1.000000;0.000000;0.000000;,
  -0.698871;-0.012484;-0.715139;,
  0.000000;-0.017453;-0.999848;,
  0.698870;-0.012483;-0.715139;,
  0.707107;0.706999;-0.012331;,
  0.494172;0.506580;0.706520;,
  -0.000001;0.017452;0.999848;,
  -0.494174;-0.481615;0.723768;,
  -0.707107;-0.706998;0.012347;,
  -0.494179;-0.506587;-0.706510;,
  -0.000003;-0.017457;-0.999848;,
  0.494178;0.481619;-0.723762;,
  0.000000;0.999848;-0.017439;,
  -0.000000;0.711240;0.702949;,
  -0.000000;0.017453;0.999848;,
  0.000000;-0.686277;0.727341;,
  0.000000;-0.999847;0.017464;,
  -0.000000;-0.711253;-0.702936;,
  -0.000001;-0.017457;-0.999848;,
  0.000000;0.686283;-0.727335;,
  -0.707107;0.706999;-0.012335;,
  -0.494173;0.506580;0.706520;,
  0.000001;0.017452;0.999848;,
  0.494174;-0.481616;0.723766;,
  0.707107;-0.706998;0.012349;,
  0.494180;-0.506588;-0.706509;,
  0.000000;-0.017454;-0.999848;,
  -0.494177;0.481618;-0.723763;,
  -1.000000;-0.000001;-0.000001;,
  -0.698868;0.012482;0.715142;,
  0.000002;0.017453;0.999848;,
  0.698870;0.012483;0.715140;,
  1.000000;0.000000;0.000002;,
  0.698872;-0.012484;-0.715138;,
  -0.000001;-0.017452;-0.999848;,
  -0.698871;-0.012482;-0.715139;,
  -0.707106;-0.707000;0.012335;,
  -0.494175;-0.481618;0.723765;,
  0.000004;0.017458;0.999848;,
  0.494175;0.506584;0.706515;,
  0.707107;0.706999;-0.012338;,
  0.494175;0.481615;-0.723766;,
  0.000002;-0.017450;-0.999848;,
  -0.494173;-0.506578;-0.706521;;
  64;
  4;0,1,9,8;,
  4;1,2,10,9;,
  4;2,3,11,10;,
  4;3,4,12,11;,
  4;4,5,13,12;,
  4;5,6,14,13;,
  4;6,7,15,14;,
  4;7,0,8,15;,
  4;8,9,17,16;,
  4;9,10,18,17;,
  4;10,11,19,18;,
  4;11,12,20,19;,
  4;12,13,21,20;,
  4;13,14,22,21;,
  4;14,15,23,22;,
  4;15,8,16,23;,
  4;16,17,25,24;,
  4;17,18,26,25;,
  4;18,19,27,26;,
  4;19,20,28,27;,
  4;20,21,29,28;,
  4;21,22,30,29;,
  4;22,23,31,30;,
  4;23,16,24,31;,
  4;24,25,33,32;,
  4;25,26,34,33;,
  4;26,27,35,34;,
  4;27,28,36,35;,
  4;28,29,37,36;,
  4;29,30,38,37;,
  4;30,31,39,38;,
  4;31,24,32,39;,
  4;32,33,41,40;,
  4;33,34,42,41;,
  4;34,35,43,42;,
  4;35,36,44,43;,
  4;36,37,45,44;,
  4;37,38,46,45;,
  4;38,39,47,46;,
  4;39,32,40,47;,
  4;40,41,49,48;,
  4;41,42,50,49;,
  4;42,43,51,50;,
  4;43,44,52,51;,
  4;44,45,53,52;,
  4;45,46,54,53;,
  4;46,47,55,54;,
  4;47,40,48,55;,
  4;48,49,57,56;,
  4;49,50,58,57;,
  4;50,51,59,58;,
  4;51,52,60,59;,
  4;52,53,61,60;,
  4;53,54,62,61;,
  4;54,55,63,62;,
  4;55,48,56,63;,
  4;56,57,1,0;,
  4;57,58,2,1;,
  4;58,59,3,2;,
  4;59,60,4,3;,
  4;60,61,5,4;,
  4;61,62,6,5;,
  4;62,63,7,6;,
  4;63,56,0,7;;
 }
 MeshTextureCoords {
  81;
  0.000000;0.000000;,
  0.000000;0.125000;,
  0.125000;0.125000;,
  0.125000;0.000000;,
  0.000000;0.250000;,
  0.125000;0.250000;,
  0.000000;0.375000;,
  0.125000;0.375000;,
  0.000000;0.500000;,
  0.125000;0.500000;,
  0.000000;0.625000;,
  0.125000;0.625000;,
  0.000000;0.750000;,
  0.125000;0.750000;,
  0.000000;0.875000;,
  0.125000;0.875000;,
  0.000000;1.000000;,
  0.125000;1.000000;,
  0.250000;0.125000;,
  0.250000;0.000000;,
  0.250000;0.250000;,
  0.250000;0.375000;,
  0.250000;0.500000;,
  0.250000;0.625000;,
  0.250000;0.750000;,
  0.250000;0.875000;,
  0.250000;1.000000;,
  0.375000;0.125000;,
  0.375000;0.000000;,
  0.375000;0.250000;,
  0.375000;0.375000;,
  0.375000;0.500000;,
  0.375000;0.625000;,
  0.375000;0.750000;,
  0.375000;0.875000;,
  0.375000;1.000000;,
  0.500000;0.125000;,
  0.500000;0.000000;,
  0.500000;0.250000;,
  0.500000;0.375000;,
  0.500000;0.500000;,
  0.500000;0.625000;,
  0.500000;0.750000;,
  0.500000;0.875000;,
  0.500000;1.000000;,
  0.625000;0.125000;,
  0.625000;0.000000;,
  0.625000;0.250000;,
  0.625000;0.375000;,
  0.625000;0.500000;,
  0.625000;0.625000;,
  0.625000;0.750000;,
  0.625000;0.875000;,
  0.625000;1.000000;,
  0.750000;0.125000;,
  0.750000;0.000000;,
  0.750000;0.250000;,
  0.750000;0.375000;,
  0.750000;0.500000;,
  0.750000;0.625000;,
  0.750000;0.750000;,
  0.750000;0.875000;,
  0.750000;1.000000;,
  0.875000;0.125000;,
  0.875000;0.000000;,
  0.875000;0.250000;,
  0.875000;0.375000;,
  0.875000;0.500000;,
  0.875000;0.625000;,
  0.875000;0.750000;,
  0.875000;0.875000;,
  0.875000;1.000000;,
  1.000000;0.125000;,
  1.000000;0.000000;,
  1.000000;0.250000;,
  1.000000;0.375000;,
  1.000000;0.500000;,
  1.000000;0.625000;,
  1.000000;0.750000;,
  1.000000;0.875000;,
  1.000000;1.000000;;
 }
}
